<svg width="1455" height="1233" viewBox="0 0 1455 1233" fill="none" xmlns="http://www.w3.org/2000/svg">
<path d="M1484 0.000244141C1239 636.488 188.5 506.244 -113 375.999L-113 998.932C806.5 1499.87 1309.44 1067.38 1484 892.261V0.000244141Z" fill="#DCF1FF" fill-opacity="0.34"/>
</svg>
