<svg width="1455" height="2268" viewBox="0 0 1455 2268" fill="none" xmlns="http://www.w3.org/2000/svg">
<path d="M5.5 134C66 342.5 543 981 1476.5 784" stroke="#DCF1FF"/>
<path d="M-36 1741C26.104 1957.01 464.5 2248.5 464.5 2248.5" stroke="#DCF1FF"/>
<path d="M1727 1052.67C1596.11 1238.39 866.748 1731.42 -125.257 1298.83" stroke="#DCF1FF"/>
<path d="M-26 959.536C165.465 1087.77 969.682 1290.39 1528.68 523.686" stroke="#DCF1FF"/>
<path d="M1513.3 1858.23C1258.9 1932.54 291.771 1920.1 -106.517 1034.85" stroke="#DCF1FF"/>
</svg>
