<svg width="1455" height="421" viewBox="0 0 1455 421" fill="none" xmlns="http://www.w3.org/2000/svg">
<path d="M1717 0.66626C1586.11 186.388 856.749 679.421 -135.256 246.834" stroke="#DCF1FF"/>
</svg>
