<svg width="120" height="117" viewBox="0 0 120 117" fill="none" xmlns="http://www.w3.org/2000/svg">
<g clip-path="url(#clip0)">
<path d="M106.188 69.2956C106.188 69.0824 106.188 67.0573 106.188 67.0573C106.188 67.0573 107.326 67.0573 107.857 67.0573C109.254 67.0573 112.897 67.0573 112.897 67.0573C112.897 67.0573 112.881 81.9183 112.897 88.9681C112.897 89.6077 112.897 89.7447 112.897 89.7447C111.227 89.7143 106.188 89.7447 106.188 89.7447C106.188 89.4402 106.188 87.6891 106.188 87.3694C106.188 87.3694 105.839 87.7653 105.823 87.7805C103.334 90.6431 100.116 90.9019 96.7468 90.1863C91.6469 89.1052 88.6871 84.8418 88.2014 79.8475C87.8067 75.7211 88.7781 71.9754 91.9656 69.1128C94.9861 66.4025 98.5226 65.626 102.439 66.6918C103.805 67.0725 105.201 68.1079 106.188 69.2956ZM100.45 84.0957C103.683 84.0957 106.081 81.6442 106.097 78.3249C106.112 75.1882 103.623 72.6454 100.541 72.6302C97.3236 72.6149 94.895 75.1121 94.9102 78.4162C94.9102 81.5833 97.3691 84.0957 100.45 84.0957Z" fill="#18AFC9"/>
<path d="M22.9952 69.2803C22.9952 69.0671 22.9952 67.042 22.9952 67.042C22.9952 67.042 24.1336 67.042 24.6648 67.042C26.0612 67.042 29.704 67.042 29.704 67.042C29.704 67.042 29.6888 81.903 29.704 88.9529C29.704 89.5924 29.704 89.7294 29.704 89.7294C28.0344 89.699 22.9952 89.7294 22.9952 89.7294C22.9952 89.4249 22.9952 87.6739 22.9952 87.3541C22.9952 87.3541 22.6461 87.75 22.6309 87.7652C20.1417 90.6278 16.9239 90.8867 13.5543 90.171C8.45434 89.0899 5.49456 84.8265 5.00885 79.8322C4.61422 75.7059 5.58563 71.9602 8.77308 69.0976C11.7936 66.3873 15.3301 65.6107 19.2461 66.6766C20.6122 67.0572 22.0086 68.0926 22.9952 69.2803ZM17.2578 84.0804C20.4908 84.0804 22.8889 81.629 22.9041 78.3096C22.9193 75.1729 20.4301 72.6301 17.3488 72.6149C14.131 72.5997 11.7025 75.0968 11.7177 78.401C11.7177 81.5528 14.1766 84.0804 17.2578 84.0804Z" fill="#18AFC9"/>
<path d="M70.7767 68.4886C73.7516 65.687 77.1667 65.7783 80.4604 67.2705C83.2533 68.5191 84.7863 70.9705 84.8622 74.0311C84.9988 79.0406 84.9077 84.0653 84.9229 89.0748C84.9229 89.6382 84.9229 89.7448 84.9229 89.7448H78.1533C78.1533 89.7448 78.1837 81.492 78.1685 77.792C78.1685 77.2286 78.1533 76.6652 78.1078 76.0866C77.9864 74.1376 76.9998 72.9652 75.3605 72.7673C73.1141 72.4932 71.49 73.3306 70.974 75.2644C70.7918 75.9648 70.7767 76.1475 70.7767 76.1019C70.7767 76.1019 67.4526 76.1019 66.2535 76.1171C63.5518 76.1171 61.7456 74.2595 61.7304 71.5644C61.7304 70.3463 61.7304 67.0573 61.7304 67.0573H70.7615C70.7767 67.0573 70.7767 67.8796 70.7767 68.4886Z" fill="#18AFC9"/>
<path d="M48.1457 88.2068C45.4591 90.9019 42.1654 90.9476 38.9931 89.7447C35.7753 88.5266 34.1664 85.8467 33.9843 82.4817C33.9843 81.0961 33.9843 70.1635 33.9843 70.1635V67.0725C35.2289 67.0725 40.7842 67.0725 40.7842 67.0725C40.7842 67.0725 40.769 75.7363 40.769 79.6495C40.769 80.1216 40.769 80.6088 40.8449 81.0808C41.1485 83.0298 42.1351 83.9586 44.0172 84.0957C45.9296 84.2327 47.5385 83.3039 47.9787 81.5072C48.1153 80.9895 48.1457 80.6393 48.1457 80.6393C49.3903 80.6849 55.9018 80.624 57.1464 80.6393V89.7751C54.6117 89.7447 48.1457 89.7751 48.1457 89.7751V88.2068Z" fill="#18AFC9"/>
<path d="M61.7455 89.7447C61.7455 89.7447 61.7303 86.3645 61.7455 85.0245C61.8214 82.6645 63.6124 80.8677 65.9347 80.6089H70.7766C70.7766 80.6089 70.7766 89.8209 70.7766 89.7447H61.7455Z" fill="#BAD058"/>
<path d="M48.1457 67.0573C50.7412 67.0725 57.1465 67.0573 57.1465 67.0573C57.1161 68.4885 57.1465 72.082 57.1465 72.082C57.0554 74.3203 55.1429 76.1322 52.9117 76.1627C51.6064 76.1779 50.2859 76.117 48.9805 76.1779C48.2368 76.2084 48.1153 75.9495 48.1305 75.2795V67.0573H48.1457Z" fill="#BAD058"/>
<path d="M9.54718 24.4993C10.4427 24.3166 11.3686 24.3166 12.2641 24.4993C13.4177 24.743 14.4346 25.2454 15.3301 26.1133C15.5123 26.2961 15.9221 26.7529 15.9221 26.7529L14.3435 28.1994C14.3435 28.1994 13.9793 27.8492 13.8275 27.6969C12.2337 26.1286 9.89628 26.0981 8.43916 27.5142C6.95169 28.9607 6.78472 31.2903 8.07488 32.8739C9.47129 34.5792 12.0971 34.6402 13.9034 33.0414C14.1007 32.8587 14.4953 32.5389 14.4953 32.5389L15.9524 33.8941C15.9524 33.8941 15.7096 34.1834 15.6033 34.3052C13.9944 36.2085 10.8829 36.8937 8.46952 35.9039C6.08652 34.9295 4.76601 32.6759 4.94815 29.9504C5.13029 27.2401 6.78472 25.2302 9.3954 24.5602C9.44093 24.5298 9.50165 24.5146 9.54718 24.4993Z" fill="#18AFC9"/>
<path d="M42.5297 27.4989C43.1976 27.3619 43.8806 27.3619 44.5484 27.4989C45.4136 27.6816 46.1725 28.0623 46.8252 28.7018C46.9618 28.8388 47.2654 29.1738 47.2654 29.1738L46.0815 30.2549C46.0815 30.2549 45.8082 29.996 45.702 29.8742C44.5029 28.7018 42.7574 28.6866 41.6797 29.7372C40.5566 30.8183 40.4503 32.5541 41.4065 33.7417C42.4538 35.0055 44.4118 35.0664 45.7627 33.8635C45.9145 33.7265 46.2029 33.4829 46.2029 33.4829L47.2957 34.4878C47.2957 34.4878 47.1136 34.701 47.0377 34.8076C45.8386 36.2236 43.5163 36.7413 41.7101 35.9952C39.9342 35.2644 38.9476 33.5895 39.0843 31.5491C39.2209 29.524 40.4503 28.0318 42.4083 27.5293C42.4387 27.5293 42.4842 27.5141 42.5297 27.4989Z" fill="#18AFC9"/>
<path d="M25.0139 47.1106C24.2247 45.4661 22.8738 44.7505 21.1283 44.781C19.3069 44.7962 17.8953 45.588 17.1516 47.2933C16.4078 49.0139 16.5444 50.704 17.7435 52.181C19.0792 53.8255 21.5988 54.1909 23.997 53.1859C24.6041 52.9271 25.105 52.5617 25.105 52.5617L24.2095 51.0086C24.2095 51.0086 23.9059 51.1761 23.7238 51.2826C22.8738 51.7699 21.9479 51.9374 20.9765 51.8308C20.2783 51.7547 19.7319 51.4349 19.3372 50.8715C19.2006 50.6736 19.0337 50.2777 19.064 50.0189H22.2211C23.0863 50.0189 24.5282 50.0189 25.3934 50.0189V49.5468C25.3782 48.7246 25.3934 47.8872 25.0139 47.1106ZM23.2836 48.4048C22.7524 48.3896 21.6595 48.4048 21.1283 48.4048C20.5667 48.4048 19.5649 48.4048 19.0033 48.4048C19.0033 48.4048 19.1703 47.7044 19.3676 47.4151C19.7774 46.867 20.3694 46.5777 21.0827 46.5624C21.9783 46.5472 22.6765 46.9279 23.1015 47.7501C23.3291 48.1765 23.2836 48.4048 23.2836 48.4048Z" fill="#18AFC9"/>
<path d="M66.4964 44.7505C69.1222 44.7657 71.0499 46.7451 71.0195 49.3641C70.9892 51.8764 68.9553 53.795 66.375 53.7645C63.7947 53.7341 61.8974 51.7851 61.9277 49.1966C61.9429 46.6081 63.8857 44.7352 66.4964 44.7505ZM68.849 49.3336C68.8642 47.8414 67.908 46.7756 66.4964 46.7603C65.1 46.7299 64.0223 47.7957 64.0072 49.227C63.992 50.5974 65.1152 51.7851 66.4357 51.7851C67.7714 51.8003 68.8187 50.7192 68.849 49.3336Z" fill="#18AFC9"/>
<path d="M36.3521 24.0121C37.111 24.0121 37.6878 24.6211 37.6726 25.3825C37.6574 26.1286 37.1262 26.6615 36.3673 26.6615C35.5628 26.6767 34.986 26.1286 35.0012 25.352C35.0316 24.5602 35.5628 24.0121 36.3521 24.0121Z" fill="#18AFC9"/>
<path d="M23.238 27.5143H21.4015V36.1934H23.238V27.5143Z" fill="#18AFC9"/>
<path d="M33.4075 31.1077H33.3923C33.3923 30.9554 33.3923 30.8031 33.3923 30.6509C33.3164 27.636 30.2959 26.7072 27.9888 27.8035C27.8826 27.8644 27.6549 27.9862 27.5031 28.0776V27.5447H25.3174V36.2085H26.4103C26.4862 36.2085 26.5621 36.2085 26.638 36.2085C26.729 36.2085 26.8049 36.2085 26.8656 36.2085H27.5031V31.8994C27.5183 31.6863 27.5183 31.4579 27.5335 31.2447C27.6094 30.0723 28.5049 29.311 29.537 29.3566C30.4781 29.4023 31.2218 30.2854 31.237 31.4122C31.237 31.4883 31.237 31.5797 31.237 31.6558V36.2237H32.4816C32.4968 36.2237 32.512 36.2237 32.5272 36.2237C32.6638 36.239 32.77 36.239 32.8459 36.2237H33.4227V31.1077H33.4075Z" fill="#18AFC9"/>
<path d="M37.2325 27.5143H35.3959V36.1934H37.2325V27.5143Z" fill="#18AFC9"/>
<path d="M54.9001 27.5295V28.2756C54.7483 28.1994 54.5661 28.0928 54.4599 28.0167C54.2626 27.8949 54.0501 27.7579 53.8376 27.6817C52.0465 26.9813 50.0733 27.6056 48.9653 29.2196C47.7814 30.9554 47.9787 33.5591 49.4055 35.097C50.6805 36.4674 52.7295 36.7871 54.384 35.8279C54.5054 35.7517 54.7027 35.6147 54.9001 35.5081V36.1781H57.1616V27.5295H54.9001ZM52.6233 34.427C51.3483 34.3814 50.2858 33.2242 50.3314 31.9299C50.3921 30.3464 51.3938 29.2805 52.8054 29.3262C54.1563 29.3566 55.234 30.5443 55.2036 31.9451C55.1581 33.4069 54.0501 34.4879 52.6233 34.427Z" fill="#18AFC9"/>
<path d="M21.4015 25.8697H23.3443L24.7711 23.266H22.2514L21.4015 25.8697Z" fill="#18AFC9"/>
<path d="M19.3221 24.1644H17.1667V36.1781H19.3221V24.1644Z" fill="#18AFC9"/>
<path d="M29.021 41.4312H26.8657V53.4448H29.021V41.4312Z" fill="#18AFC9"/>
<path d="M39.4789 44.8114H37.2628L37.278 45.5575C37.1262 45.5271 36.9441 45.4205 36.8378 45.3596C35.2745 44.446 33.7415 44.5983 32.3147 45.588C30.6754 46.73 30.2808 48.4201 30.6603 50.2625C30.9942 51.9679 32.1022 53.0185 33.787 53.46C35.062 53.7798 36.1852 53.4448 37.3387 52.6835C37.4146 54.0386 36.8227 54.8456 35.6388 55.1502C34.4397 55.4547 33.3317 55.1654 32.2995 54.5868C32.087 54.465 31.7531 54.2975 31.7531 54.2975L30.8576 55.8658C30.8576 55.8658 31.3736 56.2465 31.9504 56.5053C32.2692 56.6576 32.6183 56.7794 32.9522 56.8708C36.1093 57.7539 39.403 56.4444 39.4941 52.6378C39.4789 52.6074 39.4789 44.8114 39.4789 44.8114ZM35.0923 51.6481C33.6808 51.6481 32.6334 50.6127 32.6334 49.1814C32.6334 47.7806 33.6352 46.7452 35.0316 46.73C36.5039 46.7147 37.4602 47.674 37.445 49.1966C37.4298 50.6736 36.4887 51.6481 35.0923 51.6481Z" fill="#18AFC9"/>
<path d="M15.315 45.725C14.7534 43.7456 13.4784 42.4514 11.4597 42.0707C10.291 41.8423 9.09187 41.8575 7.89278 41.888V41.8728H5.5705V53.5514H7.90796C8.71241 53.5514 9.53204 53.5667 10.3365 53.5362C12.9775 53.4144 14.7534 52.0136 15.3605 49.6382C15.6793 48.3135 15.6793 47.0193 15.315 45.725ZM9.83561 51.435C9.69901 51.435 8.54545 51.4045 7.90796 51.3741V44.0045C8.51509 44.0197 9.48651 44.0045 9.88115 44.0045C12.0061 44.0501 13.2963 45.451 13.2811 47.7197C13.2659 50.0037 11.9758 51.3893 9.83561 51.435Z" fill="#18AFC9"/>
<path d="M58.2545 41.4312L58.2848 41.9184C58.2697 41.9945 58.2545 42.1011 58.2545 42.2077C58.2393 42.9842 58.2697 43.7608 58.2697 44.5373C58.2697 45.0855 58.2545 45.5423 58.2545 45.5423C58.2545 45.5423 58.0875 45.5118 57.5411 45.2225C57.3134 45.1007 56.7518 44.9485 56.4938 44.8876C54.7483 44.446 52.9269 45.2987 51.9858 46.9888C51.0144 48.7551 51.3484 51.2218 52.7751 52.6074C54.0501 53.8559 56.0536 54.0843 57.617 53.1555C57.7688 53.0642 58.0116 52.8814 58.2545 52.8053V53.4448H60.4098V41.4312H58.2545ZM55.9474 51.8004C54.5813 51.8004 53.5644 50.6888 53.5796 49.2271C53.5947 47.7501 54.6269 46.6843 56.0081 46.6995C57.359 46.7147 58.4518 47.9024 58.4214 49.2728C58.3911 50.6888 57.2983 51.8004 55.9474 51.8004Z" fill="#18AFC9"/>
<path d="M47.6448 44.8418V45.5879C47.493 45.5118 47.3109 45.4052 47.2046 45.3291C47.0073 45.2073 46.7948 45.0702 46.5823 44.9941C44.7913 44.2937 42.8181 44.918 41.7101 46.532C40.5261 48.2678 40.7235 50.8715 42.1502 52.4094C43.4252 53.7798 45.4743 54.0995 47.1287 53.1403C47.2502 53.0641 47.4475 52.9271 47.6448 52.8205V53.4905H49.9064V44.8418H47.6448ZM45.368 51.7394C44.0931 51.6938 43.0306 50.5365 43.0761 49.2423C43.1368 47.6587 44.1386 46.5929 45.5502 46.6386C46.9011 46.669 47.9787 47.8567 47.9484 49.2575C47.918 50.7193 46.7948 51.8003 45.368 51.7394Z" fill="#18AFC9"/>
</g>
<defs>
<clipPath id="clip0">
<rect width="120" height="117" fill="white"/>
</clipPath>
</defs>
</svg>
