<svg width="305" height="91" viewBox="0 0 305 91" fill="none" xmlns="http://www.w3.org/2000/svg">
<path d="M84.1208 13.5433V77.1604" stroke="black" stroke-width="5.6124" stroke-miterlimit="10"/>
<path d="M103.805 26.3757C102.67 25.3686 102.383 24.0415 102.383 22.9277C102.383 22.1457 102.658 20.7831 103.697 19.7522C104.402 19.0531 105.465 18.5081 107.28 18.5081C107.746 18.5081 108.403 18.5436 108.976 18.6502C109.418 18.7332 109.8 18.8043 110.171 18.828C110.302 18.8398 110.326 18.8872 110.326 18.9583C110.326 19.0531 110.29 19.1953 110.266 19.61C110.242 19.9892 110.242 20.629 110.23 20.8068C110.219 20.9845 110.195 21.0556 110.123 21.0556C110.039 21.0556 110.027 20.9726 110.027 20.8068C110.027 20.3565 109.836 19.8707 109.538 19.6219C109.132 19.2782 108.224 18.9583 107.197 18.9583C105.632 18.9583 104.903 19.4086 104.497 19.8114C103.637 20.629 103.446 21.6599 103.446 22.8448C103.446 25.0724 105.166 27.1104 107.686 27.1104C108.57 27.1104 109.263 27.0037 109.729 26.5298C109.98 26.2691 110.123 25.7596 110.159 25.5463C110.183 25.416 110.207 25.3686 110.278 25.3686C110.338 25.3686 110.362 25.4515 110.362 25.5463C110.362 25.6293 110.218 26.6364 110.099 27.0393C110.027 27.2644 110.004 27.2881 109.789 27.3829C109.323 27.5725 108.427 27.6554 107.674 27.6554C105.919 27.6317 104.736 27.2052 103.805 26.3757Z" fill="black"/>
<path d="M121.494 24.1126C121.494 25.8189 121.541 26.5653 121.756 26.7786C121.947 26.9682 122.246 27.0511 123.166 27.0511C123.787 27.0511 124.3 27.0393 124.587 26.7075C124.742 26.5179 124.862 26.2336 124.898 26.0084C124.91 25.9136 124.933 25.8544 125.005 25.8544C125.065 25.8544 125.077 25.9018 125.077 26.0321C125.077 26.1625 124.993 26.8616 124.898 27.1933C124.814 27.4659 124.778 27.5133 124.157 27.5133C123.309 27.5133 122.7 27.4896 122.21 27.4777C121.72 27.454 121.35 27.4422 121.016 27.4422C120.968 27.4422 120.765 27.454 120.538 27.454C120.299 27.4659 120.048 27.4777 119.869 27.4777C119.738 27.4777 119.678 27.454 119.678 27.3829C119.678 27.3474 119.702 27.3118 119.774 27.3118C119.881 27.3118 120.024 27.2881 120.12 27.2644C120.359 27.217 120.419 26.9564 120.466 26.6246C120.526 26.1388 120.526 25.2146 120.526 24.1008V22.0509C120.526 20.238 120.526 19.9062 120.502 19.5389C120.478 19.1479 120.383 18.9583 120.001 18.8754C119.905 18.8517 119.702 18.8398 119.606 18.8398C119.559 18.8398 119.511 18.8161 119.511 18.7687C119.511 18.6976 119.571 18.674 119.702 18.674C120.227 18.674 120.968 18.7095 121.028 18.7095C121.087 18.7095 121.947 18.674 122.294 18.674C122.425 18.674 122.485 18.6976 122.485 18.7687C122.485 18.8161 122.437 18.8398 122.389 18.8398C122.306 18.8398 122.139 18.8517 122.007 18.8754C121.661 18.9346 121.577 19.1361 121.553 19.5389C121.529 19.9062 121.529 20.238 121.529 22.0509V24.1126H121.494Z" fill="black"/>
<path d="M135.79 24.089C135.79 25.2028 135.79 26.127 135.85 26.6128C135.886 26.9446 135.958 27.2053 136.304 27.2527C136.471 27.2764 136.722 27.3001 136.829 27.3001C136.901 27.3001 136.925 27.3356 136.925 27.3711C136.925 27.4304 136.865 27.4659 136.734 27.4659C136.089 27.4659 135.348 27.4304 135.289 27.4304C135.229 27.4304 134.489 27.4659 134.142 27.4659C134.011 27.4659 133.951 27.4422 133.951 27.3711C133.951 27.3356 133.975 27.3001 134.047 27.3001C134.154 27.3001 134.297 27.2764 134.393 27.2527C134.632 27.2053 134.692 26.9446 134.727 26.6128C134.787 26.127 134.787 25.2028 134.787 24.089V22.0391C134.787 20.2262 134.787 19.8945 134.763 19.5271C134.739 19.1361 134.62 18.9347 134.369 18.8754C134.238 18.8399 134.082 18.828 134.011 18.828C133.963 18.828 133.915 18.8043 133.915 18.757C133.915 18.6859 133.975 18.6622 134.106 18.6622C134.489 18.6622 135.229 18.6977 135.289 18.6977C135.348 18.6977 136.089 18.6622 136.435 18.6622C136.567 18.6622 136.626 18.6859 136.626 18.757C136.626 18.8043 136.579 18.828 136.531 18.828C136.447 18.828 136.376 18.8399 136.232 18.8636C135.91 18.9228 135.826 19.1243 135.802 19.5271C135.778 19.8945 135.778 20.2262 135.778 22.0391V24.089H135.79ZM137.092 17.0862C137.152 17.1929 137.092 17.2284 137.044 17.2284C137.009 17.2284 136.889 17.2047 136.698 17.2284C136.125 17.2877 135.301 17.5602 134.918 17.7142C134.835 17.7498 134.763 17.7735 134.739 17.7735C134.715 17.7735 134.68 17.7498 134.68 17.7024C134.68 17.6668 134.704 17.6431 134.763 17.6076C135.181 17.3114 136.28 16.6597 136.364 16.6123C136.567 16.4938 136.638 16.4583 136.686 16.4583C136.722 16.4583 136.746 16.482 136.806 16.5649C136.877 16.6952 136.961 16.8493 137.092 17.0862Z" fill="black"/>
<path d="M147.627 25.89C147.651 26.8497 147.77 27.146 148.081 27.2408C148.308 27.3 148.558 27.3119 148.666 27.3119C148.726 27.3119 148.762 27.3356 148.762 27.383C148.762 27.454 148.69 27.4777 148.547 27.4777C147.878 27.4777 147.412 27.4422 147.304 27.4422C147.197 27.4422 146.707 27.4777 146.182 27.4777C146.062 27.4777 145.991 27.4659 145.991 27.383C145.991 27.3356 146.026 27.3119 146.086 27.3119C146.182 27.3119 146.397 27.3 146.564 27.2408C146.862 27.1578 146.91 26.826 146.91 25.7596L146.922 19.0887C146.922 18.6384 146.958 18.5081 147.054 18.5081C147.149 18.5081 147.352 18.7687 147.46 18.8754C147.639 19.0768 149.383 20.9489 151.186 22.8685C152.345 24.1008 153.623 25.5227 154.005 25.9018L153.874 19.9892C153.862 19.2308 153.778 18.982 153.42 18.8872C153.205 18.8398 152.942 18.828 152.846 18.828C152.763 18.828 152.751 18.7924 152.751 18.745C152.751 18.6739 152.846 18.6621 152.99 18.6621C153.515 18.6621 154.077 18.6976 154.208 18.6976C154.339 18.6976 154.722 18.6621 155.199 18.6621C155.331 18.6621 155.414 18.6739 155.414 18.745C155.414 18.7924 155.367 18.828 155.283 18.828C155.223 18.828 155.14 18.828 154.996 18.8635C154.614 18.9465 154.566 19.1953 154.566 19.8944L154.542 26.7194C154.542 27.4896 154.518 27.5488 154.435 27.5488C154.339 27.5488 154.196 27.4185 153.575 26.8024C153.444 26.6839 151.759 24.9776 150.517 23.6505C149.156 22.1931 147.83 20.7238 147.46 20.3091L147.627 25.89Z" fill="black"/>
<path d="M166.749 24.089C166.749 25.2028 166.749 26.1271 166.809 26.6129C166.845 26.9446 166.916 27.2053 167.263 27.2527C167.43 27.2764 167.681 27.3001 167.788 27.3001C167.86 27.3001 167.884 27.3357 167.884 27.3712C167.884 27.4304 167.824 27.466 167.693 27.466C167.048 27.466 166.307 27.4304 166.247 27.4304C166.188 27.4304 165.447 27.466 165.101 27.466C164.97 27.466 164.91 27.4423 164.91 27.3712C164.91 27.3357 164.934 27.3001 165.005 27.3001C165.113 27.3001 165.256 27.2764 165.352 27.2527C165.591 27.2053 165.65 26.9446 165.686 26.6129C165.746 26.1271 165.746 25.2028 165.746 24.089V22.0392C165.746 20.2263 165.746 19.8945 165.722 19.5272C165.698 19.1362 165.579 18.9348 165.328 18.8755C165.196 18.84 165.041 18.8281 164.97 18.8281C164.922 18.8281 164.874 18.8044 164.874 18.757C164.874 18.6859 164.934 18.6622 165.065 18.6622C165.447 18.6622 166.188 18.6978 166.247 18.6978C166.307 18.6978 167.048 18.6622 167.394 18.6622C167.525 18.6622 167.585 18.6859 167.585 18.757C167.585 18.8044 167.537 18.8281 167.49 18.8281C167.406 18.8281 167.334 18.84 167.191 18.8637C166.869 18.9229 166.785 19.1243 166.761 19.5272C166.737 19.8945 166.737 20.2263 166.737 22.0392V24.089H166.749Z" fill="black"/>
<path d="M178.167 26.3757C177.033 25.3686 176.746 24.0415 176.746 22.9277C176.746 22.1457 177.021 20.7831 178.06 19.7522C178.765 19.0531 179.828 18.5081 181.643 18.5081C182.109 18.5081 182.766 18.5436 183.339 18.6502C183.781 18.7332 184.163 18.8043 184.534 18.828C184.665 18.8398 184.689 18.8872 184.689 18.9583C184.689 19.0531 184.653 19.1953 184.629 19.61C184.605 19.9892 184.605 20.629 184.593 20.8068C184.581 20.9845 184.557 21.0556 184.486 21.0556C184.402 21.0556 184.39 20.9726 184.39 20.8068C184.39 20.3565 184.199 19.8707 183.901 19.6219C183.494 19.2782 182.587 18.9583 181.56 18.9583C179.995 18.9583 179.266 19.4086 178.86 19.8114C178 20.629 177.809 21.6599 177.809 22.8448C177.809 25.0724 179.529 27.1104 182.049 27.1104C182.933 27.1104 183.626 27.0037 184.092 26.5298C184.342 26.2691 184.486 25.7596 184.522 25.5463C184.545 25.416 184.569 25.3686 184.641 25.3686C184.701 25.3686 184.725 25.4515 184.725 25.5463C184.725 25.6293 184.581 26.6364 184.462 27.0393C184.39 27.2644 184.366 27.2881 184.151 27.3829C183.686 27.5725 182.79 27.6554 182.037 27.6554C180.282 27.6317 179.099 27.2052 178.167 26.3757Z" fill="black"/>
<path d="M196.561 18.9583C196.704 18.5792 196.752 18.5081 196.824 18.5081C196.896 18.5081 196.943 18.5673 197.087 18.9228C197.266 19.3612 199.105 24.1719 199.822 25.9374C200.24 26.9682 200.586 27.1578 200.825 27.2289C201.004 27.2881 201.172 27.3 201.291 27.3C201.363 27.3 201.41 27.3118 201.41 27.3711C201.41 27.4422 201.303 27.4659 201.172 27.4659C200.992 27.4659 200.144 27.4659 199.332 27.4422C199.105 27.4303 198.986 27.4303 198.986 27.3592C198.986 27.3118 199.022 27.2881 199.069 27.2763C199.141 27.2526 199.213 27.1459 199.141 26.9564L198.054 24.0889C198.03 24.0415 198.006 24.0178 197.947 24.0178H195.426C195.367 24.0178 195.331 24.0534 195.307 24.1126L194.602 26.1743C194.495 26.4706 194.435 26.7431 194.435 26.9564C194.435 27.1933 194.686 27.3 194.877 27.3H194.996C195.08 27.3 195.116 27.3237 195.116 27.3711C195.116 27.4422 195.044 27.4659 194.937 27.4659C194.65 27.4659 194.148 27.4303 194.017 27.4303C193.886 27.4303 193.241 27.4659 192.691 27.4659C192.536 27.4659 192.464 27.4422 192.464 27.3711C192.464 27.3237 192.512 27.3 192.572 27.3C192.655 27.3 192.823 27.2881 192.906 27.2763C193.444 27.2052 193.683 26.7668 193.898 26.1862L196.561 18.9583ZM197.779 23.615C197.839 23.615 197.839 23.5794 197.827 23.532L196.716 20.392C196.657 20.2143 196.597 20.2143 196.537 20.392L195.51 23.532C195.486 23.5913 195.51 23.615 195.546 23.615H197.779Z" fill="black"/>
<path d="M103.805 37.9291C102.67 36.922 102.383 35.5949 102.383 34.4811C102.383 33.699 102.658 32.3364 103.697 31.3055C104.402 30.6065 105.465 30.0614 107.28 30.0614C107.746 30.0614 108.403 30.0969 108.976 30.2036C109.418 30.2865 109.8 30.3576 110.171 30.3813C110.302 30.3932 110.326 30.4406 110.326 30.5117C110.326 30.6065 110.29 30.7486 110.266 31.1634C110.242 31.5425 110.242 32.1824 110.23 32.3601C110.218 32.5378 110.195 32.6089 110.123 32.6089C110.039 32.6089 110.027 32.526 110.027 32.3601C110.027 31.9098 109.836 31.424 109.538 31.1752C109.132 30.8316 108.224 30.5117 107.197 30.5117C105.632 30.5117 104.903 30.9619 104.497 31.3648C103.637 32.1824 103.446 33.2132 103.446 34.3981C103.446 36.6257 105.166 38.6638 107.686 38.6638C108.57 38.6638 109.263 38.5571 109.729 38.0832C109.98 37.8225 110.123 37.313 110.159 37.0997C110.183 36.9694 110.207 36.922 110.278 36.922C110.338 36.922 110.362 37.0049 110.362 37.0997C110.362 37.1826 110.218 38.1898 110.099 38.5927C110.027 38.8178 110.003 38.8415 109.788 38.9363C109.323 39.1259 108.427 39.2088 107.674 39.2088C105.919 39.1851 104.736 38.7586 103.805 37.9291Z" fill="#C5260E"/>
<path d="M114.853 33.6036C114.853 31.7907 114.853 31.4589 114.829 31.0916C114.805 30.7006 114.709 30.511 114.327 30.4281C114.232 30.4044 114.029 30.3925 113.933 30.3925C113.885 30.3925 113.837 30.3688 113.837 30.3214C113.837 30.2503 113.897 30.2266 114.029 30.2266C114.303 30.2266 114.614 30.2266 114.877 30.2385L115.354 30.2622C115.438 30.2622 117.767 30.2622 118.042 30.2503C118.269 30.2385 118.448 30.2148 118.543 30.1911C118.603 30.1792 118.651 30.1318 118.711 30.1318C118.747 30.1318 118.758 30.1792 118.758 30.2385C118.758 30.3214 118.699 30.4636 118.663 30.7835C118.651 30.902 118.627 31.4115 118.603 31.5537C118.591 31.613 118.567 31.6841 118.52 31.6841C118.448 31.6841 118.424 31.6248 118.424 31.53C118.424 31.4471 118.412 31.2456 118.352 31.1153C118.269 30.9257 118.149 30.7835 117.516 30.7243C117.313 30.7006 116.035 30.6887 115.904 30.6887C115.856 30.6887 115.832 30.7243 115.832 30.8072V34.0064C115.832 34.0894 115.844 34.1249 115.904 34.1249C116.059 34.1249 117.504 34.1249 117.767 34.1012C118.054 34.0775 118.209 34.0538 118.317 33.9354C118.4 33.8406 118.448 33.7813 118.496 33.7813C118.532 33.7813 118.555 33.805 118.555 33.8761C118.555 33.9472 118.496 34.1486 118.46 34.5278C118.436 34.7648 118.412 35.1913 118.412 35.2743C118.412 35.3691 118.412 35.4994 118.328 35.4994C118.269 35.4994 118.245 35.452 118.245 35.3928C118.245 35.2743 118.245 35.1558 118.197 35.0136C118.149 34.8477 118.042 34.6581 117.588 34.6107C117.265 34.5752 116.107 34.5515 115.916 34.5515C115.856 34.5515 115.832 34.587 115.832 34.6344V35.6535C115.832 36.0445 115.82 37.3953 115.832 37.6441C115.868 38.4498 116.047 38.6038 117.194 38.6038C117.504 38.6038 118.018 38.6039 118.317 38.4735C118.627 38.3432 118.758 38.118 118.842 37.6322C118.866 37.5019 118.89 37.4545 118.95 37.4545C119.021 37.4545 119.021 37.5493 119.021 37.6322C119.021 37.727 118.926 38.5209 118.866 38.7579C118.782 39.066 118.687 39.066 118.233 39.066C117.349 39.066 116.704 39.0423 116.25 39.0304C115.796 39.0067 115.51 38.9949 115.33 38.9949C115.307 38.9949 115.104 38.9949 114.865 39.0067C114.626 39.0067 114.363 39.0304 114.184 39.0304C114.052 39.0304 113.993 39.0067 113.993 38.9356C113.993 38.9001 114.017 38.8645 114.088 38.8645C114.196 38.8645 114.339 38.8408 114.435 38.8171C114.674 38.7697 114.733 38.5091 114.781 38.1773C114.841 37.6915 114.841 36.7673 114.841 35.6535V33.6036H114.853Z" fill="#C5260E"/>
<path d="M124.014 37.4428C124.038 38.4026 124.157 38.6988 124.468 38.7936C124.695 38.8529 124.945 38.8647 125.053 38.8647C125.113 38.8647 125.148 38.8884 125.148 38.9358C125.148 39.0069 125.077 39.0306 124.933 39.0306C124.265 39.0306 123.799 38.9951 123.691 38.9951C123.584 38.9951 123.094 39.0306 122.568 39.0306C122.449 39.0306 122.377 39.0188 122.377 38.9358C122.377 38.8884 122.413 38.8647 122.473 38.8647C122.568 38.8647 122.783 38.8529 122.951 38.7936C123.249 38.7107 123.297 38.3789 123.297 37.3125L123.309 30.6415C123.309 30.1913 123.345 30.0609 123.44 30.0609C123.536 30.0609 123.739 30.3216 123.846 30.4282C124.026 30.6297 125.769 32.5018 127.573 34.4213C128.732 35.6536 130.01 37.0755 130.392 37.4547L130.26 31.542C130.248 30.7837 130.165 30.5349 129.807 30.4401C129.592 30.3927 129.329 30.3808 129.233 30.3808C129.15 30.3808 129.138 30.3453 129.138 30.2979C129.138 30.2268 129.233 30.215 129.377 30.215C129.902 30.215 130.463 30.2505 130.595 30.2505C130.726 30.2505 131.108 30.215 131.598 30.215C131.729 30.215 131.813 30.2268 131.813 30.2979C131.813 30.3453 131.765 30.3808 131.682 30.3808C131.622 30.3808 131.538 30.3808 131.395 30.4164C131.013 30.4993 130.965 30.7482 130.965 31.4472L130.941 38.2723C130.941 39.0425 130.917 39.1017 130.834 39.1017C130.738 39.1017 130.595 38.9714 129.974 38.3552C129.842 38.2367 128.158 36.5305 126.916 35.2034C125.554 33.746 124.229 32.2767 123.858 31.862L124.014 37.4428Z" fill="#C5260E"/>
<path d="M139.003 35.6417C139.003 36.7555 139.003 37.6797 139.063 38.1655C139.099 38.4973 139.171 38.7579 139.517 38.8053C139.684 38.829 139.935 38.8527 140.042 38.8527C140.114 38.8527 140.138 38.8883 140.138 38.9238C140.138 38.9831 140.078 39.0186 139.947 39.0186C139.302 39.0186 138.561 38.9831 138.502 38.9831C138.442 38.9831 137.701 39.0186 137.355 39.0186C137.224 39.0186 137.164 38.9949 137.164 38.9238C137.164 38.8883 137.188 38.8527 137.259 38.8527C137.367 38.8527 137.51 38.829 137.606 38.8053C137.845 38.7579 137.904 38.4973 137.94 38.1655C138 37.6797 138 36.7555 138 35.6417V30.7125L136.268 30.7362C135.54 30.748 135.265 30.831 135.074 31.1035C134.942 31.3049 134.907 31.3879 134.871 31.459C134.835 31.5538 134.799 31.5775 134.751 31.5775C134.715 31.5775 134.692 31.5419 134.692 31.4708C134.692 31.3523 134.93 30.357 134.954 30.2622C134.978 30.1911 135.026 30.0371 135.074 30.0371C135.157 30.0371 135.277 30.1556 135.587 30.1793C135.922 30.2148 136.376 30.2385 136.519 30.2385H140.914C141.285 30.2385 141.559 30.2148 141.75 30.1793C141.93 30.1556 142.037 30.1201 142.085 30.1201C142.145 30.1201 142.145 30.1911 142.145 30.2622C142.145 30.6059 142.109 31.4116 142.109 31.5419C142.109 31.6486 142.073 31.696 142.025 31.696C141.965 31.696 141.942 31.6604 141.93 31.4945L141.918 31.3642C141.882 31.0206 141.595 30.748 140.472 30.7243L138.991 30.7007V35.6417H139.003Z" fill="#C5260E"/>
<path d="M146.301 33.6036C146.301 31.7907 146.301 31.4589 146.277 31.0916C146.253 30.7006 146.158 30.511 145.776 30.4281C145.68 30.4044 145.477 30.3925 145.381 30.3925C145.334 30.3925 145.286 30.3688 145.286 30.3214C145.286 30.2503 145.346 30.2266 145.477 30.2266C145.752 30.2266 146.062 30.2266 146.325 30.2385L146.803 30.2622C146.886 30.2622 149.215 30.2622 149.49 30.2503C149.717 30.2385 149.896 30.2148 149.992 30.1911C150.051 30.1792 150.099 30.1318 150.159 30.1318C150.195 30.1318 150.207 30.1792 150.207 30.2385C150.207 30.3214 150.147 30.4636 150.111 30.7835C150.099 30.902 150.075 31.4115 150.051 31.5537C150.04 31.613 150.016 31.6841 149.968 31.6841C149.896 31.6841 149.872 31.6248 149.872 31.53C149.872 31.4471 149.86 31.2456 149.801 31.1153C149.717 30.9257 149.598 30.7835 148.965 30.7243C148.762 30.7006 147.484 30.6887 147.352 30.6887C147.304 30.6887 147.28 30.7243 147.28 30.8072V34.0064C147.28 34.0894 147.292 34.1249 147.352 34.1249C147.507 34.1249 148.953 34.1249 149.215 34.1012C149.502 34.0775 149.657 34.0538 149.765 33.9354C149.848 33.8406 149.896 33.7813 149.944 33.7813C149.98 33.7813 150.004 33.805 150.004 33.8761C150.004 33.9472 149.944 34.1486 149.908 34.5278C149.884 34.7648 149.86 35.1913 149.86 35.2743C149.86 35.3691 149.86 35.4994 149.777 35.4994C149.717 35.4994 149.693 35.452 149.693 35.3928C149.693 35.2743 149.693 35.1558 149.645 35.0136C149.598 34.8477 149.49 34.6581 149.036 34.6107C148.714 34.5752 147.555 34.5515 147.364 34.5515C147.304 34.5515 147.28 34.587 147.28 34.6344V35.6535C147.28 36.0445 147.269 37.3953 147.28 37.6441C147.316 38.4498 147.495 38.6038 148.642 38.6038C148.953 38.6038 149.466 38.6039 149.765 38.4735C150.075 38.3432 150.207 38.118 150.29 37.6322C150.314 37.5019 150.338 37.4545 150.398 37.4545C150.469 37.4545 150.469 37.5493 150.469 37.6322C150.469 37.727 150.374 38.5209 150.314 38.7579C150.231 39.066 150.135 39.066 149.681 39.066C148.797 39.066 148.152 39.0423 147.698 39.0304C147.245 39.0067 146.958 38.9949 146.779 38.9949C146.755 38.9949 146.552 38.9949 146.313 39.0067C146.074 39.0067 145.811 39.0304 145.632 39.0304C145.501 39.0304 145.441 39.0067 145.441 38.9356C145.441 38.9001 145.465 38.8645 145.537 38.8645C145.644 38.8645 145.787 38.8408 145.883 38.8171C146.122 38.7697 146.182 38.5091 146.229 38.1773C146.289 37.6915 146.289 36.7673 146.289 35.6535V33.6036H146.301Z" fill="#C5260E"/>
<path d="M155.462 37.4428C155.486 38.4026 155.605 38.6988 155.916 38.7936C156.143 38.8529 156.394 38.8647 156.501 38.8647C156.561 38.8647 156.597 38.8884 156.597 38.9358C156.597 39.0069 156.525 39.0306 156.382 39.0306C155.713 39.0306 155.247 38.9951 155.14 38.9951C155.032 38.9951 154.542 39.0306 154.017 39.0306C153.897 39.0306 153.826 39.0188 153.826 38.9358C153.826 38.8884 153.862 38.8647 153.921 38.8647C154.017 38.8647 154.232 38.8529 154.399 38.7936C154.698 38.7107 154.745 38.3789 154.745 37.3125L154.757 30.6415C154.757 30.1913 154.793 30.0609 154.889 30.0609C154.984 30.0609 155.187 30.3216 155.295 30.4282C155.474 30.6297 157.218 32.5018 159.021 34.4213C160.18 35.6536 161.458 37.0755 161.84 37.4547L161.709 31.542C161.697 30.7837 161.613 30.5349 161.255 30.4401C161.04 30.3927 160.777 30.3808 160.682 30.3808C160.598 30.3808 160.586 30.3453 160.586 30.2979C160.586 30.2268 160.682 30.215 160.825 30.215C161.35 30.215 161.912 30.2505 162.043 30.2505C162.175 30.2505 162.557 30.215 163.046 30.215C163.178 30.215 163.261 30.2268 163.261 30.2979C163.261 30.3453 163.214 30.3808 163.13 30.3808C163.07 30.3808 162.987 30.3808 162.843 30.4164C162.461 30.4993 162.413 30.7482 162.413 31.4472L162.39 38.2723C162.39 39.0425 162.366 39.1017 162.282 39.1017C162.186 39.1017 162.043 38.9714 161.422 38.3552C161.291 38.2367 159.607 36.5305 158.364 35.2034C157.003 33.746 155.677 32.2767 155.307 31.862L155.462 37.4428Z" fill="#C5260E"/>
<path d="M169.627 30.5112C169.771 30.132 169.818 30.0609 169.89 30.0609C169.962 30.0609 170.01 30.1202 170.153 30.4756C170.332 30.914 172.171 35.7247 172.888 37.4902C173.306 38.5211 173.652 38.7107 173.891 38.7818C174.07 38.841 174.238 38.8529 174.357 38.8529C174.429 38.8529 174.477 38.8647 174.477 38.924C174.477 38.995 174.369 39.0187 174.238 39.0187C174.058 39.0187 173.21 39.0187 172.398 38.995C172.171 38.9832 172.052 38.9832 172.052 38.9121C172.052 38.8647 172.088 38.841 172.136 38.8292C172.207 38.8055 172.279 38.6988 172.207 38.5092L171.12 35.6418C171.096 35.5944 171.073 35.5707 171.013 35.5707H168.493C168.433 35.5707 168.397 35.6062 168.373 35.6655L167.669 37.7272C167.561 38.0234 167.501 38.296 167.501 38.5092C167.501 38.7462 167.752 38.8529 167.943 38.8529H168.063C168.146 38.8529 168.182 38.8766 168.182 38.924C168.182 38.995 168.11 39.0187 168.003 39.0187C167.716 39.0187 167.215 38.9832 167.083 38.9832C166.952 38.9832 166.307 39.0187 165.757 39.0187C165.602 39.0187 165.531 38.995 165.531 38.924C165.531 38.8766 165.578 38.8529 165.638 38.8529C165.722 38.8529 165.889 38.841 165.972 38.8292C166.51 38.7581 166.749 38.3197 166.964 37.7391L169.627 30.5112ZM170.846 35.1678C170.905 35.1678 170.905 35.1323 170.893 35.0849L169.783 31.9449C169.723 31.7672 169.663 31.7672 169.603 31.9449L168.576 35.0849C168.552 35.1441 168.576 35.1678 168.612 35.1678H170.846Z" fill="#C5260E"/>
<path d="M177.845 33.6038C177.845 31.7909 177.845 31.4591 177.821 31.0918C177.797 30.7008 177.702 30.5112 177.319 30.4282C177.224 30.4045 177.021 30.3927 176.925 30.3927C176.878 30.3927 176.83 30.369 176.83 30.3216C176.83 30.2505 176.889 30.2268 177.021 30.2268C177.546 30.2268 178.287 30.2624 178.347 30.2624C178.478 30.2624 179.362 30.2268 179.732 30.2268C180.473 30.2268 181.261 30.2979 181.882 30.7363C182.181 30.9496 182.694 31.5183 182.694 32.3241C182.694 33.189 182.336 34.0422 181.273 35.0138C182.24 36.2342 183.029 37.2769 183.709 37.9879C184.342 38.6514 184.844 38.7818 185.143 38.8292C185.37 38.8647 185.525 38.8647 185.597 38.8647C185.656 38.8647 185.704 38.9003 185.704 38.9358C185.704 39.0069 185.632 39.0306 185.417 39.0306H184.581C183.924 39.0306 183.626 38.9713 183.327 38.8055C182.826 38.5329 182.408 37.9642 181.739 37.0992C181.249 36.4594 180.7 35.6773 180.461 35.3811C180.413 35.3337 180.377 35.31 180.305 35.31L178.86 35.2863C178.8 35.2863 178.777 35.3219 178.777 35.3811V35.6655C178.777 36.7793 178.777 37.7035 178.836 38.1893C178.872 38.5211 178.944 38.7818 179.29 38.8292C179.457 38.8529 179.708 38.8766 179.816 38.8766C179.887 38.8766 179.911 38.9121 179.911 38.9476C179.911 39.0069 179.852 39.0424 179.72 39.0424C179.075 39.0424 178.335 39.0069 178.275 39.0069C178.263 39.0069 177.523 39.0424 177.176 39.0424C177.045 39.0424 176.985 39.0187 176.985 38.9476C176.985 38.9121 177.009 38.8766 177.081 38.8766C177.188 38.8766 177.331 38.8529 177.427 38.8292C177.666 38.7818 177.726 38.5211 177.761 38.1893C177.821 37.7035 177.821 36.7793 177.821 35.6655V33.6038H177.845ZM178.777 34.6109C178.777 34.6702 178.8 34.7176 178.86 34.7531C179.039 34.8598 179.577 34.9427 180.09 34.9427C180.377 34.9427 180.7 34.9071 180.974 34.7176C181.38 34.4332 181.691 33.8052 181.691 32.9284C181.691 31.4709 180.915 30.606 179.66 30.606C179.314 30.606 178.992 30.6415 178.872 30.6771C178.812 30.7008 178.777 30.7482 178.777 30.8193V34.6109Z" fill="#C5260E"/>
<path d="M189.359 35.6417C189.359 36.7555 189.359 37.6797 189.419 38.1655C189.454 38.4973 189.526 38.7579 189.872 38.8053C190.04 38.829 190.29 38.8527 190.398 38.8527C190.47 38.8527 190.494 38.8883 190.494 38.9238C190.494 38.9831 190.434 39.0186 190.302 39.0186C189.657 39.0186 188.917 38.9831 188.857 38.9831C188.798 38.9831 188.057 39.0186 187.711 39.0186C187.579 39.0186 187.52 38.9949 187.52 38.9238C187.52 38.8883 187.543 38.8527 187.615 38.8527C187.723 38.8527 187.866 38.829 187.961 38.8053C188.2 38.7579 188.26 38.4973 188.296 38.1655C188.356 37.6797 188.356 36.7555 188.356 35.6417V33.5918C188.356 31.7789 188.356 31.4471 188.332 31.0798C188.308 30.6888 188.188 30.4874 187.938 30.4281C187.806 30.3926 187.651 30.3807 187.579 30.3807C187.531 30.3807 187.484 30.357 187.484 30.3096C187.484 30.2385 187.543 30.2148 187.675 30.2148C188.057 30.2148 188.798 30.2504 188.857 30.2504C188.917 30.2504 189.657 30.2148 190.004 30.2148C190.135 30.2148 190.195 30.2385 190.195 30.3096C190.195 30.357 190.147 30.3807 190.099 30.3807C190.016 30.3807 189.944 30.3926 189.801 30.4163C189.478 30.4755 189.395 30.677 189.371 31.0798C189.347 31.4471 189.347 31.7789 189.347 33.5918V35.6417H189.359Z" fill="#C5260E"/>
<path d="M198.221 30.0609C200.861 30.0609 202.832 31.7079 202.832 34.4213C202.832 37.0281 200.98 39.1846 198.15 39.1846C194.937 39.1846 193.599 36.7082 193.599 34.6109C193.599 32.7269 194.984 30.0609 198.221 30.0609ZM198.46 38.7462C199.511 38.7462 201.697 38.1419 201.697 34.7531C201.697 31.9568 199.989 30.4638 198.126 30.4638C196.167 30.4638 194.698 31.7435 194.698 34.291C194.71 36.9926 196.346 38.7462 198.46 38.7462Z" fill="#C5260E"/>
<path d="M104.043 47.7512C104.043 45.2393 104.043 44.789 104.008 44.2795C103.972 43.7344 103.817 43.4738 103.184 43.3671C103.028 43.3316 102.706 43.3197 102.539 43.3197C102.467 43.3197 102.383 43.2842 102.383 43.2249C102.383 43.1301 102.479 43.0946 102.694 43.0946C103.554 43.0946 104.7 43.142 104.856 43.142C105.274 43.142 106.384 43.0946 107.256 43.0946C109.645 43.0946 110.505 43.77 110.804 44.007C111.222 44.3387 111.759 45.0734 111.759 45.9265C111.759 48.2133 109.777 49.7537 107.065 49.7537C106.97 49.7537 106.755 49.7537 106.659 49.7418C106.564 49.7418 106.444 49.7063 106.444 49.6233C106.444 49.493 106.564 49.4812 106.958 49.4812C108.809 49.4812 110.266 48.3437 110.266 46.8626C110.266 46.3294 110.206 45.2511 109.191 44.3861C108.176 43.5212 107.017 43.5804 106.576 43.5804C106.253 43.5804 105.931 43.616 105.751 43.6752C105.632 43.7107 105.596 43.8174 105.596 43.9833V50.595C105.596 52.1353 105.596 53.415 105.692 54.0904C105.751 54.5525 105.859 54.908 106.432 54.9791C106.695 55.0146 107.125 55.0383 107.292 55.0383C107.412 55.0383 107.447 55.0857 107.447 55.1331C107.447 55.216 107.352 55.2634 107.137 55.2634C106.086 55.2634 104.88 55.216 104.784 55.216C104.724 55.216 103.518 55.2634 102.945 55.2634C102.73 55.2634 102.634 55.2279 102.634 55.1331C102.634 55.0857 102.67 55.0383 102.789 55.0383C102.957 55.0383 103.195 55.0027 103.363 54.9791C103.745 54.9198 103.84 54.5643 103.912 54.0904C104.008 53.415 104.008 52.1472 104.008 50.595V47.7512H104.043Z" fill="black"/>
<path d="M116.023 47.7512C116.023 45.2392 116.023 44.789 115.987 44.2795C115.952 43.7344 115.796 43.4737 115.163 43.3671C115.008 43.3316 114.685 43.3197 114.518 43.3197C114.447 43.3197 114.363 43.2842 114.363 43.2249C114.363 43.1301 114.459 43.0946 114.674 43.0946C115.115 43.0946 115.629 43.0946 116.047 43.1064L116.835 43.142C116.967 43.142 120.765 43.142 121.207 43.1301C121.565 43.1183 121.876 43.0827 122.031 43.0472C122.127 43.0353 122.198 42.9642 122.294 42.9642C122.354 42.9642 122.365 43.0235 122.365 43.1064C122.365 43.2131 122.27 43.4145 122.21 43.8648C122.186 44.0306 122.15 44.7297 122.115 44.9312C122.091 45.0141 122.055 45.1089 121.983 45.1089C121.864 45.1089 121.828 45.026 121.828 44.8956C121.828 44.7771 121.804 44.5046 121.709 44.315C121.577 44.0543 121.386 43.8648 120.347 43.77C120.024 43.7344 117.934 43.7226 117.731 43.7226C117.66 43.7226 117.612 43.77 117.612 43.8885V48.3318C117.612 48.4503 117.636 48.4977 117.731 48.4977C117.982 48.4977 120.323 48.4977 120.765 48.4622C121.219 48.4266 121.494 48.4029 121.661 48.237C121.792 48.1067 121.876 48.0238 121.947 48.0238C122.007 48.0238 122.043 48.0593 122.043 48.1541C122.043 48.2489 121.947 48.5214 121.888 49.0546C121.852 49.3745 121.816 49.967 121.816 50.0855C121.816 50.2158 121.816 50.3936 121.685 50.3936C121.589 50.3936 121.553 50.3343 121.553 50.2514C121.553 50.0855 121.553 49.9314 121.482 49.7182C121.41 49.493 121.231 49.2205 120.49 49.1494C119.977 49.102 118.078 49.0665 117.755 49.0665C117.66 49.0665 117.624 49.1139 117.624 49.185V50.595C117.624 51.14 117.6 53.0122 117.624 53.344C117.683 54.4578 117.97 54.6592 119.833 54.6592C120.335 54.6592 121.171 54.6592 121.673 54.4815C122.174 54.3037 122.401 53.9838 122.533 53.3203C122.569 53.1425 122.604 53.0833 122.7 53.0833C122.819 53.0833 122.819 53.2136 122.819 53.3203C122.819 53.4506 122.664 54.5407 122.569 54.8843C122.437 55.299 122.282 55.299 121.541 55.299C120.108 55.299 119.057 55.2635 118.316 55.2516C117.576 55.2161 117.11 55.2043 116.823 55.2043C116.788 55.2043 116.465 55.2043 116.059 55.2161C115.677 55.2161 115.235 55.2516 114.948 55.2516C114.733 55.2516 114.638 55.2161 114.638 55.1213C114.638 55.0739 114.674 55.0265 114.793 55.0265C114.96 55.0265 115.199 54.991 115.366 54.9673C115.748 54.908 115.844 54.5526 115.916 54.0786C116.011 53.4032 116.011 52.1354 116.011 50.5831V47.7512H116.023Z" fill="black"/>
<path d="M127.669 47.7512C127.669 45.2393 127.669 44.789 127.633 44.2795C127.597 43.7344 127.442 43.4738 126.809 43.3671C126.653 43.3316 126.331 43.3197 126.164 43.3197C126.092 43.3197 126.008 43.2842 126.008 43.2249C126.008 43.1301 126.104 43.0946 126.319 43.0946C127.179 43.0946 128.385 43.142 128.481 43.142C128.696 43.142 130.141 43.0946 130.738 43.0946C131.944 43.0946 133.222 43.1894 134.238 43.8055C134.715 44.0899 135.552 44.8838 135.552 45.9976C135.552 47.1825 134.954 48.3792 133.246 49.7182C134.811 51.4126 136.113 52.8344 137.224 53.8416C138.251 54.754 139.075 54.9317 139.553 55.0028C139.911 55.0502 140.186 55.0502 140.293 55.0502C140.389 55.0502 140.46 55.0976 140.46 55.145C140.46 55.2398 140.341 55.2753 140.007 55.2753H138.657C137.582 55.2753 137.104 55.1924 136.615 54.9673C135.79 54.5999 135.122 53.8061 134.035 52.5975C133.234 51.7088 132.339 50.6305 131.956 50.2158C131.885 50.1566 131.825 50.121 131.706 50.121L129.353 50.0855C129.257 50.0855 129.221 50.1329 129.221 50.2158V50.6068C129.221 52.1472 129.221 53.4269 129.317 54.1023C129.376 54.5644 129.484 54.9199 130.057 54.991C130.32 55.0265 130.75 55.0502 130.917 55.0502C131.037 55.0502 131.073 55.0976 131.073 55.145C131.073 55.2279 130.977 55.2753 130.762 55.2753C129.711 55.2753 128.505 55.2279 128.409 55.2279C128.385 55.2279 127.191 55.2753 126.617 55.2753C126.402 55.2753 126.307 55.2398 126.307 55.145C126.307 55.0976 126.343 55.0502 126.462 55.0502C126.629 55.0502 126.868 55.0146 127.035 54.991C127.418 54.9317 127.513 54.5762 127.585 54.1023C127.68 53.4269 127.68 52.1591 127.68 50.6068V47.7512H127.669ZM129.197 49.1494C129.197 49.2324 129.233 49.2916 129.329 49.339C129.615 49.4812 130.499 49.5997 131.335 49.5997C131.789 49.5997 132.327 49.5523 132.769 49.2916C133.437 48.9006 133.939 48.0356 133.939 46.8152C133.939 44.8009 132.673 43.5923 130.631 43.5923C130.057 43.5923 129.544 43.6397 129.353 43.6871C129.257 43.7226 129.197 43.7818 129.197 43.8766V49.1494Z" fill="black"/>
<path d="M140.962 47.7512C140.962 45.2393 140.962 44.789 140.926 44.2795C140.89 43.7345 140.735 43.4738 140.102 43.3671C139.947 43.3316 139.624 43.3197 139.457 43.3197C139.385 43.3197 139.302 43.2842 139.302 43.2249C139.302 43.1302 139.397 43.0946 139.612 43.0946C140.472 43.0946 141.643 43.142 141.81 43.142C141.977 43.142 143.124 43.0946 143.697 43.0946C143.912 43.0946 144.008 43.1302 144.008 43.2249C144.008 43.2842 143.936 43.3197 143.853 43.3197C143.721 43.3197 143.602 43.3316 143.375 43.3671C142.861 43.4264 142.706 43.7226 142.67 44.2795C142.634 44.789 142.634 45.2393 142.634 47.7512V50.0026C142.634 52.3249 143.243 53.3203 144.068 53.9719C144.999 54.7066 145.859 54.8606 146.946 54.8606C148.116 54.8606 149.251 54.3985 149.944 53.6994C150.828 52.7871 151.055 51.4126 151.055 49.7537V47.7394C151.055 45.2274 151.055 44.7772 151.019 44.2677C150.983 43.7226 150.828 43.4619 150.195 43.3553C150.039 43.3197 149.717 43.3079 149.55 43.3079C149.478 43.3079 149.394 43.2723 149.394 43.2131C149.394 43.1183 149.49 43.0828 149.705 43.0828C150.565 43.0828 151.616 43.1302 151.724 43.1302C151.855 43.1302 152.751 43.0828 153.324 43.0828C153.539 43.0828 153.635 43.1183 153.635 43.2131C153.635 43.2723 153.563 43.3079 153.479 43.3079C153.348 43.3079 153.228 43.3197 153.002 43.3553C152.488 43.4501 152.333 43.7108 152.297 44.2677C152.261 44.7772 152.261 45.2274 152.261 47.7394V49.4575C152.261 51.1993 152.034 53.1307 150.505 54.2682C149.132 55.299 147.698 55.4531 146.576 55.4531C145.931 55.4531 143.996 55.3938 142.646 54.3156C141.715 53.5572 140.986 52.4316 140.986 50.0855V47.7512H140.962Z" fill="black"/>
<path d="M160.335 43.4857C160.562 42.9525 160.646 42.8577 160.753 42.8577C160.861 42.8577 160.944 42.9406 161.171 43.4383C161.458 44.0544 164.456 50.6898 165.626 53.1426C166.319 54.5763 166.868 54.837 167.275 54.9317C167.561 55.0147 167.848 55.0265 168.039 55.0265C168.158 55.0265 168.23 55.0384 168.23 55.1213C168.23 55.2161 168.063 55.2517 167.848 55.2517C167.561 55.2517 166.164 55.2517 164.85 55.2161C164.492 55.2043 164.277 55.2043 164.277 55.0976C164.277 55.0384 164.336 55.0028 164.408 54.9791C164.527 54.9436 164.635 54.8014 164.527 54.5407L162.748 50.5832C162.712 50.5239 162.676 50.4884 162.581 50.4884H158.472C158.376 50.4884 158.317 50.5358 158.281 50.6187L157.134 53.4625C156.967 53.8653 156.871 54.2564 156.871 54.5407C156.871 54.8607 157.278 55.0028 157.6 55.0028H157.791C157.922 55.0028 157.982 55.0384 157.982 55.0976C157.982 55.1924 157.863 55.228 157.696 55.228C157.242 55.228 156.418 55.1806 156.203 55.1806C155.988 55.1806 154.937 55.228 154.041 55.228C153.79 55.228 153.682 55.1924 153.682 55.0976C153.682 55.0384 153.754 55.0028 153.85 55.0028C153.981 55.0028 154.256 54.991 154.399 54.9673C155.283 54.8725 155.665 54.2564 156 53.4506L160.335 43.4857ZM162.318 49.9196C162.413 49.9196 162.413 49.8722 162.39 49.8011L160.574 45.4526C160.479 45.2156 160.383 45.2156 160.287 45.4526L158.603 49.8011C158.567 49.8841 158.603 49.9196 158.663 49.9196H162.318Z" fill="black"/>
<path d="M171.467 53.0596C171.503 54.3749 171.694 54.8014 172.207 54.9318C172.566 55.0147 172.996 55.0265 173.163 55.0265C173.258 55.0265 173.318 55.0621 173.318 55.1213C173.318 55.2161 173.199 55.2517 172.972 55.2517C171.885 55.2517 171.12 55.2043 170.941 55.2043C170.774 55.2043 169.962 55.2517 169.102 55.2517C168.911 55.2517 168.791 55.2398 168.791 55.1213C168.791 55.0621 168.851 55.0265 168.947 55.0265C169.102 55.0265 169.448 55.0147 169.735 54.9318C170.213 54.8133 170.308 54.3512 170.308 52.8937L170.332 43.6752C170.332 43.0472 170.392 42.8695 170.547 42.8695C170.702 42.8695 171.025 43.225 171.216 43.379C171.503 43.6515 174.345 46.2465 177.284 48.9006C179.171 50.6069 181.261 52.5738 181.87 53.0952L181.655 44.9194C181.631 43.8767 181.5 43.5212 180.915 43.3909C180.568 43.3316 180.126 43.3079 179.983 43.3079C179.852 43.3079 179.828 43.2605 179.828 43.2013C179.828 43.1065 179.983 43.0828 180.21 43.0828C181.07 43.0828 181.99 43.1302 182.193 43.1302C182.408 43.1302 183.029 43.0828 183.817 43.0828C184.032 43.0828 184.163 43.0946 184.163 43.2013C184.163 43.2605 184.092 43.3079 183.948 43.3079C183.853 43.3079 183.721 43.3079 183.495 43.3553C182.861 43.4738 182.79 43.8174 182.79 44.789L182.754 54.2208C182.754 55.2872 182.718 55.3583 182.587 55.3583C182.431 55.3583 182.205 55.1806 181.189 54.3275C180.974 54.1616 178.227 51.8036 176.209 49.967C173.987 47.9527 171.837 45.9265 171.228 45.3459L171.467 53.0596Z" fill="black"/>
<path d="M193.898 42.8577C198.197 42.8577 201.398 45.1445 201.398 48.8888C201.398 52.4909 198.376 55.465 193.778 55.465C188.547 55.465 186.373 52.0406 186.373 49.1376C186.373 46.5427 188.63 42.8577 193.898 42.8577ZM194.304 54.8607C196.024 54.8607 199.571 54.0194 199.571 49.339C199.571 45.4763 196.788 43.4027 193.766 43.4027C190.577 43.4027 188.188 45.1682 188.188 48.6992C188.188 52.4435 190.864 54.8607 194.304 54.8607Z" fill="black"/>
<path d="M106.623 68.961C106.623 71.7574 106.623 72.8356 106.074 74.0561C105.68 74.921 104.868 75.7268 103.375 76.6984C103.136 76.8524 102.837 77.042 102.658 77.125C102.622 77.1368 102.586 77.1605 102.526 77.1605C102.467 77.1605 102.395 77.125 102.395 77.0539C102.395 76.9472 102.491 76.8998 102.658 76.7932C102.885 76.6747 103.136 76.4614 103.303 76.3074C104.509 75.1699 105.083 74.2575 105.083 69.7904V64.8139C105.083 62.1242 105.083 61.6383 105.047 61.0814C105.011 60.489 104.856 60.2165 104.246 60.098C104.103 60.0624 103.781 60.0506 103.613 60.0506C103.542 60.0506 103.47 60.015 103.47 59.9439C103.47 59.8373 103.566 59.8018 103.769 59.8018C104.605 59.8018 105.763 59.8492 105.859 59.8492C105.954 59.8492 107.113 59.8018 107.674 59.8018C107.877 59.8018 107.973 59.8373 107.973 59.9439C107.973 60.015 107.901 60.0506 107.83 60.0506C107.698 60.0506 107.591 60.0624 107.364 60.098C106.862 60.1809 106.719 60.4771 106.683 61.0814C106.647 61.6383 106.647 62.1123 106.647 64.8139V68.961H106.623Z" fill="black"/>
<path d="M115.39 60.2401C115.617 59.6713 115.689 59.5647 115.796 59.5647C115.904 59.5647 115.987 59.6476 116.202 60.1808C116.477 60.8325 119.379 67.9774 120.514 70.5961C121.183 72.1364 121.72 72.4089 122.103 72.5156C122.377 72.5985 122.652 72.6222 122.843 72.6222C122.951 72.6222 123.022 72.6341 123.022 72.7289C123.022 72.8355 122.855 72.871 122.652 72.871C122.377 72.871 121.028 72.871 119.75 72.8355C119.403 72.8237 119.2 72.8237 119.2 72.717C119.2 72.6459 119.26 72.6104 119.332 72.5985C119.439 72.563 119.559 72.4089 119.439 72.1364L117.719 67.8826C117.683 67.8116 117.648 67.776 117.552 67.776H113.587C113.491 67.776 113.443 67.8234 113.407 67.9182L112.297 70.9752C112.129 71.4018 112.034 71.8165 112.034 72.1364C112.034 72.48 112.428 72.6341 112.739 72.6341H112.93C113.061 72.6341 113.109 72.6696 113.109 72.7407C113.109 72.8474 113.001 72.8829 112.834 72.8829C112.392 72.8829 111.592 72.8355 111.389 72.8355C111.186 72.8355 110.171 72.8829 109.299 72.8829C109.06 72.8829 108.952 72.8474 108.952 72.7407C108.952 72.6696 109.024 72.6341 109.12 72.6341C109.251 72.6341 109.514 72.6222 109.657 72.5985C110.505 72.4919 110.875 71.8402 111.21 70.9752L115.39 60.2401ZM117.325 67.148C117.421 67.148 117.421 67.1006 117.397 67.0295L115.641 62.361C115.545 62.1004 115.45 62.1004 115.366 62.361L113.742 67.0295C113.706 67.1125 113.742 67.148 113.802 67.148H117.325Z" fill="black"/>
<path d="M125.686 64.8139C125.686 62.1242 125.686 61.6383 125.65 61.0814C125.614 60.489 125.471 60.2165 124.85 60.098C124.706 60.0624 124.384 60.0506 124.217 60.0506C124.145 60.0506 124.073 60.015 124.073 59.9439C124.073 59.8373 124.169 59.8018 124.372 59.8018C125.208 59.8018 126.319 59.8492 126.462 59.8492C126.868 59.8492 127.943 59.8018 128.791 59.8018C131.108 59.8018 131.932 60.5245 132.231 60.7852C132.637 61.1525 133.151 61.9227 133.151 62.8351C133.151 65.2878 131.228 66.9467 128.6 66.9467C128.505 66.9467 128.302 66.9467 128.206 66.9348C128.11 66.9348 128.003 66.8993 128.003 66.8163C128.003 66.6742 128.11 66.6623 128.505 66.6623C130.296 66.6623 131.706 65.43 131.706 63.8423C131.706 63.2735 131.646 62.1123 130.666 61.1762C129.687 60.2402 128.552 60.3113 128.134 60.3113C127.824 60.3113 127.501 60.3468 127.334 60.4179C127.227 60.4534 127.191 60.5719 127.191 60.7497V67.8472C127.191 69.5061 127.191 70.8687 127.286 71.5915C127.346 72.0891 127.454 72.4683 128.003 72.5394C128.266 72.5749 128.672 72.6105 128.839 72.6105C128.947 72.6105 128.982 72.6579 128.982 72.7171C128.982 72.8001 128.887 72.8593 128.684 72.8593C127.669 72.8593 126.498 72.8119 126.402 72.8119C126.343 72.8119 125.184 72.8593 124.623 72.8593C124.42 72.8593 124.324 72.8238 124.324 72.7171C124.324 72.6697 124.36 72.6105 124.468 72.6105C124.635 72.6105 124.862 72.5749 125.029 72.5394C125.399 72.4683 125.495 72.0891 125.566 71.5915C125.662 70.8687 125.662 69.5061 125.662 67.8472V64.8139H125.686Z" fill="black"/>
<path d="M142.742 59.5647C146.91 59.5647 150.016 62.0174 150.016 66.0461C150.016 69.9207 147.089 73.108 142.634 73.108C137.558 73.108 135.456 69.423 135.456 66.3186C135.456 63.5222 137.642 59.5647 142.742 59.5647ZM143.136 72.4445C144.796 72.4445 148.248 71.544 148.248 66.52C148.248 62.3729 145.549 60.1453 142.622 60.1453C139.529 60.1453 137.224 62.0411 137.224 65.8328C137.212 69.8614 139.804 72.4445 143.136 72.4445Z" fill="black"/>
<path d="M154.435 70.5131C154.471 71.935 154.662 72.3734 155.151 72.5156C155.498 72.5985 155.904 72.6222 156.071 72.6222C156.167 72.6222 156.214 72.6578 156.214 72.7289C156.214 72.8355 156.107 72.8711 155.88 72.8711C154.829 72.8711 154.088 72.8237 153.921 72.8237C153.754 72.8237 152.978 72.8711 152.142 72.8711C151.962 72.8711 151.843 72.8592 151.843 72.7289C151.843 72.6578 151.903 72.6222 151.986 72.6222C152.13 72.6222 152.464 72.6104 152.751 72.5156C153.217 72.3971 153.3 71.8876 153.3 70.3235L153.324 60.4297C153.324 59.7543 153.384 59.5647 153.527 59.5647C153.67 59.5647 153.993 59.9439 154.172 60.1216C154.447 60.4178 157.206 63.2023 160.06 66.0461C161.888 67.8827 163.906 69.9799 164.504 70.5605L164.3 61.7804C164.277 60.6548 164.157 60.2756 163.584 60.1334C163.249 60.0624 162.819 60.0505 162.676 60.0505C162.545 60.0505 162.533 60.0031 162.533 59.932C162.533 59.8254 162.676 59.8135 162.903 59.8135C163.739 59.8135 164.623 59.8609 164.826 59.8609C165.029 59.8609 165.638 59.8135 166.403 59.8135C166.606 59.8135 166.737 59.8254 166.737 59.932C166.737 60.0031 166.665 60.0505 166.534 60.0505C166.438 60.0505 166.307 60.0505 166.092 60.0979C165.483 60.2164 165.411 60.5956 165.411 61.6383L165.375 71.7572C165.375 72.8947 165.34 72.9777 165.208 72.9777C165.065 72.9777 164.838 72.7881 163.859 71.8757C163.656 71.698 160.992 69.1623 159.033 67.1954C156.883 65.0389 154.793 62.8587 154.208 62.2426L154.435 70.5131Z" fill="black"/>
<path d="M171.455 64.8138C171.455 62.1241 171.455 61.6383 171.419 61.0814C171.383 60.489 171.24 60.2164 170.619 60.0979C170.476 60.0624 170.153 60.0505 169.986 60.0505C169.914 60.0505 169.842 60.015 169.842 59.9439C169.842 59.8373 169.938 59.8017 170.141 59.8017C170.571 59.8017 171.061 59.8017 171.479 59.8136L172.243 59.8491C172.375 59.8491 176.053 59.8491 176.483 59.8373C176.83 59.8254 177.128 59.7899 177.284 59.7543C177.379 59.7425 177.451 59.6714 177.546 59.6714C177.606 59.6714 177.618 59.7425 177.618 59.8254C177.618 59.9439 177.522 60.1572 177.475 60.643C177.451 60.8207 177.415 61.5791 177.379 61.7805C177.355 61.8634 177.319 61.9701 177.248 61.9701C177.14 61.9701 177.104 61.8871 177.104 61.7449C177.104 61.6265 177.081 61.3302 176.997 61.1288C176.866 60.8563 176.686 60.643 175.683 60.5364C175.373 60.5008 173.354 60.489 173.151 60.489C173.079 60.489 173.043 60.5364 173.043 60.6667V65.43C173.043 65.5484 173.067 65.6077 173.151 65.6077C173.39 65.6077 175.671 65.6077 176.089 65.5721C176.531 65.5366 176.794 65.5011 176.961 65.3352C177.092 65.193 177.164 65.11 177.236 65.11C177.296 65.11 177.331 65.1456 177.331 65.2522C177.331 65.3589 177.236 65.6551 177.188 66.2238C177.152 66.5675 177.116 67.2073 177.116 67.3258C177.116 67.468 177.116 67.6576 176.985 67.6576C176.889 67.6576 176.854 67.5865 176.854 67.5035C176.854 67.3258 176.854 67.1599 176.782 66.9348C176.71 66.6978 176.543 66.4016 175.814 66.3305C175.313 66.2831 173.485 66.2475 173.163 66.2475C173.067 66.2475 173.032 66.2949 173.032 66.366V67.8827C173.032 68.4751 173.008 70.4776 173.032 70.8331C173.091 72.0298 173.366 72.2549 175.181 72.2549C175.659 72.2549 176.471 72.2549 176.961 72.0654C177.439 71.8758 177.666 71.5322 177.797 70.8212C177.833 70.6316 177.869 70.5605 177.964 70.5605C178.072 70.5605 178.072 70.7027 178.072 70.8212C178.072 70.9634 177.929 72.1364 177.833 72.4919C177.702 72.9422 177.558 72.9422 176.83 72.9422C175.444 72.9422 174.429 72.9066 173.7 72.8948C172.984 72.8592 172.53 72.8474 172.255 72.8474C172.219 72.8474 171.909 72.8474 171.515 72.8592C171.144 72.8592 170.714 72.8948 170.44 72.8948C170.237 72.8948 170.141 72.8592 170.141 72.7526C170.141 72.7052 170.177 72.6459 170.284 72.6459C170.452 72.6459 170.679 72.6104 170.846 72.5749C171.216 72.5038 171.312 72.1246 171.383 71.6269C171.479 70.9042 171.479 69.5415 171.479 67.8827V64.8138H171.455Z" fill="black"/>
<path d="M181.56 72.6341C181.297 72.5156 181.285 72.4445 181.285 71.9824C181.285 71.1174 181.356 70.4302 181.38 70.1458C181.404 69.9562 181.44 69.8733 181.524 69.8733C181.631 69.8733 181.655 69.9207 181.655 70.0629C181.655 70.2169 181.655 70.4657 181.715 70.7027C181.989 71.9824 183.208 72.4682 184.45 72.4682C186.23 72.4682 187.101 71.2715 187.101 70.1695C187.101 68.9728 186.564 68.2855 184.975 67.0651L184.139 66.4252C182.181 64.9204 181.739 63.854 181.739 62.681C181.739 60.8325 183.22 59.5765 185.573 59.5765C186.289 59.5765 186.827 59.6476 187.293 59.7543C187.639 59.8254 187.794 59.8372 187.938 59.8372C188.081 59.8372 188.129 59.8728 188.129 59.9557C188.129 60.0386 188.057 60.6074 188.057 61.7923C188.057 62.0648 188.021 62.1952 187.926 62.1952C187.818 62.1952 187.794 62.1122 187.782 61.97C187.758 61.7686 187.651 61.2946 187.543 61.1051C187.436 60.9155 186.934 60.1927 185.226 60.1927C183.948 60.1927 182.945 60.9392 182.945 62.1952C182.945 63.1786 183.423 63.8066 185.202 65.0982L185.716 65.4773C187.902 67.0888 188.415 68.1552 188.415 69.5415C188.415 70.2524 188.117 71.5677 186.839 72.409C186.038 72.9303 185.047 73.1317 184.044 73.1317C183.172 73.108 182.324 72.9896 181.56 72.6341Z" fill="black"/>
<path d="M195.952 60.2401C196.179 59.6713 196.251 59.5647 196.358 59.5647C196.466 59.5647 196.549 59.6476 196.764 60.1808C197.039 60.8325 199.941 67.9774 201.076 70.5961C201.745 72.1364 202.282 72.4089 202.664 72.5156C202.939 72.5985 203.214 72.6222 203.405 72.6222C203.512 72.6222 203.584 72.6341 203.584 72.7289C203.584 72.8355 203.417 72.871 203.214 72.871C202.939 72.871 201.589 72.871 200.311 72.8355C199.965 72.8237 199.762 72.8237 199.762 72.717C199.762 72.6459 199.822 72.6104 199.893 72.5985C200.001 72.563 200.12 72.4089 200.001 72.1364L198.281 67.8826C198.245 67.8116 198.209 67.776 198.114 67.776H194.136C194.041 67.776 193.993 67.8234 193.957 67.9182L192.847 70.9752C192.679 71.4018 192.584 71.8165 192.584 72.1364C192.584 72.48 192.978 72.6341 193.288 72.6341H193.48C193.611 72.6341 193.659 72.6696 193.659 72.7407C193.659 72.8474 193.551 72.8829 193.384 72.8829C192.942 72.8829 192.142 72.8355 191.939 72.8355C191.736 72.8355 190.72 72.8829 189.849 72.8829C189.61 72.8829 189.502 72.8474 189.502 72.7407C189.502 72.6696 189.574 72.6341 189.669 72.6341C189.801 72.6341 190.064 72.6222 190.207 72.5985C191.055 72.4919 191.425 71.8402 191.76 70.9752L195.952 60.2401ZM197.887 67.148C197.982 67.148 197.982 67.1006 197.958 67.0295L196.203 62.361C196.107 62.1004 196.012 62.1004 195.928 62.361L194.304 67.0295C194.268 67.1125 194.304 67.148 194.363 67.148H197.887Z" fill="black"/>
<path d="M42.4128 43.3198C43.7028 40.0851 42.162 35.6536 38.9371 33.2364C35.6884 30.8073 32.0455 30.7007 28.1398 31.7553C28.1398 27.6318 28.1398 23.698 28.1398 19.6575C33.7654 19.6575 39.3074 19.6575 45.0405 19.6575C45.0405 23.378 45.0405 27.0868 45.0405 31.0443C41.1229 29.0774 37.1456 28.4494 32.9891 29.6106C37.9339 30.3571 41.8037 32.5373 43.5117 37.419C44.8374 41.2107 44.3597 44.8602 41.9112 48.166C38.8296 52.325 34.1237 52.171 31.3408 47.8224C31.2214 47.6447 31.078 47.4788 30.8869 47.2537C29.7523 50.7254 31.1019 54.6711 34.2551 57.2305C37.4561 59.8136 41.1229 59.8136 45.0763 58.9012C45.0763 62.9535 45.0763 66.8755 45.0763 71.0938C44.0491 71.0938 43.0817 71.0938 42.1023 71.0938C37.9219 71.0938 33.7296 71.0819 29.5492 71.1175C28.6295 71.1175 27.9726 71.0108 27.9965 69.8496C28.0323 66.5082 28.0084 63.1668 28.0084 59.4463C32.1052 61.3658 36.1303 62.3018 40.669 61.0933C39.0566 60.6548 37.683 60.4179 36.417 59.9321C29.167 57.2068 26.7663 47.9646 31.723 42.052C34.8284 38.3433 39.391 38.6632 41.959 42.7748C42.0903 42.9288 42.2456 43.0947 42.4128 43.3198Z" fill="#C5260E"/>
<path d="M50.905 36.7438C54.6912 36.7438 58.0474 36.7556 61.4037 36.7319C62.3831 36.7201 62.7055 37.1348 62.6936 38.0709C62.6697 42.8934 62.7055 47.7041 62.6339 52.5266C62.6339 52.9413 62.0367 53.7115 61.7023 53.7233C58.1788 53.8063 54.6554 53.7826 50.8214 53.7826C53.9387 48.0358 53.8551 42.5261 50.905 36.7438Z" fill="#C5260E"/>
<path d="M10.857 36.8621C14.6432 36.8621 18.4175 36.8621 22.4904 36.8621C19.4208 42.3837 19.4088 47.9408 22.3709 53.652C18.3936 53.652 14.7029 53.652 10.857 53.652C10.857 48.0593 10.857 42.5377 10.857 36.8621Z" fill="#C5260E"/>
<path d="M242.271 19.3612V21.0438L250.894 21.6955V50.9742L243.19 53.8298V54.8607H266.433V53.4388L258.335 50.9742L258.729 16.5056L242.271 19.3612Z" fill="#C3280C"/>
<path d="M294.776 23.8994L295.564 17.2877H268.26L265.776 40.8671C265.776 40.8671 279.655 37.9878 286.14 44.8484C290.655 49.6235 291.109 61.0814 282.354 65.8802C273.599 70.6791 263.543 70.9279 263.543 70.9279V74.1627C263.543 74.1627 275.427 75.3239 287.048 68.0723C298.67 60.8208 301.285 44.1019 287.968 36.9807C287.968 36.9807 282.486 32.5729 269.813 35.0374L271.115 23.6388L294.776 23.8994Z" fill="#C3280C"/>
<path d="M244.755 59.5648H246.176L244.408 65.8447C244.002 67.3021 244.014 68.0249 244.743 68.0249C245.603 68.0249 246.726 66.1528 247.335 65.0508L247.777 65.3234C247.203 66.3305 245.985 68.6411 244.552 68.6411C243.453 68.6411 243.023 67.6932 242.987 66.6741C242.294 67.8116 241.387 68.6411 240.455 68.6411C238.126 68.6411 237.505 66.4253 237.505 64.2333C237.505 62.1597 239.834 59.2686 242.127 59.2686C243.321 59.2686 243.978 60.4416 244.181 61.5909L244.755 59.5648ZM243.656 62.1478C243.656 61.2947 243.286 59.8255 242.139 59.8255C241.052 59.8255 240.085 61.0222 239.452 63.6171C238.783 66.3898 239.476 68.0605 240.419 68.0605C242.175 68.0605 243.656 64.4939 243.656 62.1478Z" fill="#C3280C"/>
<path d="M256.078 59.2685C257.117 59.2685 257.702 60.1453 257.702 61.3065C257.702 62.2781 257.308 63.4038 256.914 64.2688L256.209 65.8447C255.672 67.0533 255.815 68.0249 256.531 68.0249C257.403 68.0249 258.514 66.1528 259.147 65.0508L259.589 65.3233C259.016 66.3305 257.798 68.6411 256.364 68.6411C254.704 68.6411 254.382 66.7689 255.003 65.0982L256.054 62.2307C256.293 61.5554 256.579 60.7733 256.579 60.3942C256.579 60.0505 256.376 59.8609 256.018 59.8609C254.095 59.8609 251.861 64.5176 251.264 66.7334L250.834 68.3567H249.365L251.157 62.0649C251.563 60.6074 251.551 59.8846 250.834 59.8846C249.962 59.8846 248.852 61.7568 248.242 62.8587L247.777 62.5981C248.35 61.579 249.568 59.2803 251.025 59.2803C252.482 59.2803 252.745 60.9629 252.482 62.3255C253.223 61.188 254.489 59.2685 256.078 59.2685ZM258.562 55.9982C258.228 56.8158 257.523 58.2139 256.269 58.2139C255.337 58.2139 254.609 57.3134 253.581 57.3134C253.116 57.3134 252.853 57.5504 252.459 58.2139H251.802C252.136 57.266 252.865 55.9982 254.035 55.9982C255.038 55.9982 255.588 56.9105 256.663 56.9105C257.487 56.9105 257.833 55.9982 257.833 55.9982H258.562Z" fill="#C3280C"/>
<path d="M268.416 63.4275C268.416 65.5366 265.919 68.6529 263.674 68.6529C261.345 68.6529 260.413 66.2831 260.413 64.4465C260.413 62.2545 262.826 59.2686 265.262 59.2686C267.245 59.2686 268.451 61.5791 268.416 63.4275ZM266.433 64.1859C267.03 62.2189 267.269 59.8255 265.298 59.8255C263.71 59.8255 263.005 61.0222 262.372 63.6171C261.572 66.8993 262.073 68.0605 263.662 68.0605C265.203 68.0605 265.752 66.4727 266.433 64.1859Z" fill="#C3280C"/>
<path d="M274.364 59.861C272.966 59.861 271.832 60.5482 271.832 61.508C271.832 62.0649 272.262 62.527 273.432 63.001L273.731 63.1076C275.331 63.7593 276.382 64.2451 276.382 65.821C276.382 67.4088 274.925 68.6529 272.763 68.6529C271.103 68.6529 269.455 67.9775 269.455 66.2831C269.455 65.6077 269.98 64.9679 270.649 64.9679C271.151 64.9679 271.736 65.2997 271.736 66.0225C271.736 66.6623 271.115 67.0415 270.446 67.1481C270.613 67.4562 271.234 68.0605 272.727 68.0605C273.587 68.0605 275.176 67.5036 275.176 66.2831C275.176 65.5248 274.507 65.0864 273.516 64.6717L273.193 64.5295C271.7 63.8896 270.745 63.4868 270.745 61.9227C270.745 60.4179 272.178 59.2804 274.089 59.2804C275.69 59.2804 277.003 60.1335 277.003 61.4369C277.003 62.0768 276.597 62.7166 275.785 62.7166C275.188 62.7166 274.722 62.2545 274.722 61.6739C274.722 60.8208 275.355 60.5127 275.69 60.4653C275.69 60.2639 275.092 59.861 274.364 59.861Z" fill="#C3280C"/>
</svg>
