<svg width="222" height="115" viewBox="0 0 222 115" fill="none" xmlns="http://www.w3.org/2000/svg">
<path d="M49.0083 101.804C65.8731 101.804 79.5446 82.8695 79.5446 59.5131C79.5446 36.1568 65.8731 17.2227 49.0083 17.2227C32.1436 17.2227 18.472 36.1568 18.472 59.5131C18.472 82.8695 32.1436 101.804 49.0083 101.804Z" fill="#158753"/>
<path d="M36.6591 92.296C37.371 90.4257 38.07 88.5553 38.8856 86.3863C36.6073 86.9967 35.7012 89.3866 33.2676 89.4386C34.4973 87.3864 35.5847 85.581 36.8015 83.5678C34.575 83.7886 31.1188 85.8018 30.9246 85.6329C32.0379 84.2432 33.1511 82.8664 34.3808 81.3337C31.3 80.1128 29.7596 83.6587 27.0024 83.269C27.1707 82.3339 27.7661 81.8403 28.3875 81.1C29.8632 79.3335 32.8793 79.6582 33.7466 76.9047C30.6916 77.0735 28.1156 78.6581 24.763 78.5542C27.1319 76.8917 29.1512 75.463 31.5848 73.7485C28.7758 73.8004 26.5235 74.9434 23.4426 74.7616C25.695 73.5017 27.2742 72.6185 29.2159 71.5404C29.2159 71.5404 25.3714 71.6573 23.1579 71.1378C25.7727 69.826 29.9797 67.488 29.9279 67.3971C27.106 67.6179 24.2711 67.8257 21.4492 68.0465C21.4362 67.8907 29.2807 63.9552 29.2418 63.7993C26.5235 63.7993 23.818 63.7993 21.0997 63.7993C21.0867 63.6694 24.5559 62.3576 26.3163 61.8251C26.7047 61.7082 27.1966 61.6952 27.1189 61.1367C27.0412 60.6041 26.5623 60.0586 26.1351 60.2924C24.2064 61.3055 22.6271 59.669 20.6337 59.7469C21.5786 58.8767 22.0705 57.4869 23.585 58.7078C24.0769 59.1105 24.4912 58.6688 24.8536 58.3312C25.4749 57.7337 26.2257 57.6038 26.8341 58.1623C28.2063 59.4092 29.1512 58.7208 30.2256 57.5259C27.2225 56.6297 24.3229 55.7594 21.4233 54.9022C21.4362 54.7723 26.7176 54.5255 29.3324 54.5255C29.3842 54.3567 25.3584 52.2266 23.2873 51.3304C23.3261 51.2135 27.7014 50.9927 30.5881 50.9927C27.805 49.5639 25.6432 48.4469 23.0543 47.1091C25.7986 46.6155 27.9474 47.6157 30.8599 47.4208C28.2969 46.0051 26.3034 44.9011 24.2064 43.7321C26.4717 42.9788 28.4781 44.4854 30.7952 43.9399C29.3324 42.3034 27.3519 41.589 25.6691 40.2642C27.2225 39.7446 28.5169 40.6019 29.8891 40.8097C30.5622 40.9136 31.4554 41.55 31.779 40.6538C32.0896 39.7706 31.5848 38.7835 30.5363 38.6146C29.19 38.3938 28.6723 37.4197 28.0898 36.4326C27.9344 36.1728 27.2225 36.0299 27.8826 35.5623C28.2321 35.3156 28.8017 35.0818 28.9829 35.4065C29.7337 36.7183 30.8858 36.7183 32.1414 36.6534C32.698 36.6274 33.1252 37.0171 33.2158 37.4976C33.5006 38.9394 34.7821 39.0562 35.4294 38.5237C36.4908 37.6275 31.5719 33.1205 29.8114 31.1722C32.5556 31.7697 36.905 34.6921 37.138 34.5233C37.1769 34.4973 34.8986 30.3929 33.6171 28.1459C36.1672 29.172 37.4617 31.1722 39.727 32.4451C39.3257 29.9513 38.2513 28.068 37.371 25.769L42.1217 30.0812C42.2512 27.5614 41.2933 25.3274 40.9567 22.5089C42.8725 24.5092 43.4162 26.951 45.1249 29.1071C45.1249 26.1197 45.1249 23.561 45.1249 20.9893C45.2284 20.9763 46.5358 24.2883 47.1054 25.9509C47.2478 26.3665 47.3643 27.0549 48.0115 26.7691C48.3998 26.6003 48.9823 25.86 48.9047 25.756C47.6102 23.7558 49.9014 21.9764 49.1765 20.0151C49.9661 21.0152 52.0243 21.0932 50.7946 23.4571C50.3933 24.2234 51.4936 26.1717 50.4969 27.6783C50.1603 28.1849 51.0017 28.9512 51.9078 29.2889C52.801 26.8731 54.8074 22.0933 54.911 22.1193C54.911 24.4832 54.911 26.8601 54.911 29.8084C56.2961 27.5355 57.6682 25.9119 59.0532 23.6389C59.0532 23.6389 57.8235 28.4057 57.5517 31.445C59.4286 29.211 61.0467 27.5744 62.4965 25.847C62.6518 25.9379 61.4092 30.5618 60.6066 32.588C60.6066 32.588 64.6971 29.5227 65.9398 28.4836C65.3055 31.2372 63.6227 32.8997 62.6777 35.3415C62.6777 35.3415 67.1566 33.5102 69.0335 32.7049C69.15 32.8218 66.3152 35.8351 64.9948 37.4457C64.8007 37.6015 71.6872 36.1728 71.6872 36.1728C71.6872 36.1728 65.8621 41.8618 65.9786 42.0566C68.3863 41.5241 73.3959 40.7837 73.4865 40.9526C71.6354 42.2124 68.0239 44.966 68.0627 45.0829C70.4574 44.7322 72.8522 44.3945 75.6871 43.9789C73.5771 45.7453 71.3506 46.4727 69.2277 47.8235L76.5155 47.6676C74.069 48.9405 71.9978 50.0185 69.2665 51.4343C72.0496 51.4343 76.2437 51.72 76.2696 51.8759C74.2114 52.7461 72.1661 53.6163 69.4607 54.7723C72.4639 54.9282 74.8068 55.0581 77.1498 55.1879C77.1757 55.3308 73.5253 56.8505 71.6483 57.4739C72.0626 58.4221 72.5674 59.1364 73.5512 58.5909C74.8068 57.8895 75.7 58.513 76.6709 59.1624C77.0592 59.4222 77.6805 59.4352 77.1498 60.1236C76.8391 60.5262 76.4896 61.0068 75.9848 60.5262C75.1822 59.7599 74.5868 59.9677 73.9395 60.6951C73.2794 61.4354 72.5933 61.1237 72.0108 60.6041C70.8717 59.617 70.1468 60.2534 69.15 61.3964C71.9979 62.2926 77.2404 64.189 77.2275 64.3059C74.8586 64.4617 72.4897 64.6176 69.4737 64.8254C72.0237 65.9814 75.8424 67.9816 75.8036 68.1115C73.836 68.1115 69.7714 68.3712 69.7196 68.4881C71.5189 69.4493 73.3182 70.4104 75.6223 71.6443C73.2017 72.6315 71.26 70.904 69.2795 71.9301C70.8846 72.8523 72.3991 73.7095 74.2114 74.7486C71.8813 75.7877 69.9008 74.2161 67.5967 74.7356C69.5384 75.9565 71.273 77.0346 73.4477 78.3983C70.9752 78.814 69.2536 77.4632 67.2084 77.5801C67.4931 78.9828 67.4802 80.2557 69.4219 80.1518C71.1047 80.0609 70.328 82.9443 72.425 82.6196C70.4057 83.334 67.1436 82.2949 66.1728 80.7493C65.5773 79.8011 64.8265 79.7881 64.1146 80.2817C63.2085 80.9181 64.1534 81.4117 64.49 81.8403C65.7197 83.4379 67.2601 84.7887 67.985 86.9448C66.1987 85.9706 64.3994 84.9965 62.16 83.7886C63.2085 85.8797 64.4253 89.8282 64.4253 89.8282C62.8978 88.6463 61.3703 87.4773 59.351 85.9317C60.3736 88.8281 61.1762 91.1271 61.9917 93.426C61.8752 93.491 58.6908 89.9971 56.8009 87.6851C57.2669 90.5426 57.6423 92.7636 58.0953 95.5561C56.1925 93.452 55.5711 91.244 54.0825 89.1918C54.0825 91.9453 54.0825 94.4002 54.0825 96.868C53.9401 96.9069 52.7751 94.4391 52.2185 93.2312C52.0114 92.7766 52.2185 91.6076 51.1441 92.0492C50.458 92.335 49.9403 93.1013 50.4451 93.8806C51.2477 95.1015 50.8205 95.9718 49.9402 96.855C49.6425 97.1537 49.772 97.946 49.0212 97.7122C48.3351 97.4914 48.2833 96.9459 48.4387 96.3225C48.84 94.595 47.662 92.8675 48.5163 91.1011C48.7623 90.5816 48.2963 89.8802 47.429 89.3346C46.4323 91.9323 45.4744 94.4651 44.2705 97.5953C43.934 94.3872 44.4258 91.8674 44.5812 88.5424C42.9631 91.205 41.6816 93.2572 40.3871 95.3093C40.2577 95.2704 41.1379 90.3348 41.8499 87.2695C39.9729 89.4256 36.8015 92.4389 36.6591 92.296Z" fill="#FCFDFD"/>
<path d="M62.7683 46.9664H52.7881V36.4587H44.4517V46.9664H34.2902V54.3179H44.4517V84.8928H52.7881V54.3179H62.7683V46.9664Z" fill="#D4202C"/>
<path d="M49.0083 89.5946C59.6104 89.5946 68.2051 76.2546 68.2051 59.799C68.2051 43.3433 59.6104 30.0034 49.0083 30.0034C38.4061 30.0034 29.8114 43.3433 29.8114 59.799C29.8114 76.2546 38.4061 89.5946 49.0083 89.5946Z" stroke="#D4202C" stroke-width="6.2191" stroke-miterlimit="10"/>
<path d="M216.783 63.8903H96.7092L96.5927 62.4616C96.5668 62.1758 96.049 55.214 98.379 47.0572C99.7641 42.2385 101.861 37.9913 104.618 34.4454C108.087 30.0034 113.071 26.6653 118.508 24.5482L118.391 27.8213C109.46 31.3152 104.23 37.8224 101.343 47.9145C99.7641 53.4346 99.5958 58.4352 99.6217 60.7861H216.783V63.8903Z" fill="#158753"/>
<path d="M134.404 87.4514H124.126V35.3676H127.44V84.1133H134.404V87.4514Z" fill="#158753"/>
<path d="M137.355 44.2128H133.99V56.9155H137.355V44.2128Z" fill="#158753"/>
<path d="M160.5 44.2128H157.135V56.9155H160.5V44.2128Z" fill="#158753"/>
<path d="M183.334 86.3603H170.83V83.5159L178.325 76.4761H170.83V73.5927H182.441L182.428 76.7618L175.205 83.4769H183.334V86.3603Z" fill="#158753"/>
<path d="M167.568 86.3603H155.063V83.5159L162.558 76.4761H155.063V73.5927H166.675L166.662 76.7618L159.439 83.4769H167.568V86.3603Z" fill="#158753"/>
<path d="M196.473 76.9308C193.082 73.5668 188.305 73.9175 188.098 73.9434L186.674 74.0603V87.0618H189.794V84.4771H196.486C196.564 85.3343 196.564 86.2695 196.499 87.2566L199.606 87.4774C199.929 82.8665 198.881 79.3207 196.473 76.9308ZM189.794 81.3469V77.1256C191.049 77.2815 192.901 77.762 194.311 79.1778C194.907 79.7753 195.386 80.5026 195.748 81.3469H189.794Z" fill="#158753"/>
<path d="M189.574 46.7975C186.182 43.4335 181.406 43.7842 181.199 43.8101L179.775 43.927V56.9285H182.894V54.3438H189.587C189.664 55.201 189.664 56.1362 189.6 57.1233L192.706 57.3441C193.03 52.7332 191.981 49.1744 189.574 46.7975ZM182.894 51.2136V46.9923C184.15 47.1482 186.001 47.6287 187.412 49.0445C188.007 49.642 188.486 50.3693 188.849 51.2136H182.894Z" fill="#158753"/>
<path d="M150.403 48.2652C148.721 46.6286 146.416 45.8493 143.543 45.9272V44.2128H140.177V56.9155H143.543V49.0315C145.588 48.9536 147.167 49.4471 148.255 50.4862C150.507 52.6683 150.093 56.8765 150.093 56.9155H153.186C153.199 56.6817 153.743 51.5123 150.403 48.2652Z" fill="#158753"/>
<path d="M175.192 57.0844H163.62L163.503 55.6037C163.49 55.3829 163.141 50.2135 166.507 46.8235C168.591 44.7324 171.542 43.8102 175.296 44.0959L175.063 47.2911C172.293 47.0833 170.17 47.6807 168.785 49.0705C167.361 50.4992 166.895 52.5125 166.739 53.8762H175.179V57.0844H175.192Z" fill="#158753"/>
<path d="M144.98 87.3345C142.999 87.3345 140.423 86.5942 139.077 85.2304C137.744 83.8925 137.032 82.0612 137.096 80.2038C137.239 76.2943 140.19 73.5018 144.255 73.4238C148.436 73.3459 151.322 75.9306 151.775 80.1778L151.957 81.9053L140.449 81.8274C140.63 82.269 140.902 82.6846 141.265 83.0483C142.067 83.8536 143.866 84.3861 145.07 84.3991C148.617 84.451 151.193 83.0873 151.219 83.0743L151.258 85.7759C151.141 85.8538 148.863 87.3345 144.98 87.3345ZM140.54 78.7361L148.268 78.7881C147.452 76.9177 145.743 76.5021 144.306 76.5281C142.507 76.567 141.148 77.3853 140.54 78.7361Z" fill="#158753"/>
<path d="M21.3715 85.6461C21.4104 85.6201 21.4363 85.6071 21.4751 85.5941C21.501 85.5812 21.5269 85.5682 21.5528 85.5682C21.5787 85.5682 21.6045 85.5552 21.6175 85.5552C21.6434 85.5552 21.6693 85.5552 21.7081 85.5682C21.7469 85.5811 21.7987 85.6071 21.8893 85.6461C21.9799 85.6851 22.0706 85.75 22.1741 85.8279C22.2777 85.9059 22.3812 86.0098 22.4977 86.1267C22.6142 86.2436 22.7048 86.3864 22.7955 86.5553C22.9508 86.841 23.0543 87.1138 23.0802 87.3995C23.1191 87.6853 23.0802 87.958 22.9896 88.2178C22.899 88.4776 22.7307 88.7373 22.5107 88.9841C22.2906 89.2309 21.9929 89.4517 21.6304 89.6595C21.268 89.8673 20.9055 90.0102 20.569 90.0881C20.2324 90.1661 19.9088 90.1661 19.624 90.1141C19.3263 90.0622 19.0674 89.9453 18.8215 89.7764C18.5885 89.6076 18.3813 89.3738 18.226 89.088C18.1613 88.9581 18.0966 88.8412 18.0577 88.6984C18.0189 88.5685 17.9801 88.4386 17.9671 88.3217C17.9412 88.2048 17.9412 88.0879 17.9412 87.984C17.9412 87.8801 17.9542 87.8022 17.9671 87.7502C17.9801 87.6983 17.993 87.6723 18.0059 87.6463C18.0189 87.6333 18.0318 87.6073 18.0448 87.5944C18.0577 87.5814 18.0836 87.5554 18.1095 87.5424C18.1354 87.5164 18.1742 87.5034 18.2131 87.4775C18.2648 87.4515 18.3037 87.4255 18.3296 87.4125C18.3684 87.3995 18.3943 87.3865 18.4202 87.3865C18.4461 87.3865 18.472 87.3865 18.4849 87.3865C18.4978 87.3865 18.5108 87.3995 18.5237 87.4255C18.5367 87.4515 18.5496 87.5164 18.5367 87.5944C18.5237 87.6723 18.5108 87.7762 18.5108 87.8931C18.5108 88.01 18.5237 88.1529 18.5496 88.2957C18.5755 88.4516 18.6402 88.6074 18.7438 88.7893C18.8473 88.9841 18.9897 89.14 19.158 89.2439C19.3263 89.3608 19.5205 89.4257 19.7405 89.4517C19.9606 89.4777 20.1936 89.4517 20.4525 89.3868C20.7114 89.3218 20.9703 89.2049 21.255 89.0491C21.5398 88.8932 21.7599 88.7114 21.9411 88.5295C22.1223 88.3477 22.2518 88.1529 22.3294 87.971C22.4071 87.7762 22.4459 87.5814 22.4201 87.3736C22.4071 87.1657 22.3294 86.9709 22.2259 86.7631C22.1223 86.5942 22.0188 86.4514 21.9023 86.3475C21.7858 86.2436 21.6693 86.1656 21.5657 86.1007C21.4622 86.0357 21.3715 85.9968 21.2939 85.9578C21.2162 85.9188 21.1644 85.8929 21.1515 85.8539C21.1385 85.8409 21.1385 85.8279 21.1385 85.802C21.1385 85.789 21.1515 85.776 21.1644 85.75C21.1774 85.737 21.2033 85.711 21.2421 85.6851C21.268 85.698 21.3198 85.6721 21.3715 85.6461Z" fill="#158753"/>
<path d="M17.0351 80.4896C17.4105 80.3337 17.773 80.2298 18.1225 80.1909C18.459 80.1519 18.7826 80.1779 19.0674 80.2558C19.3522 80.3467 19.6111 80.4896 19.8311 80.7104C20.0512 80.9312 20.2454 81.204 20.3878 81.5547C20.5302 81.9054 20.6078 82.2171 20.5949 82.5158C20.5949 82.8145 20.5302 83.0873 20.4007 83.3341C20.2713 83.5809 20.0641 83.8147 19.8053 84.0095C19.5464 84.2173 19.2098 84.3991 18.8344 84.555C18.459 84.7109 18.1095 84.8018 17.773 84.8407C17.4364 84.8797 17.1257 84.8537 16.8409 84.7628C16.5562 84.6719 16.2973 84.529 16.0772 84.3082C15.8571 84.0874 15.663 83.8146 15.5206 83.464C15.3782 83.1263 15.3135 82.8145 15.3135 82.5158C15.3135 82.2171 15.3782 81.9443 15.5076 81.6975C15.6371 81.4508 15.8313 81.217 16.0902 81.0221C16.349 80.8273 16.6597 80.6455 17.0351 80.4896ZM17.3458 81.1131C17.0739 81.2299 16.8409 81.3468 16.6338 81.4897C16.4267 81.6326 16.2584 81.7884 16.129 81.9703C15.9995 82.1521 15.9348 82.347 15.9089 82.5678C15.883 82.7886 15.9348 83.0224 16.0384 83.2951C16.1419 83.5549 16.2973 83.7627 16.4655 83.8926C16.6468 84.0355 16.8409 84.1134 17.0481 84.1653C17.2681 84.2043 17.5011 84.2043 17.7471 84.1524C17.993 84.1004 18.239 84.0355 18.4849 83.9316C18.7567 83.8147 19.0027 83.6848 19.2227 83.5419C19.4428 83.399 19.6111 83.2432 19.7276 83.0613C19.857 82.8795 19.9218 82.6847 19.9476 82.4768C19.9606 82.256 19.9218 82.0222 19.8053 81.7495C19.6888 81.4767 19.5464 81.2819 19.3781 81.139C19.1969 80.9962 19.0027 80.9052 18.7826 80.8663C18.5626 80.8273 18.3296 80.8273 18.0836 80.8793C17.8506 80.9312 17.6047 81.0091 17.3458 81.1131Z" fill="#158753"/>
<path d="M17.4105 73.6316C17.4622 73.6187 17.5011 73.6187 17.5399 73.6187C17.5787 73.6316 17.6176 73.6446 17.6435 73.6576C17.6693 73.6836 17.6952 73.7096 17.7211 73.7356C17.7341 73.7615 17.76 73.8005 17.76 73.8265L17.8117 74.0343C17.8247 74.0992 17.8376 74.1642 17.8376 74.2161C17.8376 74.2681 17.8247 74.32 17.7988 74.385C17.7729 74.4369 17.7341 74.5019 17.6823 74.5668C17.6305 74.6317 17.5658 74.6967 17.4752 74.7746L15.1193 77.0216C15.0028 77.1385 14.8604 77.2554 14.7309 77.3723C14.5885 77.4892 14.4591 77.6061 14.3296 77.723V77.736C14.5109 77.684 14.6921 77.6191 14.8863 77.5671C15.0804 77.5152 15.2617 77.4632 15.4558 77.4113L18.4201 76.593C18.4331 76.593 18.459 76.593 18.4719 76.593C18.4849 76.593 18.5107 76.619 18.5237 76.632C18.5366 76.6579 18.5496 76.6839 18.5755 76.7229C18.5884 76.7619 18.6143 76.8138 18.6272 76.8788C18.6402 76.9437 18.6531 76.9956 18.6661 77.0346C18.6661 77.0736 18.6661 77.1125 18.6661 77.1385C18.6661 77.1645 18.6531 77.1905 18.6402 77.2035C18.6272 77.2165 18.6143 77.2294 18.5884 77.2294L14.0707 78.4893C13.9672 78.5153 13.8895 78.5153 13.8377 78.4633C13.773 78.4244 13.7471 78.3594 13.7212 78.2945L13.6306 77.9828C13.6047 77.9048 13.6047 77.8399 13.6047 77.7879C13.6047 77.736 13.6177 77.684 13.6306 77.6321C13.6436 77.5801 13.6824 77.5412 13.7212 77.4892C13.7601 77.4373 13.8119 77.3853 13.8895 77.3204L15.7277 75.5929C15.8442 75.489 15.9477 75.3851 16.0513 75.2812C16.1548 75.1773 16.2584 75.0864 16.3749 74.9954C16.4784 74.9045 16.582 74.8136 16.6856 74.7227C16.7891 74.6318 16.8927 74.5408 16.9962 74.4499C16.8021 74.5149 16.5949 74.5668 16.3749 74.6317C16.1548 74.6967 15.9477 74.7487 15.7535 74.8006L13.0999 75.5409C13.087 75.5409 13.0611 75.5409 13.0481 75.5409C13.0352 75.5409 13.0093 75.515 12.9963 75.502C12.9834 75.476 12.9575 75.45 12.9446 75.4111C12.9316 75.3721 12.9057 75.3201 12.8928 75.2552C12.8798 75.2032 12.8669 75.1513 12.854 75.0993C12.854 75.0604 12.841 75.0214 12.854 74.9954C12.854 74.9695 12.8669 74.9435 12.8798 74.9305C12.8928 74.9175 12.9057 74.9045 12.9187 74.9045L17.4105 73.6316Z" fill="#158753"/>
<path d="M12.1938 67.9167C12.2456 67.9037 12.2844 67.9037 12.3233 67.9037C12.3621 67.9037 12.388 67.9037 12.4139 67.9167C12.4398 67.9167 12.4657 67.9297 12.4786 67.9427C12.4916 67.9556 12.5045 67.9686 12.5045 67.9946C12.5045 68.0206 12.4916 68.0855 12.4527 68.1635C12.4139 68.2414 12.3751 68.3453 12.3362 68.4752C12.2974 68.6051 12.2586 68.7609 12.2456 68.9298C12.2197 69.0986 12.2327 69.3065 12.2586 69.5273C12.2974 69.8 12.388 70.0338 12.5304 70.2286C12.6598 70.4235 12.8281 70.5923 13.0352 70.7092C13.2423 70.8261 13.4624 70.917 13.7213 70.956C13.9802 70.995 14.252 70.995 14.5368 70.943C14.8604 70.8911 15.1323 70.8001 15.3653 70.6702C15.5983 70.5404 15.7924 70.3845 15.9348 70.2027C16.0772 70.0208 16.1808 69.813 16.2325 69.5922C16.2843 69.3584 16.2973 69.1246 16.2584 68.8648C16.2325 68.709 16.1937 68.5661 16.129 68.4102C16.0643 68.2544 15.9866 68.1245 15.896 68.0076L14.4332 68.2414L14.6145 69.3844C14.6274 69.4234 14.6015 69.4623 14.5627 69.4883C14.5239 69.5143 14.4591 69.5402 14.3556 69.5532C14.3038 69.5662 14.265 69.5662 14.2261 69.5662C14.1873 69.5662 14.1614 69.5662 14.1355 69.5532C14.1096 69.5402 14.0967 69.5402 14.0837 69.5273C14.0708 69.5143 14.0579 69.5013 14.0579 69.4753L13.8119 67.9167C13.8119 67.8907 13.8119 67.8647 13.8119 67.8258C13.8119 67.7998 13.8249 67.7738 13.8507 67.7478C13.8637 67.7219 13.8896 67.6959 13.9284 67.6829C13.9672 67.6699 14.0061 67.6569 14.0449 67.6439L15.9607 67.3452C16.0254 67.3322 16.0902 67.3322 16.1419 67.3452C16.1937 67.3582 16.2455 67.3971 16.2973 67.4751C16.3491 67.54 16.4008 67.6309 16.4656 67.7348C16.5303 67.8388 16.5821 67.9556 16.6338 68.0725C16.6856 68.1894 16.7244 68.3193 16.7633 68.4362C16.8021 68.5661 16.828 68.683 16.8409 68.8129C16.9057 69.1896 16.8927 69.5402 16.8151 69.865C16.7374 70.1767 16.6079 70.4624 16.4138 70.7092C16.2196 70.956 15.9866 71.1508 15.6889 71.3067C15.3911 71.4625 15.0546 71.5794 14.6792 71.6314C14.2779 71.6963 13.9155 71.6963 13.566 71.6314C13.2165 71.5665 12.9187 71.4366 12.6598 71.2677C12.4009 71.0859 12.1809 70.8651 12.0126 70.5793C11.8443 70.2936 11.7278 69.9819 11.6631 69.6182C11.6372 69.4363 11.6243 69.2545 11.6243 69.0857C11.6372 68.9168 11.6502 68.7609 11.676 68.6311C11.7019 68.5012 11.7278 68.3843 11.7667 68.2804C11.8055 68.1894 11.8443 68.1115 11.8702 68.0855C11.8961 68.0466 11.9349 68.0206 11.9738 67.9946C12.0514 67.9427 12.1162 67.9297 12.1938 67.9167Z" fill="#158753"/>
<path d="M15.9996 61.2927C16.0255 61.2927 16.0384 61.2927 16.0514 61.3057C16.0643 61.3187 16.0772 61.3317 16.0902 61.3577C16.1031 61.3836 16.1161 61.4226 16.1161 61.4616C16.129 61.5135 16.129 61.5655 16.129 61.6434C16.129 61.7084 16.129 61.7603 16.129 61.8123C16.129 61.8512 16.1161 61.8902 16.1031 61.9162C16.0902 61.9421 16.0772 61.9681 16.0514 61.9811C16.0255 61.9941 15.9996 62.0071 15.9737 62.0201L14.7957 62.5396C14.6663 62.6046 14.5368 62.6695 14.4333 62.7215C14.3168 62.7864 14.2262 62.8643 14.1485 62.9423C14.0708 63.0202 14.0061 63.1241 13.9673 63.228C13.9284 63.3319 13.9155 63.4748 13.9155 63.6177L13.9414 64.0593L16.1031 63.9424C16.129 63.9424 16.142 63.9424 16.1549 63.9554C16.1679 63.9683 16.1808 63.9813 16.1937 64.0073C16.2067 64.0333 16.2196 64.0593 16.2196 64.1112C16.2326 64.1502 16.2326 64.2021 16.2326 64.2671C16.2326 64.332 16.2326 64.384 16.2326 64.4229C16.2326 64.4619 16.2196 64.5009 16.2196 64.5268C16.2067 64.5528 16.2067 64.5658 16.1808 64.5788C16.1679 64.5918 16.142 64.5918 16.129 64.5918L11.4301 64.8516C11.3266 64.8516 11.2489 64.8386 11.2101 64.7866C11.1712 64.7347 11.1454 64.6827 11.1454 64.6178L11.0936 63.5657C11.0806 63.4358 11.0806 63.3319 11.0806 63.254C11.0806 63.176 11.0806 63.0981 11.0936 63.0332C11.1195 62.8383 11.1583 62.6695 11.223 62.5136C11.2877 62.3578 11.3784 62.2279 11.4819 62.124C11.5855 62.0201 11.7149 61.9421 11.8573 61.8772C11.9997 61.8252 12.155 61.7863 12.3363 61.7733C12.5045 61.7603 12.6599 61.7733 12.8023 61.8123C12.9447 61.8512 13.0612 61.9032 13.1647 61.9811C13.2683 62.059 13.3718 62.15 13.4495 62.2669C13.5272 62.3838 13.6048 62.5136 13.6695 62.6565C13.6954 62.5786 13.7472 62.5006 13.799 62.4227C13.8508 62.3578 13.9155 62.2928 13.9932 62.2279C14.0708 62.163 14.1614 62.111 14.2521 62.0461C14.3556 61.9941 14.4592 61.9292 14.5886 61.8772L15.6889 61.3707C15.7795 61.3317 15.8442 61.3057 15.8831 61.2927C15.9478 61.3057 15.9737 61.2927 15.9996 61.2927ZM12.4916 62.4877C12.2974 62.5006 12.1291 62.5526 11.9997 62.6435C11.8702 62.7344 11.7796 62.8903 11.7279 63.0981C11.7149 63.1631 11.702 63.241 11.702 63.3189C11.702 63.3968 11.702 63.5008 11.702 63.6306L11.7279 64.1891L13.4365 64.0982L13.3977 63.4488C13.3848 63.28 13.3589 63.1241 13.3071 63.0072C13.2553 62.8773 13.1906 62.7864 13.1129 62.6955C13.0353 62.6046 12.9317 62.5526 12.8281 62.5266C12.7246 62.5006 12.6081 62.4747 12.4916 62.4877Z" fill="#158753"/>
<path d="M15.9219 56.1491C15.9736 56.1491 16.0125 56.1491 16.0513 56.1621C16.0901 56.1621 16.116 56.1751 16.1419 56.1881C16.1678 56.201 16.1808 56.214 16.1937 56.24C16.2066 56.253 16.2066 56.279 16.2066 56.292L16.129 58.6819C16.129 58.7468 16.1031 58.7988 16.0643 58.8507C16.0254 58.9027 15.9478 58.9286 15.8442 58.9156L11.3136 58.7598C11.21 58.7598 11.1453 58.7338 11.1065 58.6689C11.0676 58.6169 11.0547 58.565 11.0547 58.5L11.1324 56.1361C11.1324 56.1101 11.1453 56.0971 11.1453 56.0841C11.1582 56.0712 11.1712 56.0582 11.1971 56.0452C11.223 56.0322 11.2489 56.0322 11.2877 56.0192C11.3265 56.0192 11.3654 56.0062 11.4171 56.0192C11.4689 56.0192 11.5077 56.0192 11.5466 56.0322C11.5854 56.0452 11.6113 56.0452 11.6372 56.0582C11.6631 56.0712 11.676 56.0841 11.689 56.0971C11.7019 56.1101 11.7019 56.1361 11.7019 56.1491L11.6372 58.0974L13.2294 58.1493L13.2941 56.4868C13.2941 56.4608 13.307 56.4478 13.32 56.4348C13.3329 56.4218 13.3459 56.4089 13.3718 56.3959C13.3977 56.3829 13.4236 56.3829 13.4624 56.3699C13.5012 56.3699 13.5401 56.3699 13.5918 56.3699C13.6436 56.3699 13.6824 56.3699 13.7083 56.3829C13.7472 56.3829 13.7731 56.3959 13.786 56.4089C13.8119 56.4218 13.8248 56.4348 13.8248 56.4478C13.8378 56.4608 13.8378 56.4868 13.8378 56.4998L13.7731 58.1623L15.5982 58.2273L15.663 56.253C15.663 56.227 15.6759 56.214 15.6759 56.201C15.6889 56.1881 15.7018 56.1751 15.7277 56.1621C15.7536 56.1491 15.7795 56.1361 15.8183 56.1361C15.8312 56.1491 15.8701 56.1361 15.9219 56.1491Z" fill="#158753"/>
<path d="M12.5174 49.4861C12.5692 49.4991 12.608 49.4991 12.6469 49.5121C12.6857 49.5251 12.7116 49.5381 12.7375 49.5511C12.7634 49.564 12.7763 49.577 12.7893 49.59C12.8022 49.603 12.8022 49.629 12.8022 49.642C12.8022 49.6679 12.7634 49.7199 12.7116 49.7848C12.6469 49.8498 12.5821 49.9407 12.5045 50.0446C12.4268 50.1615 12.3621 50.2914 12.2844 50.4473C12.2197 50.6031 12.1679 50.7979 12.1291 51.0317C12.0902 51.3045 12.1161 51.5513 12.1809 51.7851C12.2456 52.0189 12.375 52.2137 12.5304 52.3955C12.6857 52.5644 12.8928 52.7073 13.1258 52.8242C13.3588 52.9411 13.6307 53.006 13.9154 53.045C14.2391 53.0839 14.5238 53.0839 14.7957 53.032C15.0546 52.98 15.2876 52.8891 15.4688 52.7462C15.663 52.6163 15.8183 52.4475 15.9348 52.2397C16.0513 52.0319 16.129 51.811 16.1549 51.5513C16.1807 51.3954 16.1807 51.2396 16.1549 51.0837C16.1419 50.9278 16.1031 50.772 16.0384 50.6291L14.5627 50.4343L14.4073 51.5773C14.4073 51.6162 14.3814 51.6552 14.3297 51.6682C14.2779 51.6812 14.2132 51.6812 14.1226 51.6682C14.0708 51.6552 14.0319 51.6552 13.9931 51.6422C13.9543 51.6292 13.9284 51.6162 13.9154 51.6032C13.8895 51.5902 13.8766 51.5773 13.8766 51.5513C13.8637 51.5383 13.8637 51.5123 13.8637 51.4863L14.0708 49.9147C14.0708 49.8887 14.0837 49.8628 14.0967 49.8368C14.1096 49.8108 14.1355 49.7848 14.1484 49.7719C14.1743 49.7459 14.2002 49.7329 14.2391 49.7329C14.2779 49.7199 14.3167 49.7199 14.3685 49.7329L16.2843 49.9927C16.349 50.0056 16.4137 50.0186 16.4526 50.0446C16.5044 50.0706 16.5302 50.1225 16.5691 50.2005C16.595 50.2784 16.6209 50.3823 16.6597 50.4992C16.6856 50.6161 16.7115 50.746 16.7244 50.8759C16.7374 51.0058 16.7503 51.1356 16.7503 51.2655C16.7503 51.3954 16.7374 51.5253 16.7244 51.6422C16.6726 52.0189 16.5691 52.3566 16.4137 52.6423C16.2584 52.9281 16.0513 53.1619 15.7924 53.3307C15.5465 53.5125 15.2487 53.6294 14.9251 53.6944C14.6015 53.7593 14.2391 53.7723 13.8637 53.7204C13.4624 53.6684 13.1129 53.5645 12.8022 53.3956C12.4915 53.2398 12.2326 53.032 12.0385 52.7852C11.8443 52.5384 11.689 52.2527 11.6113 51.9409C11.5207 51.6292 11.5077 51.2785 11.5595 50.9148C11.5854 50.733 11.6242 50.5512 11.676 50.3953C11.7278 50.2394 11.7925 50.0966 11.8572 49.9667C11.922 49.8498 11.9867 49.7459 12.0514 49.6679C12.1161 49.59 12.1679 49.5381 12.2068 49.4991C12.2456 49.4731 12.2844 49.4471 12.3362 49.4471C12.3621 49.4731 12.4268 49.4731 12.5174 49.4861Z" fill="#158753"/>
<path d="M18.006 43.8101C18.0707 43.8101 18.1095 43.8101 18.1483 43.8101C18.1872 43.823 18.2131 43.836 18.226 43.862C18.239 43.888 18.239 43.927 18.239 43.9659C18.239 44.0179 18.226 44.0698 18.2001 44.1478C18.1872 44.2257 18.1613 44.2906 18.1483 44.3296C18.1354 44.3686 18.1225 44.4075 18.1095 44.4335C18.0966 44.4595 18.0836 44.4725 18.0577 44.4725C18.0448 44.4855 18.0189 44.4855 17.993 44.4855L16.6856 44.6024L16.1937 46.6156L17.2811 47.304C17.3069 47.317 17.3199 47.3299 17.3328 47.3429C17.3458 47.3559 17.3587 47.3819 17.3587 47.4079C17.3587 47.4338 17.3587 47.4728 17.3587 47.5118C17.3587 47.5507 17.3458 47.6157 17.3199 47.6806C17.3069 47.7586 17.2811 47.8105 17.2681 47.8495C17.2552 47.8884 17.2293 47.9274 17.2034 47.9404C17.1775 47.9534 17.1516 47.9534 17.1128 47.9534C17.0739 47.9404 17.0351 47.9274 16.9833 47.8884L12.8152 45.1609C12.7893 45.1479 12.7634 45.1219 12.7504 45.1089C12.7375 45.0829 12.7245 45.057 12.7245 45.031C12.7245 44.992 12.7245 44.953 12.7375 44.9011C12.7504 44.8491 12.7634 44.7842 12.7763 44.7193C12.7893 44.6413 12.8152 44.5764 12.8281 44.5244C12.841 44.4725 12.8669 44.4335 12.8799 44.4075C12.8928 44.3816 12.9187 44.3556 12.9446 44.3426C12.9705 44.3296 12.9964 44.3166 13.0223 44.3166L18.006 43.8101ZM13.4494 44.9011L15.7148 46.3428L16.116 44.6673L13.4494 44.9011Z" fill="#158753"/>
<path d="M19.3392 38.4329C19.3781 38.4459 19.4169 38.4589 19.4428 38.4719C19.4687 38.4849 19.4946 38.4978 19.5205 38.5108C19.5464 38.5238 19.5593 38.5368 19.5723 38.5498C19.5852 38.5628 19.5981 38.5888 19.6111 38.6277C19.624 38.6667 19.6499 38.7186 19.6758 38.8226C19.7017 38.9135 19.7146 39.0304 19.7146 39.1603C19.7276 39.2901 19.7146 39.433 19.7017 39.6019C19.6758 39.7577 19.637 39.9266 19.5723 40.1084C19.4687 40.4072 19.3134 40.6669 19.1192 40.8747C18.925 41.0826 18.705 41.2384 18.4331 41.3293C18.1742 41.4332 17.8765 41.4722 17.5399 41.4592C17.2034 41.4462 16.8539 41.3683 16.4655 41.2254C16.0643 41.0826 15.7277 40.9007 15.4559 40.6929C15.184 40.4851 14.964 40.2513 14.8216 39.9915C14.6662 39.7318 14.5886 39.459 14.5627 39.1603C14.5368 38.8615 14.5886 38.5628 14.6921 38.2641C14.7439 38.1342 14.7957 38.0043 14.8734 37.8874C14.951 37.7705 15.0157 37.6666 15.0934 37.5627C15.1711 37.4718 15.2488 37.3938 15.3394 37.3289C15.43 37.2639 15.4818 37.225 15.5335 37.199C15.5724 37.173 15.6112 37.16 15.6371 37.16C15.663 37.16 15.6759 37.16 15.7018 37.16C15.7277 37.16 15.7536 37.173 15.7924 37.173C15.8313 37.186 15.8701 37.199 15.9089 37.212C15.9607 37.225 15.9995 37.251 16.0384 37.2639C16.0772 37.2769 16.1031 37.3029 16.116 37.3159C16.1419 37.3289 16.1549 37.3549 16.1549 37.3679C16.1549 37.3808 16.1549 37.4068 16.1549 37.4198C16.1419 37.4588 16.1031 37.4977 16.0384 37.5367C15.9737 37.5757 15.883 37.6406 15.7924 37.7185C15.7018 37.7965 15.6112 37.8874 15.5076 38.0043C15.4041 38.1212 15.3264 38.277 15.2617 38.4719C15.184 38.6797 15.1581 38.8875 15.184 39.0823C15.2099 39.2901 15.2746 39.472 15.4041 39.6538C15.5206 39.8357 15.6889 40.0045 15.9089 40.1474C16.129 40.3032 16.3879 40.4331 16.6856 40.537C16.9833 40.6409 17.2681 40.7059 17.527 40.7319C17.7859 40.7578 18.006 40.7319 18.2131 40.6669C18.4072 40.602 18.5885 40.4981 18.7309 40.3552C18.8732 40.2123 18.9897 40.0305 19.0674 39.8097C19.1321 39.6278 19.171 39.446 19.171 39.2901C19.171 39.1343 19.158 38.9914 19.1451 38.8745C19.1192 38.7576 19.0933 38.6537 19.0804 38.5758C19.0545 38.4978 19.0545 38.4329 19.0674 38.4069C19.0674 38.3939 19.0804 38.3809 19.0933 38.368C19.1062 38.355 19.1192 38.355 19.1451 38.355C19.171 38.355 19.1969 38.355 19.2357 38.368C19.2357 38.3939 19.2745 38.4069 19.3392 38.4329Z" fill="#158753"/>
<path d="M21.1256 35.9391C21.1386 35.9521 21.1644 35.9651 21.1644 35.978C21.1774 35.991 21.1774 36.017 21.1774 36.043C21.1774 36.069 21.1644 36.1079 21.1515 36.1469C21.1386 36.1859 21.1256 36.2378 21.0997 36.2898C21.0738 36.3417 21.0479 36.3937 21.0221 36.4326C20.9962 36.4716 20.9703 36.4976 20.9573 36.5106C20.9444 36.5236 20.9185 36.5365 20.9056 36.5495C20.8926 36.5495 20.8667 36.5495 20.8538 36.5365L16.4267 34.4844C16.4138 34.4714 16.3879 34.4584 16.3879 34.4454C16.3749 34.4324 16.3749 34.4064 16.3749 34.3805C16.3749 34.3545 16.3879 34.3155 16.4008 34.2765C16.4138 34.2376 16.4267 34.1856 16.4526 34.1337C16.4785 34.0817 16.5044 34.0298 16.5303 33.9908C16.5562 33.9518 16.5691 33.9259 16.595 33.9129C16.6079 33.8999 16.6338 33.8869 16.6468 33.8739C16.6597 33.8739 16.6856 33.8739 16.6986 33.8869L21.1256 35.9391Z" fill="#158753"/>
<path d="M18.0319 28.172C18.0189 28.133 18.006 28.0941 18.006 28.0551C18.006 28.0161 18.006 27.9901 18.0189 27.9512C18.0319 27.9122 18.0448 27.8732 18.0578 27.8343C18.0836 27.7953 18.1095 27.7434 18.1354 27.6914C18.1743 27.6265 18.2131 27.5745 18.239 27.5485C18.2778 27.5226 18.3037 27.4966 18.3296 27.4966C18.3555 27.4966 18.3814 27.4966 18.3943 27.5096C18.4073 27.5226 18.4202 27.5485 18.4332 27.5875L18.705 28.7695C18.7179 28.8084 18.7179 28.8344 18.7179 28.8604C18.7179 28.8863 18.7179 28.9123 18.705 28.9383C18.692 28.9643 18.692 29.0032 18.6662 29.0292C18.6532 29.0682 18.6273 29.1072 18.6014 29.1461C18.5755 29.1981 18.5497 29.237 18.5238 29.263C18.4979 29.289 18.4849 29.302 18.459 29.302C18.4461 29.302 18.4202 29.302 18.4073 29.289C18.3943 29.276 18.3814 29.25 18.3684 29.2111L18.0319 28.172ZM22.3036 28.6136C22.6531 28.8214 22.9508 29.0552 23.1838 29.315C23.4168 29.5617 23.5851 29.8345 23.6887 30.1203C23.7922 30.406 23.8181 30.6917 23.7793 31.0035C23.7404 31.3152 23.6239 31.6269 23.4298 31.9516C23.2356 32.2763 23.0285 32.5231 22.7825 32.692C22.5495 32.8608 22.2906 32.9777 22.0059 33.0167C21.734 33.0557 21.4234 33.0297 21.1127 32.9388C20.7891 32.8478 20.4525 32.692 20.0901 32.4712C19.7406 32.2634 19.4558 32.0296 19.2228 31.7828C18.9898 31.536 18.8215 31.2632 18.7309 30.9905C18.6273 30.7047 18.6014 30.419 18.6403 30.1073C18.6791 29.7955 18.7956 29.4838 18.9898 29.1591C19.171 28.8474 19.3911 28.6006 19.6241 28.4318C19.8571 28.2629 20.116 28.146 20.4007 28.107C20.6726 28.0681 20.9832 28.0811 21.2939 28.172C21.6175 28.2629 21.9541 28.4058 22.3036 28.6136ZM21.9929 29.237C21.747 29.0942 21.501 28.9773 21.268 28.8863C21.035 28.7954 20.802 28.7565 20.582 28.7695C20.3619 28.7695 20.1677 28.8344 19.9736 28.9513C19.7923 29.0682 19.6241 29.25 19.4687 29.4968C19.3263 29.7436 19.2487 29.9774 19.2357 30.1982C19.2357 30.419 19.2746 30.6268 19.3652 30.8346C19.4558 31.0294 19.5982 31.2243 19.7794 31.3931C19.9606 31.562 20.1677 31.7178 20.4007 31.8607C20.6596 32.0166 20.9056 32.1335 21.1515 32.2244C21.3975 32.3153 21.6175 32.3543 21.8376 32.3543C22.0576 32.3543 22.2518 32.2893 22.433 32.1724C22.6143 32.0555 22.7825 31.8737 22.9379 31.6269C23.0803 31.3801 23.1579 31.1463 23.1709 30.9126C23.1709 30.6917 23.132 30.4709 23.0285 30.2761C22.9249 30.0813 22.7825 29.8865 22.6013 29.7176C22.4201 29.5488 22.2259 29.3799 21.9929 29.237Z" fill="#158753"/>
<path d="M28.1027 24.951C28.1416 24.9899 28.1675 25.0159 28.1933 25.0549C28.2063 25.0938 28.2192 25.1328 28.2192 25.1588C28.2192 25.1977 28.2192 25.2237 28.1933 25.2627C28.1804 25.3016 28.1675 25.3276 28.1416 25.3536L27.9992 25.5224C27.9603 25.5744 27.9086 25.6134 27.8697 25.6523C27.8309 25.6783 27.7791 25.7043 27.7144 25.7173C27.6497 25.7303 27.5849 25.7303 27.5073 25.7303C27.4296 25.7303 27.3261 25.7043 27.2225 25.6783L24.0252 24.9899C23.8569 24.9509 23.6886 24.912 23.5074 24.873C23.3262 24.8341 23.1579 24.7821 23.0025 24.7431C23.1449 24.86 23.3003 24.9769 23.4556 25.1068C23.6109 25.2367 23.7533 25.3536 23.9087 25.4835L26.2646 27.4577C26.2775 27.4707 26.2905 27.4837 26.2905 27.5097C26.2905 27.5227 26.2905 27.5486 26.2905 27.5746C26.2905 27.6006 26.2646 27.6266 26.2387 27.6655C26.2128 27.7045 26.1869 27.7435 26.1481 27.7954C26.1093 27.8474 26.0704 27.8863 26.0445 27.9123C26.0186 27.9383 25.9798 27.9643 25.9669 27.9773C25.941 27.9903 25.928 27.9903 25.9021 27.9903C25.8763 27.9903 25.8633 27.9773 25.8504 27.9643L22.2388 24.951C22.1611 24.886 22.1223 24.8081 22.1223 24.7431C22.1223 24.6652 22.1482 24.6132 22.187 24.5483L22.3942 24.3015C22.4459 24.2366 22.4848 24.1976 22.5365 24.1716C22.5754 24.1457 22.6272 24.1197 22.6789 24.1067C22.7307 24.0937 22.7825 24.0937 22.8472 24.0937C22.9119 24.0937 22.9896 24.1067 23.0802 24.1327L25.5397 24.6652C25.695 24.6912 25.8374 24.7301 25.9798 24.7561C26.1222 24.7821 26.2646 24.8211 26.394 24.86C26.5235 24.899 26.6659 24.925 26.7953 24.951C26.9248 24.9769 27.0542 25.0159 27.1966 25.0419C27.0283 24.912 26.86 24.7821 26.6918 24.6392C26.5235 24.4964 26.3552 24.3535 26.1869 24.2236L24.077 22.4572C24.064 22.4442 24.0511 22.4312 24.0511 22.4182C24.0511 22.4052 24.0511 22.3792 24.0511 22.3533C24.0511 22.3273 24.077 22.2883 24.0899 22.2623C24.1028 22.2364 24.1417 22.1844 24.1935 22.1324C24.2323 22.0805 24.2711 22.0545 24.297 22.0156C24.3229 21.9896 24.3617 21.9636 24.3876 21.9506C24.4135 21.9376 24.4394 21.9376 24.4523 21.9376C24.4653 21.9376 24.4912 21.9506 24.5041 21.9636L28.1027 24.951Z" fill="#158753"/>
<path d="M38.2513 17.5604C38.2643 17.5734 38.2643 17.5994 38.2643 17.6124C38.2643 17.6254 38.2513 17.6513 38.2384 17.6773C38.2254 17.7033 38.1996 17.7163 38.1607 17.7423C38.1219 17.7682 38.0831 17.7942 38.0313 17.8202C37.9666 17.8462 37.9277 17.8721 37.8889 17.8851C37.8501 17.8981 37.8112 17.9111 37.7853 17.9111C37.7594 17.9111 37.7336 17.9111 37.7206 17.8981C37.7077 17.8851 37.6947 17.8721 37.6818 17.8591L36.6074 15.8719L34.6268 16.95L35.7012 18.9372C35.7142 18.9502 35.7142 18.9762 35.7142 18.9891C35.7142 19.0021 35.7012 19.0281 35.6883 19.0541C35.6754 19.0801 35.6495 19.0931 35.6106 19.119C35.5718 19.145 35.533 19.171 35.4812 19.2099C35.4294 19.2359 35.3776 19.2619 35.3388 19.2749C35.3 19.2879 35.2611 19.3009 35.2352 19.3009C35.2093 19.3009 35.1835 19.3009 35.1705 19.2879C35.1576 19.2749 35.1446 19.2619 35.1317 19.2489L32.8016 14.9367C32.7887 14.9238 32.7887 14.8978 32.7887 14.8848C32.7887 14.8718 32.8016 14.8458 32.8146 14.8198C32.8275 14.7939 32.8534 14.7809 32.8923 14.7549C32.9311 14.7289 32.9699 14.703 33.0217 14.677C33.0735 14.651 33.1253 14.625 33.1641 14.612C33.2029 14.599 33.2418 14.5861 33.2676 14.5861C33.2935 14.5861 33.3194 14.5861 33.3324 14.599C33.3453 14.612 33.3583 14.625 33.3712 14.638L34.3421 16.4304L36.3226 15.3524L35.3517 13.56C35.3388 13.547 35.3388 13.521 35.3388 13.508C35.3388 13.495 35.3517 13.469 35.3647 13.4431C35.3776 13.4171 35.4035 13.4041 35.4423 13.3781C35.4812 13.3522 35.52 13.3262 35.5847 13.2872C35.6365 13.2612 35.6883 13.2353 35.7271 13.2223C35.766 13.2093 35.8048 13.1963 35.8307 13.1963C35.8566 13.1963 35.8825 13.1963 35.8954 13.2093C35.9084 13.2223 35.9213 13.2353 35.9342 13.2482L38.2513 17.5604Z" fill="#158753"/>
<path d="M41.3451 16.4045C41.358 16.4304 41.358 16.4434 41.3451 16.4564C41.3451 16.4694 41.3321 16.4954 41.3062 16.5084C41.2803 16.5214 41.2544 16.5473 41.2156 16.5603C41.1768 16.5863 41.125 16.5993 41.0732 16.6253C41.0214 16.6383 40.9697 16.6642 40.9179 16.6642C40.879 16.6772 40.8402 16.6772 40.8143 16.6772C40.7884 16.6772 40.7625 16.6642 40.7496 16.6642C40.7367 16.6512 40.7237 16.6383 40.7237 16.6123L39.1704 11.9624C39.1574 11.9364 39.1574 11.9234 39.1704 11.9105C39.1704 11.8975 39.1962 11.8715 39.2092 11.8585C39.2351 11.8455 39.261 11.8195 39.2998 11.8065C39.3386 11.7806 39.3904 11.7676 39.4422 11.7546C39.5069 11.7286 39.5587 11.7156 39.5975 11.7156C39.6364 11.7026 39.6752 11.7026 39.7011 11.7026C39.727 11.7026 39.7529 11.7156 39.7658 11.7156C39.7788 11.7286 39.7917 11.7416 39.7917 11.7676L41.3451 16.4045Z" fill="#158753"/>
<path d="M44.8919 14.3392C44.9307 14.5341 44.9437 14.7289 44.9437 14.8977C44.9437 15.0666 44.9048 15.2225 44.8401 15.3523C44.7754 15.4822 44.6848 15.5991 44.5553 15.69C44.4259 15.781 44.2576 15.8459 44.0505 15.8849C43.9858 15.8979 43.9081 15.9108 43.8434 15.9108C43.7657 15.9108 43.701 15.9108 43.6492 15.8979C43.5845 15.8849 43.5327 15.8719 43.4809 15.8589C43.4292 15.8459 43.4033 15.8329 43.3903 15.8199C43.3774 15.8069 43.3644 15.794 43.3515 15.781C43.3385 15.768 43.3256 15.755 43.3127 15.729C43.2997 15.703 43.2868 15.6771 43.2868 15.6511C43.2738 15.6251 43.2738 15.5861 43.2609 15.5342C43.2479 15.4822 43.2479 15.4303 43.235 15.3913C43.235 15.3523 43.235 15.3264 43.235 15.3004C43.235 15.2744 43.2479 15.2614 43.2609 15.2484C43.2738 15.2354 43.2868 15.2354 43.3127 15.2225C43.3385 15.2225 43.3644 15.2225 43.3903 15.2354C43.4292 15.2484 43.468 15.2614 43.5198 15.2744C43.5715 15.2874 43.6233 15.3004 43.688 15.3134C43.7528 15.3264 43.8175 15.3134 43.8952 15.3004C43.9858 15.2874 44.0505 15.2614 44.1023 15.2225C44.1541 15.1835 44.2058 15.1445 44.2317 15.0666C44.2576 15.0017 44.2706 14.9107 44.2835 14.8068C44.2835 14.7029 44.2706 14.56 44.2447 14.3912L43.5845 10.7934C43.5845 10.7804 43.5845 10.7544 43.5845 10.7414C43.5974 10.7284 43.6104 10.7025 43.6363 10.6895C43.6622 10.6765 43.688 10.6635 43.7269 10.6505C43.7657 10.6375 43.8175 10.6245 43.8822 10.6115C43.9469 10.5986 43.9987 10.5986 44.0376 10.5856C44.0764 10.5856 44.1152 10.5856 44.1411 10.5856C44.167 10.5856 44.1929 10.5986 44.2058 10.6115C44.2188 10.6245 44.2317 10.6375 44.2317 10.6635L44.8919 14.3392Z" fill="#158753"/>
<path d="M51.2865 15.1056C51.2995 15.1575 51.3124 15.2095 51.3124 15.2484C51.3124 15.2874 51.2995 15.3134 51.2865 15.3264C51.2606 15.3394 51.2348 15.3523 51.183 15.3653C51.1312 15.3653 51.0665 15.3653 50.9888 15.3653C50.9111 15.3653 50.8464 15.3653 50.7946 15.3523C50.7429 15.3523 50.717 15.3394 50.6911 15.3264C50.6652 15.3134 50.6522 15.3004 50.6393 15.2874C50.6264 15.2744 50.6134 15.2484 50.6134 15.2225L50.2121 13.9756L48.1539 13.9366L47.7268 15.1575C47.7138 15.1835 47.7138 15.1965 47.7009 15.2225C47.6879 15.2354 47.675 15.2484 47.6491 15.2614C47.6232 15.2744 47.5844 15.2744 47.5455 15.2874C47.5067 15.2874 47.442 15.2874 47.3773 15.2874C47.2996 15.2874 47.2478 15.2874 47.196 15.2744C47.1443 15.2614 47.1184 15.2484 47.0925 15.2354C47.0795 15.2225 47.0666 15.1835 47.0666 15.1575C47.0666 15.1186 47.0795 15.0796 47.1054 15.0146L48.8659 10.3128C48.8788 10.2868 48.8918 10.2609 48.9047 10.2479C48.9177 10.2349 48.9436 10.2219 48.9824 10.2089C49.0083 10.1959 49.0601 10.1959 49.1118 10.1959C49.1636 10.1959 49.2283 10.1959 49.306 10.1959C49.3837 10.1959 49.4613 10.1959 49.5131 10.2089C49.5649 10.2089 49.6037 10.2219 49.6426 10.2349C49.6814 10.2479 49.6943 10.2609 49.7202 10.2868C49.7461 10.3128 49.7461 10.3258 49.7591 10.3648L51.2865 15.1056ZM49.2413 10.8843L48.3222 13.4041L50.0438 13.443L49.2413 10.8843Z" fill="#158753"/>
<path d="M56.2443 14.8458C56.1925 15.0796 56.1019 15.2744 55.9854 15.4433C55.856 15.6121 55.7136 15.729 55.5324 15.833C55.3511 15.9239 55.157 15.9888 54.9498 16.0018C54.7298 16.0148 54.5097 16.0018 54.2767 15.9498C54.1084 15.9109 53.9661 15.8719 53.8366 15.807C53.7072 15.742 53.5907 15.6901 53.4871 15.6251C53.3835 15.5602 53.3059 15.4953 53.2412 15.4303C53.1764 15.3654 53.1376 15.3264 53.1117 15.2874C53.0858 15.2485 53.0729 15.2095 53.0729 15.1575C53.0729 15.1056 53.0729 15.0407 53.0988 14.9627C53.1117 14.9108 53.1247 14.8588 53.1376 14.8198C53.1505 14.7809 53.1635 14.7549 53.1764 14.7289C53.1894 14.703 53.2023 14.69 53.2282 14.69C53.2412 14.69 53.267 14.69 53.28 14.69C53.3188 14.703 53.3577 14.7289 53.4094 14.7939C53.4612 14.8458 53.5389 14.9238 53.6166 14.9887C53.7072 15.0666 53.8107 15.1316 53.9402 15.2095C54.0696 15.2874 54.2249 15.3394 54.4191 15.3913C54.5615 15.4173 54.691 15.4303 54.8204 15.4173C54.9498 15.4043 55.0534 15.3784 55.157 15.3264C55.2605 15.2744 55.3382 15.1965 55.4029 15.1056C55.4676 15.0147 55.5194 14.8978 55.5453 14.7679C55.5712 14.625 55.5712 14.4951 55.5324 14.3912C55.4935 14.2743 55.4288 14.1704 55.3511 14.0665C55.2605 13.9626 55.1699 13.8717 55.0534 13.7808C54.9369 13.6899 54.8204 13.5989 54.691 13.495C54.5745 13.4041 54.445 13.3002 54.3414 13.1833C54.2249 13.0794 54.1343 12.9495 54.0567 12.8196C53.979 12.6897 53.9272 12.5469 53.8884 12.391C53.8625 12.2351 53.8625 12.0533 53.9143 11.8455C53.9661 11.6377 54.0437 11.4558 54.1473 11.313C54.2508 11.1701 54.3932 11.0532 54.5486 10.9753C54.7039 10.8973 54.8722 10.8454 55.0663 10.8324C55.2605 10.8194 55.4676 10.8324 55.6747 10.8714C55.7783 10.8973 55.8819 10.9233 55.9854 10.9753C56.089 11.0142 56.1796 11.0662 56.2702 11.1181C56.3608 11.1701 56.4385 11.222 56.5032 11.287C56.5679 11.3389 56.6068 11.3909 56.6326 11.4169C56.6456 11.4428 56.6585 11.4688 56.6715 11.4818C56.6715 11.4948 56.6844 11.5208 56.6844 11.5338C56.6844 11.5597 56.6844 11.5857 56.6844 11.6117C56.6844 11.6377 56.6715 11.6766 56.6585 11.7286C56.6456 11.7805 56.6326 11.8195 56.6197 11.8455C56.6068 11.8845 56.5938 11.9104 56.5809 11.9364C56.5679 11.9624 56.555 11.9754 56.542 11.9884C56.5291 12.0013 56.5032 12.0013 56.4903 12.0013C56.4644 12.0013 56.4255 11.9624 56.3738 11.9234C56.322 11.8715 56.2573 11.8195 56.1796 11.7546C56.1019 11.6896 56.0113 11.6247 55.9077 11.5597C55.8042 11.4948 55.6747 11.4428 55.5324 11.4169C55.4029 11.3909 55.2735 11.3779 55.1699 11.3909C55.0663 11.4039 54.9628 11.4428 54.8851 11.4818C54.8075 11.5338 54.7427 11.5857 54.691 11.6636C54.6392 11.7416 54.6003 11.8325 54.5874 11.9234C54.5615 12.0663 54.5615 12.1832 54.6003 12.3001C54.6392 12.417 54.7039 12.5209 54.7945 12.6248C54.8851 12.7287 54.9887 12.8196 55.1052 12.9105C55.2217 13.0015 55.3382 13.1054 55.4676 13.1963C55.5841 13.2872 55.7136 13.3911 55.8171 13.508C55.9336 13.6119 56.0242 13.7288 56.1019 13.8587C56.1796 13.9886 56.2314 14.1315 56.2702 14.2873C56.2961 14.4692 56.2831 14.651 56.2443 14.8458Z" fill="#158753"/>
<path d="M70.1727 22.0804C69.875 22.4051 69.5773 22.6519 69.2666 22.8207C68.9689 22.9896 68.6582 23.0805 68.3605 23.0935C68.0628 23.1065 67.765 23.0545 67.4544 22.9246C67.1566 22.7947 66.846 22.5869 66.5353 22.3012L65.7586 21.5868C65.7198 21.5479 65.6939 21.4959 65.681 21.431C65.668 21.366 65.6939 21.3011 65.7716 21.2231L68.8394 17.8721C68.9042 17.7942 68.9818 17.7552 69.0466 17.7682C69.1113 17.7682 69.1631 17.7942 69.2148 17.8332L70.0433 18.5995C70.354 18.8852 70.587 19.184 70.7294 19.4697C70.8717 19.7554 70.9494 20.0412 70.9494 20.3399C70.9494 20.6387 70.8847 20.9244 70.7552 21.2231C70.6258 21.5089 70.4316 21.7946 70.1727 22.0804ZM69.642 21.6258C69.8232 21.418 69.9786 21.2102 70.0821 20.9893C70.1857 20.7685 70.2504 20.5477 70.2633 20.3269C70.2763 20.1061 70.2375 19.8853 70.1339 19.6645C70.0433 19.4437 69.8621 19.2229 69.6161 18.9891L69.1242 18.5345L66.4447 21.4569L66.9495 21.9115C67.1825 22.1323 67.4026 22.2752 67.6227 22.3661C67.8427 22.457 68.0498 22.483 68.2699 22.457C68.4899 22.4311 68.71 22.3531 68.943 22.2103C69.176 22.0804 69.409 21.8856 69.642 21.6258Z" fill="#158753"/>
<path d="M71.8944 27.7694C71.8555 27.7953 71.8296 27.8213 71.7908 27.8473C71.7649 27.8603 71.7261 27.8733 71.7002 27.8863C71.6743 27.8863 71.6484 27.8863 71.6355 27.8863C71.6225 27.8863 71.5966 27.8733 71.5837 27.8473L70.108 25.977C70.0692 25.925 70.0562 25.873 70.0562 25.8081C70.0562 25.7432 70.095 25.6782 70.1727 25.6133L73.7066 22.7688C73.7843 22.7039 73.8619 22.6779 73.9266 22.6909C73.9914 22.7039 74.0432 22.7428 74.082 22.7818L75.5577 24.6262C75.5706 24.6391 75.5836 24.6651 75.5836 24.6781C75.5836 24.7041 75.5836 24.7171 75.5706 24.743C75.5577 24.769 75.5447 24.795 75.5188 24.821C75.493 24.847 75.4671 24.8729 75.4282 24.9119C75.3894 24.9379 75.3635 24.9639 75.3247 24.9768C75.2858 24.9898 75.2599 25.0028 75.247 25.0158C75.2211 25.0158 75.2082 25.0158 75.1823 25.0158C75.1693 25.0158 75.1434 25.0028 75.1305 24.9768L73.9137 23.4572L72.671 24.4573L73.7066 25.7561C73.7195 25.7691 73.7325 25.7951 73.7325 25.8081C73.7325 25.8341 73.7325 25.8471 73.7195 25.873C73.7066 25.899 73.6936 25.925 73.6678 25.951C73.6419 25.977 73.616 26.0029 73.5771 26.0419C73.5383 26.0679 73.5124 26.0938 73.4736 26.1068C73.4477 26.1198 73.4218 26.1328 73.3959 26.1328C73.37 26.1328 73.3571 26.1328 73.3312 26.1328C73.3183 26.1198 73.2924 26.1198 73.2794 26.0938L72.2438 24.795L70.8199 25.938L72.0497 27.4706C72.0626 27.4836 72.0756 27.5096 72.0756 27.5226C72.0756 27.5356 72.0756 27.5615 72.0626 27.5875C72.0497 27.6135 72.0367 27.6395 72.0108 27.6655C71.972 27.7044 71.9332 27.7304 71.8944 27.7694Z" fill="#158753"/>
<path d="M78.7679 38.3939C78.5478 38.4719 78.3278 38.5108 78.1207 38.4978C77.9135 38.4849 77.7323 38.4199 77.5511 38.329C77.3828 38.2251 77.2275 38.0952 77.0851 37.9264C76.9556 37.7575 76.8391 37.5627 76.7615 37.3289C76.7097 37.173 76.6579 37.0172 76.645 36.8743C76.6191 36.7314 76.6061 36.6015 76.6191 36.4846C76.6191 36.3677 76.632 36.2638 76.645 36.1729C76.6579 36.082 76.6838 36.03 76.6968 35.9911C76.7097 35.9521 76.7485 35.9131 76.7874 35.8872C76.8262 35.8612 76.8909 35.8222 76.9686 35.7962C77.0204 35.7703 77.0722 35.7573 77.111 35.7573C77.1498 35.7443 77.1757 35.7443 77.2016 35.7443C77.2275 35.7443 77.2534 35.7573 77.2663 35.7573C77.2793 35.7703 77.2922 35.7833 77.2922 35.8092C77.3051 35.8482 77.3052 35.9002 77.2793 35.9781C77.2663 36.056 77.2404 36.1469 77.2275 36.2638C77.2145 36.3807 77.2145 36.5106 77.2145 36.6665C77.2275 36.8223 77.2534 36.9782 77.3181 37.16C77.3699 37.2899 77.4346 37.4068 77.5123 37.5107C77.5899 37.6146 77.6805 37.6796 77.7712 37.7445C77.8747 37.7965 77.9783 37.8354 78.0948 37.8354C78.2113 37.8484 78.3278 37.8224 78.4572 37.7705C78.5867 37.7185 78.7032 37.6536 78.7679 37.5497C78.8456 37.4588 78.8973 37.3419 78.9362 37.212C78.975 37.0821 79.0009 36.9522 79.0138 36.7964C79.0268 36.6535 79.0397 36.4976 79.0527 36.3418C79.0656 36.1859 79.0915 36.03 79.1174 35.8742C79.1433 35.7183 79.1951 35.5754 79.2598 35.4456C79.3245 35.3027 79.4151 35.1858 79.5316 35.0689C79.6481 34.952 79.8035 34.8611 79.9976 34.7961C80.1918 34.7182 80.386 34.6922 80.5672 34.7052C80.7484 34.7182 80.9167 34.7702 81.072 34.8611C81.2274 34.952 81.3568 35.0689 81.4733 35.2248C81.5898 35.3806 81.6934 35.5625 81.7581 35.7573C81.7969 35.8612 81.8228 35.9651 81.8487 36.082C81.8746 36.1989 81.8746 36.3028 81.8875 36.4067C81.8875 36.5106 81.8875 36.6015 81.8746 36.6924C81.8616 36.7834 81.8487 36.8353 81.8358 36.8743C81.8228 36.9003 81.8099 36.9262 81.7969 36.9392C81.784 36.9522 81.771 36.9652 81.7581 36.9782C81.7451 36.9912 81.7193 37.0042 81.6804 37.0172C81.6545 37.0301 81.6157 37.0431 81.5639 37.0691C81.5251 37.0821 81.4733 37.0951 81.4474 37.1081C81.4086 37.1211 81.3827 37.1211 81.3568 37.1211C81.3309 37.1211 81.305 37.1211 81.2921 37.1081C81.2791 37.0951 81.2662 37.0821 81.2533 37.0691C81.2403 37.0431 81.2403 36.9912 81.2533 36.9262C81.2662 36.8613 81.2791 36.7704 81.2921 36.6795C81.305 36.5756 81.305 36.4716 81.305 36.3418C81.305 36.2119 81.2662 36.082 81.2144 35.9391C81.1626 35.8092 81.1109 35.7053 81.0332 35.6144C80.9685 35.5365 80.8908 35.4715 80.8002 35.4326C80.7225 35.3936 80.6319 35.3676 80.5413 35.3676C80.4507 35.3676 80.3601 35.3806 80.2695 35.4196C80.14 35.4715 80.0365 35.5365 79.9588 35.6404C79.8811 35.7313 79.8294 35.8482 79.7905 35.9781C79.7517 36.108 79.7258 36.2379 79.7128 36.3937C79.6999 36.5496 79.687 36.6925 79.674 36.8483C79.6611 37.0042 79.6352 37.16 79.6093 37.3159C79.5834 37.4718 79.5316 37.6146 79.4669 37.7575C79.4022 37.9004 79.3116 38.0173 79.1951 38.1342C79.1044 38.2381 78.9491 38.329 78.7679 38.3939Z" fill="#158753"/>
<path d="M79.2727 44.6285C79.221 44.6674 79.1821 44.6804 79.1433 44.6934C79.1045 44.7064 79.0786 44.7064 79.0527 44.6804C79.0268 44.6674 79.0138 44.6414 78.9879 44.5895C78.975 44.5505 78.9491 44.4856 78.9362 44.4077C78.9103 44.3297 78.8973 44.2648 78.8973 44.2258C78.8844 44.1739 78.8844 44.1479 78.8844 44.1219C78.8844 44.0959 78.8973 44.07 78.9103 44.057C78.9232 44.044 78.9362 44.031 78.9621 44.005L80.0494 43.2777L79.5316 41.2774L78.2501 41.1865C78.2242 41.1865 78.1983 41.1865 78.1854 41.1735C78.1595 41.1605 78.1465 41.1475 78.1336 41.1346C78.1207 41.1086 78.0948 41.0826 78.0818 41.0436C78.0689 41.0047 78.043 40.9397 78.03 40.8748C78.0171 40.7969 78.0042 40.7449 77.9912 40.6929C77.9912 40.641 77.9912 40.615 78.0042 40.589C78.0171 40.5631 78.043 40.5501 78.0818 40.5371C78.1207 40.5241 78.1595 40.5241 78.2242 40.5371L83.2208 40.9657C83.2467 40.9657 83.2726 40.9787 83.2985 40.9917C83.3244 41.0047 83.3373 41.0177 83.3632 41.0566C83.3762 41.0826 83.4021 41.1216 83.415 41.1735C83.428 41.2255 83.4538 41.2774 83.4668 41.3554C83.4927 41.4333 83.5056 41.4982 83.5056 41.5502C83.5186 41.6021 83.5186 41.6411 83.5186 41.6801C83.5186 41.719 83.5056 41.745 83.4927 41.771C83.4797 41.797 83.4538 41.81 83.428 41.8359L79.2727 44.6285ZM82.7807 41.5112L80.1141 41.3164L80.5413 42.9919L82.7807 41.5112Z" fill="#158753"/>
<path d="M80.2695 50.5512C80.2177 50.5642 80.1659 50.5512 80.1271 50.5512C80.0883 50.5382 80.0494 50.5252 80.0235 50.4992C79.9977 50.4733 79.9718 50.4473 79.9588 50.4083C79.9459 50.3694 79.9329 50.3434 79.9329 50.3044L79.907 50.0836C79.8941 50.0187 79.8941 49.9537 79.907 49.9018C79.92 49.8498 79.9329 49.7979 79.9588 49.7459C79.9847 49.6939 80.0365 49.642 80.0883 49.59C80.14 49.5381 80.2177 49.4731 80.3213 49.4082L82.962 47.4859C83.1044 47.382 83.2468 47.2781 83.3891 47.1872C83.5445 47.0833 83.6869 46.9923 83.8293 46.9014V46.8884C83.648 46.9144 83.4539 46.9534 83.2597 46.9794C83.0655 47.0053 82.8714 47.0443 82.6772 47.0703L79.6352 47.5119C79.6223 47.5119 79.5964 47.5119 79.5834 47.4989C79.5705 47.4859 79.5446 47.4729 79.5317 47.4469C79.5187 47.421 79.5058 47.395 79.4928 47.356C79.4799 47.3171 79.4669 47.2651 79.454 47.2002C79.441 47.1352 79.441 47.0833 79.441 47.0443C79.441 47.0053 79.441 46.9664 79.454 46.9404C79.454 46.9144 79.4669 46.9014 79.4799 46.8884C79.4928 46.8754 79.5058 46.8625 79.5317 46.8625L84.1788 46.1871C84.2823 46.1741 84.36 46.1871 84.4118 46.239C84.4635 46.291 84.4894 46.3559 84.5024 46.4208L84.5542 46.7456C84.5671 46.8235 84.5671 46.8884 84.5671 46.9404C84.5671 46.9923 84.5412 47.0443 84.5283 47.0833C84.5024 47.1222 84.4636 47.1742 84.4247 47.2131C84.3729 47.2651 84.3212 47.3041 84.2435 47.356L82.2112 48.8367C82.0817 48.9276 81.9652 49.0185 81.8487 49.0965C81.7322 49.1874 81.6157 49.2653 81.4992 49.3433C81.3827 49.4212 81.2662 49.4991 81.1627 49.5771C81.0462 49.655 80.9426 49.7329 80.8261 49.8108C81.0332 49.7719 81.2403 49.7459 81.4604 49.7069C81.6805 49.668 81.9005 49.642 82.0947 49.616L84.826 49.2134C84.8389 49.2134 84.8648 49.2134 84.8778 49.2264C84.8907 49.2394 84.9166 49.2523 84.9296 49.2783C84.9425 49.3043 84.9554 49.3303 84.9684 49.3692C84.9813 49.4082 84.9943 49.4602 84.9943 49.5251C85.0072 49.59 85.0072 49.629 85.0072 49.681C85.0072 49.7199 85.0072 49.7589 84.9943 49.7849C84.9813 49.8108 84.9813 49.8238 84.9554 49.8368C84.9425 49.8498 84.9296 49.8628 84.9037 49.8628L80.2695 50.5512Z" fill="#158753"/>
<path d="M82.5866 61.3446C82.5478 61.3446 82.5089 61.3446 82.4831 61.3446C82.4572 61.3446 82.4183 61.3316 82.4054 61.3316C82.3795 61.3187 82.3665 61.3187 82.3407 61.3057C82.3277 61.2927 82.3018 61.2797 82.2759 61.2537C82.25 61.2277 82.2112 61.1758 82.1594 61.0849C82.1077 61.0069 82.0559 60.903 82.0041 60.7731C81.9523 60.6562 81.9135 60.5134 81.8747 60.3575C81.8358 60.2016 81.8229 60.0328 81.8229 59.838C81.8229 59.5132 81.8876 59.2275 82.0041 58.9677C82.1206 58.708 82.2759 58.4871 82.496 58.3053C82.7161 58.1235 82.9749 57.9806 83.2986 57.8897C83.6092 57.7988 83.9846 57.7468 84.3859 57.7598C84.8131 57.7598 85.1885 57.8247 85.5121 57.9286C85.8357 58.0325 86.1205 58.1884 86.3405 58.3832C86.5736 58.5781 86.7418 58.8119 86.8583 59.0846C86.9748 59.3574 87.0266 59.6561 87.0266 59.9808C87.0266 60.1237 87.0137 60.2666 86.9748 60.3965C86.9489 60.5263 86.9101 60.6562 86.8713 60.7731C86.8324 60.89 86.7807 60.9939 86.7159 61.0849C86.6642 61.1758 86.6124 61.2407 86.5736 61.2667C86.5347 61.3057 86.5088 61.3187 86.4959 61.3316C86.4829 61.3446 86.4571 61.3446 86.4312 61.3576C86.4053 61.3576 86.3794 61.3706 86.3405 61.3706C86.3017 61.3706 86.2629 61.3706 86.224 61.3706C86.1723 61.3706 86.1334 61.3706 86.0946 61.3576C86.0558 61.3576 86.0299 61.3446 86.004 61.3316C85.9781 61.3187 85.9652 61.3057 85.9522 61.2927C85.9393 61.2797 85.9393 61.2667 85.9393 61.2407C85.9393 61.2018 85.9652 61.1498 86.0169 61.0849C86.0687 61.0199 86.1205 60.942 86.1852 60.8381C86.2499 60.7342 86.3017 60.6173 86.3535 60.4744C86.4053 60.3315 86.4312 60.1497 86.4312 59.9549C86.4312 59.734 86.3923 59.5262 86.3017 59.3444C86.2111 59.1625 86.0817 59.0067 85.9134 58.8768C85.7451 58.7469 85.525 58.643 85.2791 58.5651C85.0331 58.4871 84.7354 58.4482 84.4118 58.4482C84.0882 58.4482 83.8034 58.4742 83.5575 58.5391C83.3115 58.604 83.1044 58.695 82.9361 58.8248C82.7678 58.9547 82.6384 59.1106 82.5478 59.2924C82.4572 59.4743 82.4183 59.6821 82.4183 59.9159C82.4183 60.1107 82.4442 60.2926 82.4831 60.4354C82.5348 60.5783 82.5866 60.7082 82.6513 60.8121C82.7161 60.916 82.7678 61.0069 82.8196 61.0719C82.8714 61.1368 82.8973 61.1888 82.8973 61.2277C82.8973 61.2407 82.8973 61.2667 82.8843 61.2797C82.8714 61.2927 82.8585 61.3057 82.8326 61.3057C82.8067 61.3187 82.7808 61.3187 82.7419 61.3187C82.7031 61.3316 82.6513 61.3446 82.5866 61.3446Z" fill="#158753"/>
<path d="M81.5639 67.3452C81.4992 67.3582 81.4604 67.3712 81.4215 67.3582C81.3827 67.3582 81.3568 67.3452 81.3439 67.3192C81.3309 67.2932 81.318 67.2673 81.318 67.2153C81.318 67.1634 81.318 67.0984 81.3309 67.0205C81.3439 66.9426 81.3439 66.8776 81.3568 66.8257C81.3698 66.7737 81.3698 66.7477 81.3827 66.7218C81.3957 66.6958 81.4086 66.6828 81.4215 66.6698C81.4345 66.6568 81.4604 66.6568 81.4863 66.6438L82.7678 66.3581L82.9878 64.3059L81.8099 63.7734C81.784 63.7604 81.771 63.7474 81.7581 63.7344C81.7452 63.7214 81.7322 63.6955 81.7193 63.6695C81.7063 63.6435 81.7063 63.6045 81.7063 63.5656C81.7063 63.5266 81.7063 63.4617 81.7193 63.3967C81.7322 63.3188 81.7322 63.2668 81.7452 63.2149C81.7581 63.1629 81.7711 63.1369 81.7969 63.124C81.8228 63.111 81.8487 63.098 81.8746 63.111C81.9134 63.111 81.9523 63.1369 82.0041 63.1629L86.5217 65.332C86.5476 65.345 86.5735 65.358 86.5864 65.3839C86.5994 65.3969 86.6123 65.4229 86.6253 65.4619C86.6382 65.5008 86.6382 65.5398 86.6382 65.5918C86.6382 65.6437 86.6382 65.7087 86.6253 65.7866C86.6123 65.8645 86.6123 65.9295 86.5994 65.9944C86.5864 66.0464 86.5735 66.0853 86.5606 66.1243C86.5476 66.1503 86.5347 66.1762 86.5088 66.2022C86.4829 66.2152 86.457 66.2282 86.4311 66.2412L81.5639 67.3452ZM85.9392 65.6567L83.5056 64.5267L83.3244 66.2412L85.9392 65.6567Z" fill="#158753"/>
<path d="M79.8683 74.7878C79.8424 74.7878 79.8294 74.7748 79.8165 74.7618C79.8035 74.7488 79.7906 74.7228 79.7906 74.6968C79.7906 74.6709 79.7906 74.6319 79.7906 74.5929C79.7906 74.554 79.8035 74.502 79.8165 74.4371C79.8294 74.3721 79.8424 74.3332 79.8553 74.2812C79.8683 74.2422 79.8812 74.2033 79.9071 74.1903C79.92 74.1643 79.933 74.1513 79.9589 74.1513C79.9718 74.1383 79.9977 74.1383 80.0106 74.1513L84.3212 75.1644V75.1514L80.386 72.4368C80.3731 72.4239 80.3601 72.4109 80.3472 72.3979C80.3343 72.3849 80.3343 72.3589 80.3343 72.3329C80.3343 72.307 80.3343 72.268 80.3343 72.229C80.3343 72.1901 80.3472 72.1511 80.3601 72.0991C80.3731 72.0472 80.386 72.0082 80.399 71.9692C80.4119 71.9303 80.4249 71.9043 80.4378 71.8783C80.4508 71.8524 80.4637 71.8394 80.4896 71.8264C80.5025 71.8134 80.5155 71.8134 80.5414 71.8134L85.2532 71.1899L80.9427 70.1768C80.9168 70.1768 80.9038 70.1638 80.8909 70.1509C80.8779 70.1379 80.865 70.1119 80.865 70.0859C80.865 70.0599 80.865 70.021 80.865 69.982C80.865 69.943 80.8779 69.8911 80.8909 69.8261C80.9038 69.7612 80.9168 69.7093 80.9427 69.6703C80.9556 69.6313 80.9685 69.6053 80.9944 69.5794C81.0074 69.5534 81.0203 69.5404 81.0462 69.5404C81.0592 69.5404 81.085 69.5404 81.098 69.5404L85.6545 70.6055C85.758 70.6314 85.8357 70.6704 85.8616 70.7483C85.9004 70.8133 85.9004 70.8782 85.8875 70.9561L85.7969 71.3458C85.7839 71.4237 85.758 71.5017 85.7192 71.5536C85.6933 71.6056 85.6545 71.6575 85.6157 71.6965C85.5768 71.7355 85.525 71.7614 85.4603 71.7744C85.4085 71.7874 85.3309 71.8004 85.2661 71.8134L81.3569 72.3589V72.3719L84.593 74.6449C84.6577 74.6968 84.7225 74.7358 84.7613 74.7878C84.8131 74.8397 84.839 74.8787 84.8649 74.9306C84.8907 74.9826 84.9037 75.0215 84.9037 75.0735C84.9037 75.1255 84.9037 75.1774 84.8907 75.2424L84.8001 75.658C84.7872 75.697 84.7742 75.7359 84.7613 75.7619C84.7484 75.7879 84.7225 75.8139 84.6836 75.8398C84.6578 75.8528 84.6189 75.8658 84.5801 75.8788C84.5413 75.8918 84.4895 75.8788 84.4377 75.8658L79.8683 74.7878Z" fill="#158753"/>
<path d="M78.7809 77.9958C78.755 77.9828 78.742 77.9828 78.7291 77.9568C78.7162 77.9439 78.7162 77.9179 78.7162 77.8919C78.7162 77.8659 78.7162 77.827 78.7291 77.788C78.742 77.749 78.755 77.6971 78.7679 77.6321C78.7938 77.5802 78.8068 77.5282 78.8327 77.4893C78.8585 77.4503 78.8715 77.4243 78.8844 77.3983C78.8974 77.3724 78.9233 77.3594 78.9362 77.3594C78.9492 77.3594 78.9751 77.3594 78.988 77.3594L83.5963 78.9699C83.6222 78.9829 83.6351 78.9829 83.648 79.0089C83.661 79.0219 83.661 79.0479 83.661 79.0738C83.661 79.0998 83.661 79.1388 83.648 79.1778C83.6351 79.2167 83.6222 79.2687 83.6092 79.3206C83.5833 79.3856 83.5704 79.4245 83.5445 79.4635C83.5186 79.5025 83.5057 79.5284 83.4927 79.5544C83.4798 79.5804 83.4539 79.5934 83.4409 79.5934C83.428 79.5934 83.4021 79.5934 83.3892 79.5934L78.7809 77.9958Z" fill="#158753"/>
<path d="M76.9427 83.0224C76.8909 82.9964 76.8521 82.9834 76.8262 82.9575C76.8003 82.9445 76.7744 82.9185 76.7486 82.8925C76.7356 82.8666 76.7227 82.8536 76.7097 82.8276C76.7097 82.8016 76.7097 82.7886 76.7227 82.7626L77.6029 80.7494C77.6288 80.6975 77.6676 80.6585 77.7194 80.6195C77.7841 80.5936 77.8488 80.5936 77.9524 80.6325L82.263 82.5418C82.2759 82.5548 82.3018 82.5678 82.3018 82.5808C82.3147 82.5938 82.3147 82.6198 82.3147 82.6457C82.3147 82.6717 82.3018 82.7107 82.2889 82.7497C82.2759 82.7886 82.263 82.8406 82.2371 82.8925C82.2112 82.9575 82.1853 82.9964 82.1594 83.0354C82.1335 83.0744 82.1206 83.1003 82.0947 83.1133C82.0817 83.1393 82.0558 83.1393 82.0429 83.1523C82.03 83.1523 82.0041 83.1523 81.9911 83.1393L77.9653 81.3599L77.2534 82.9964C77.2404 83.0224 77.2275 83.0354 77.2146 83.0484C77.2016 83.0614 77.1757 83.0614 77.1498 83.0614C77.1239 83.0614 77.0981 83.0614 77.0592 83.0484C77.0333 83.0484 76.9945 83.0354 76.9427 83.0224Z" fill="#158753"/>
<path d="M75.959 89.5557C75.6095 89.3478 75.3118 89.114 75.0658 88.8673C74.8328 88.6205 74.6516 88.3477 74.548 88.075C74.4445 87.7892 74.4056 87.5035 74.4445 87.1917C74.4833 86.88 74.5998 86.5683 74.781 86.2436C74.9752 85.9189 75.1823 85.6721 75.4153 85.4903C75.6483 85.3084 75.9072 85.2045 76.179 85.1525C76.4509 85.1136 76.7616 85.1266 77.0722 85.2175C77.3958 85.3084 77.7324 85.4513 78.0948 85.6721C78.4444 85.8799 78.7291 86.1007 78.9621 86.3475C79.1951 86.5943 79.3634 86.854 79.467 87.1398C79.5705 87.4255 79.5964 87.7113 79.5705 88.023C79.5317 88.3347 79.4152 88.6465 79.234 88.9712C79.0528 89.2829 78.8456 89.5297 78.6126 89.7115C78.3796 89.8934 78.1207 89.9973 77.8489 90.0492C77.5771 90.1012 77.2793 90.0752 76.9557 89.9973C76.658 89.9063 76.3214 89.7635 75.959 89.5557ZM76.2697 88.9192C76.5156 89.0621 76.7616 89.179 77.0075 89.2569C77.2405 89.3349 77.4735 89.3738 77.6936 89.3738C77.9136 89.3608 78.1078 89.3089 78.302 89.192C78.4832 89.0751 78.6515 88.8932 78.7939 88.6465C78.9363 88.3997 79.0139 88.1659 79.0139 87.9451C79.0139 87.7243 78.9751 87.5165 78.8715 87.3086C78.768 87.1008 78.6385 86.932 78.4444 86.7631C78.2631 86.5943 78.056 86.4384 77.823 86.3085C77.5641 86.1527 77.3182 86.0358 77.0722 85.9578C76.8263 85.8669 76.6062 85.828 76.3862 85.8409C76.1661 85.8539 75.9719 85.9059 75.7907 86.0228C75.6095 86.1397 75.4412 86.3215 75.2988 86.5683C75.1564 86.8151 75.0787 87.0619 75.0787 87.2827C75.0787 87.5035 75.1176 87.7243 75.2211 87.9191C75.3247 88.1139 75.4671 88.2958 75.6483 88.4646C75.8295 88.6335 76.0367 88.7893 76.2697 88.9192Z" fill="#158753"/>
</svg>
