<svg width="121" height="103" viewBox="0 0 121 103" fill="none" xmlns="http://www.w3.org/2000/svg">
<path d="M70.0887 0.05505C73.2983 1.41294 74.4538 3.83511 74.1787 7.26653C73.9586 9.96396 74.197 12.6797 74.1236 15.3955C74.0686 17.5791 74.9856 18.57 77.2048 18.5333C80.3594 18.4783 83.5323 18.4966 86.6869 18.5333C90.5934 18.5884 92.4825 20.4968 92.5008 24.4053C92.5192 28.3138 92.5375 32.2406 92.5008 36.1492C92.4641 39.5989 90.5017 41.5991 87.0537 41.6908C85.403 41.7458 83.7341 41.7092 82.0834 41.6541C80.5795 41.5991 79.6625 40.7917 79.6625 39.2686C79.6625 37.7456 80.6162 36.9749 82.0467 36.7731C82.1935 36.7547 82.3402 36.7547 82.5052 36.7547C88.1541 37.14 87.4022 36.3143 87.4572 31.4149C87.4755 29.69 87.3838 27.9468 87.4572 26.2219C87.5489 24.1667 86.5768 23.4144 84.5777 23.4511C81.3498 23.5245 78.1035 23.5061 74.8756 23.4694C71.2442 23.4327 69.3001 21.4876 69.2634 17.8911C69.2267 14.7349 69.2817 11.5604 69.2451 8.40422C69.2267 5.7435 68.7499 5.28475 66.0355 5.2664C63.5595 5.24805 61.0652 5.3031 58.5892 5.24805C56.8102 5.21135 55.9299 5.94534 55.9482 7.78033C55.9849 11.3952 55.8565 15.0102 56.0399 18.6251C56.0949 19.616 56.7368 20.7537 57.4521 21.4876C62.3307 26.4971 67.2826 31.4332 72.2712 36.351C73.5918 37.6538 74.197 39.0851 74.1603 40.9568C74.0686 45.4709 74.1603 49.9849 74.1236 54.499C74.087 57.9854 72.1429 59.9489 68.6582 59.9856C64.6783 60.0223 60.6801 60.0223 56.7002 59.9856C52.9587 59.9672 51.0146 58.0772 50.9229 54.2788C50.8495 51.0492 50.8312 47.8013 50.9229 44.5717C50.9779 42.5165 50.0793 41.7092 48.1168 41.7092C44.8889 41.7275 41.6426 41.7275 38.4147 41.6725C34.6182 41.6174 32.7108 39.7274 32.6925 35.9657C32.6558 31.9837 32.6558 27.9835 32.6925 24.0016C32.7291 20.6069 34.5999 18.6434 37.9378 18.5333C39.5885 18.4783 41.2575 18.4966 42.9081 18.5333C44.5037 18.57 45.5675 19.4141 45.5125 21.0105C45.4758 22.5886 44.3937 23.396 42.8164 23.4327C42.743 23.4327 42.6697 23.4327 42.5963 23.4327C38.0112 23.2492 37.5343 22.7538 37.6261 28.589C37.6444 30.3139 37.6627 32.0571 37.6261 33.782C37.5894 35.8372 38.433 36.8097 40.5972 36.7363C43.7518 36.6263 46.9247 36.6813 50.0792 36.718C53.9491 36.7547 55.9299 38.7181 55.9665 42.5532C56.0032 45.7828 56.0216 49.0307 55.9665 52.2603C55.9299 54.0219 56.5718 54.9944 58.4058 54.9761C61.1936 54.9577 63.9813 54.9577 66.7508 54.9577C68.5848 54.9577 69.2634 53.9668 69.2451 52.242C69.2267 48.8472 69.3735 45.4525 69.1717 42.0761C69.0983 40.9385 68.4197 39.6356 67.6128 38.7915C62.8442 33.8738 58.0207 29.0111 53.1054 24.2401C51.5832 22.7538 50.9046 21.0656 50.8862 19.0288C50.8862 14.7349 50.9413 10.4411 50.8679 6.14719C50.8129 3.00937 52.3535 1.08264 55.1779 0C60.1665 0.0550495 65.1185 0.05505 70.0887 0.05505Z" fill="#008D33"/>
<path d="M67.2826 90.061C67.2826 93.5291 67.2826 97.0156 67.2826 100.484C67.2826 101.108 67.0442 101.365 66.4206 101.365C65.577 101.365 64.7333 101.365 63.8897 101.365C63.3394 101.365 62.9359 101.144 62.6058 100.704C60.1299 97.4376 57.6539 94.1897 55.1596 90.9235C54.3526 89.8592 53.5273 88.7765 52.7203 87.7122C52.6469 87.6205 52.5736 87.5104 52.4819 87.437C52.4085 87.3819 52.2618 87.3085 52.2068 87.3452C52.1151 87.4003 52.0417 87.5104 52.0233 87.6205C51.9867 87.7489 52.0233 87.8774 52.0233 88.0058C52.0233 92.1162 52.0233 96.2266 52.0233 100.337C52.0233 101.126 51.8033 101.328 51.0146 101.328C50.0426 101.328 49.0705 101.328 48.0985 101.328C47.3832 101.328 47.1631 101.108 47.1631 100.41C47.1631 93.4741 47.1631 86.5379 47.1631 79.6016C47.1631 78.941 47.4199 78.6841 48.0801 78.6841C48.9605 78.6841 49.8408 78.7208 50.7028 78.6658C51.5282 78.6107 52.005 79.0511 52.4635 79.6383C55.0128 83.0147 57.5622 86.3727 60.1299 89.7491C60.7167 90.5198 61.2853 91.2905 61.8722 92.0428C61.9639 92.1529 62.1106 92.1896 62.239 92.2813C62.294 92.1529 62.3857 92.0245 62.3857 91.8777C62.3857 87.804 62.3857 83.7303 62.3857 79.6567C62.3857 78.9594 62.6425 78.6841 63.3394 78.6841C64.2931 78.6841 65.2652 78.6841 66.2189 78.6841C67.0259 78.6841 67.246 78.886 67.246 79.7117C67.2826 83.1798 67.2826 86.6296 67.2826 90.061Z" fill="#008D33"/>
<path d="M72.7848 90.0794C72.7848 86.6297 72.7848 83.1799 72.7848 79.7301C72.7848 78.9595 73.0232 78.7209 73.7935 78.7393C74.7106 78.7393 75.6276 78.7393 76.5263 78.7393C77.0948 78.7393 77.4983 78.9778 77.8468 79.4182C79.9559 82.189 82.0467 84.9598 84.1559 87.7307C85.238 89.1619 86.3384 90.5932 87.4205 92.0245C87.4939 92.1163 87.5489 92.208 87.6406 92.2631C87.824 92.3915 87.9707 92.3548 88.0074 92.1163C88.0257 91.9144 88.0074 91.7126 88.0074 91.5107C88.0074 87.6573 88.0074 83.7854 88.0074 79.932C88.0074 79.7485 88.0074 79.565 88.0441 79.3999C88.0991 79.0145 88.3192 78.7576 88.7043 78.7576C89.8781 78.7393 91.0336 78.7393 92.2074 78.7576C92.5925 78.7576 92.8676 79.0879 92.886 79.4732C92.886 79.62 92.886 79.7668 92.886 79.9136C92.886 86.7031 92.886 93.4741 92.886 100.264C92.886 100.392 92.886 100.52 92.886 100.667C92.8676 101.126 92.6292 101.401 92.1707 101.401C91.217 101.42 90.2449 101.42 89.2912 101.401C88.796 101.401 88.4659 101.108 88.1908 100.741C87.2188 99.4562 86.2284 98.1533 85.238 96.8689C82.9087 93.8044 80.5795 90.74 78.2319 87.6756C78.1402 87.5472 77.9385 87.4921 77.7918 87.4004C77.7551 87.5655 77.6634 87.7123 77.6634 87.8774C77.6634 90.373 77.6634 92.8502 77.6634 95.3458C77.6634 96.9239 77.6634 98.502 77.6634 100.062C77.6634 100.227 77.6634 100.392 77.645 100.557C77.59 101.199 77.3883 101.401 76.728 101.401C75.7376 101.401 74.7289 101.401 73.7385 101.401C73.0232 101.401 72.8031 101.181 72.7848 100.447C72.7848 96.979 72.7848 93.5292 72.7848 90.0794Z" fill="#008D33"/>
<path d="M118.544 101.401C117.976 101.401 117.407 101.401 116.857 101.401C116.288 101.42 115.922 101.163 115.72 100.649C115.225 99.4194 114.73 98.2083 114.234 96.9789C114.033 96.4651 113.868 96.3733 113.354 96.5201C111.685 96.9972 109.961 97.089 108.255 96.9789C107.155 96.9055 106.054 96.6669 104.954 96.4834C104.44 96.3917 104.312 96.4467 104.092 96.9789C103.597 98.1899 103.102 99.401 102.606 100.612C102.386 101.163 102.001 101.42 101.414 101.42C100.351 101.42 99.3052 101.42 98.2414 101.42C98.1497 101.42 98.0764 101.42 97.9847 101.401C97.5812 101.328 97.4528 101.108 97.5995 100.741C98.3515 98.979 99.1034 97.199 99.837 95.4375C100.717 93.3639 101.598 91.3088 102.478 89.2352C103.744 86.2626 105.009 83.3082 106.275 80.3356C106.403 80.042 106.513 79.7667 106.641 79.4731C106.843 78.996 107.21 78.7391 107.742 78.7391C108.695 78.7391 109.668 78.7391 110.621 78.7391C111.19 78.7391 111.575 78.996 111.795 79.5098C112.694 81.6384 113.611 83.767 114.509 85.8956C115.5 88.2076 116.472 90.5381 117.462 92.8501C118.563 95.4375 119.663 98.0248 120.764 100.594C121.002 101.144 120.819 101.383 120.232 101.383C119.681 101.401 119.113 101.401 118.544 101.401ZM109.154 92.6483C109.961 92.5198 110.805 92.3914 111.63 92.2262C112.125 92.1161 112.18 91.9694 111.997 91.5106C111.153 89.4371 110.309 87.3819 109.466 85.3084C109.411 85.1616 109.282 85.0515 109.172 84.923C109.062 85.0515 108.897 85.1432 108.842 85.29C107.999 87.3452 107.155 89.4187 106.311 91.4923C106.109 91.9693 106.201 92.1712 106.696 92.2629C107.503 92.4281 108.31 92.5198 109.154 92.6483Z" fill="#008D33"/>
<path d="M41.0374 101.401C40.4872 101.401 39.937 101.401 39.3868 101.401C38.7999 101.42 38.4147 101.163 38.1946 100.612C37.7178 99.4194 37.2226 98.2266 36.7641 97.0339C36.5256 96.4284 36.4523 96.3733 35.8287 96.5201C33.041 97.1807 30.2349 97.1624 27.4471 96.4651C26.9519 96.3366 26.8235 96.41 26.6218 96.8871C26.1266 98.1166 25.613 99.3276 25.1362 100.557C24.8978 101.144 24.4943 101.401 23.8524 101.401C22.7886 101.383 21.7065 101.401 20.6428 101.383C20.0742 101.364 19.9275 101.144 20.1476 100.612C20.9912 98.6303 21.8349 96.6669 22.6786 94.6851C23.5956 92.5015 24.5126 90.3362 25.448 88.1526C26.6768 85.2533 27.9056 82.3724 29.1344 79.4732C29.3545 78.9594 29.7213 78.7208 30.2899 78.7208C31.2069 78.7208 32.1239 78.7392 33.0226 78.7208C33.6829 78.7025 34.1047 78.9777 34.3431 79.6016C35.1318 81.4916 35.9204 83.3633 36.7274 85.235C38.0479 88.3178 39.3684 91.4189 40.6889 94.5016C41.5509 96.5385 42.4129 98.5569 43.2749 100.594C43.495 101.126 43.3116 101.401 42.7431 101.401C42.1562 101.401 41.5876 101.401 41.0374 101.401ZM31.7204 92.6483C32.4907 92.5199 33.3344 92.4098 34.1781 92.2263C34.5816 92.1529 34.6549 91.9327 34.5082 91.5473C33.6462 89.4554 32.8025 87.3452 31.9222 85.2533C31.8672 85.1249 31.7204 85.0332 31.6287 84.9231C31.537 85.0332 31.3903 85.1249 31.3536 85.2533C30.51 87.2718 29.6846 89.3087 28.8593 91.3455C28.5842 92.0061 28.6576 92.1712 29.3545 92.2997C30.0881 92.4648 30.8584 92.5199 31.7204 92.6483Z" fill="#008D33"/>
<path d="M8.68475 78.7209C11.3808 78.7576 13.8751 79.4916 16.1127 81.033C16.6629 81.4184 16.7362 81.7487 16.3694 82.2991C15.8375 83.0698 15.3057 83.8405 14.7738 84.6112C14.462 85.0516 14.2236 85.1067 13.7284 84.8681C12.8114 84.4277 11.9127 83.9323 10.9773 83.5469C9.80352 83.0698 8.55637 82.8863 7.30922 83.1799C6.90572 83.2717 6.50223 83.4735 6.15376 83.7121C5.14504 84.4094 5.32844 86.1893 6.33717 86.7581C7.38258 87.3453 8.51969 87.6389 9.63846 87.9509C11.2524 88.3913 12.8847 88.8133 14.3886 89.6207C16.3511 90.685 17.4699 92.2631 17.5616 94.5385C17.6166 96.0248 17.3781 97.4377 16.5712 98.7039C15.6358 100.172 14.2603 101.071 12.628 101.53C9.62012 102.392 6.68564 102.044 3.80618 100.924C2.63239 100.465 1.56864 99.8416 0.559912 99.0892C-0.118687 98.5754 -0.173708 98.3002 0.358166 97.6396C0.926722 96.9239 1.51362 96.2266 2.10051 95.5294C2.44898 95.1073 2.81579 95.089 3.25596 95.4193C4.42976 96.3 5.69525 96.9973 7.12581 97.3643C8.37296 97.6763 9.63846 97.7864 10.904 97.4561C11.5275 97.2909 12.0961 97.0157 12.4262 96.4468C12.9031 95.6211 12.8847 94.3183 11.6743 93.7311C10.7756 93.309 9.82186 92.9604 8.84982 92.6851C7.25419 92.2264 5.62189 91.8594 4.09963 91.1438C2.74243 90.5015 1.62366 89.6207 1.0551 88.1711C-0.026985 85.3452 0.669954 81.7303 3.71448 79.9137C5.23674 79.0329 6.92406 78.7026 8.68475 78.7209Z" fill="#008D33"/>
</svg>
