<svg width="27" height="27" viewBox="0 0 27 27" fill="none" xmlns="http://www.w3.org/2000/svg">
<path d="M19.2176 15.7054L19.2078 15.7877C16.7939 14.5846 16.5414 14.4244 16.2297 14.892C16.0134 15.2158 15.3833 15.9502 15.1934 16.1675C15.0013 16.3816 14.8103 16.3981 14.4843 16.2499C14.155 16.0852 13.0979 15.7394 11.8465 14.6198C10.8717 13.7471 10.2175 12.6768 10.0243 12.3475C9.70267 11.7921 10.3756 11.713 10.9881 10.5539C11.0979 10.3233 11.0419 10.1422 10.9607 9.97865C10.8783 9.814 10.223 8.20036 9.94856 7.5571C9.68511 6.91604 9.41398 6.99727 9.2109 6.99727C8.57862 6.94238 8.11648 6.95117 7.70923 7.37488C5.93753 9.32222 6.38429 11.331 7.90023 13.4672C10.8794 17.3662 12.4667 18.0842 15.3691 19.0809C16.1528 19.3301 16.8674 19.2949 17.4328 19.2137C18.0628 19.1138 19.3724 18.4222 19.6457 17.6484C19.9257 16.8745 19.9257 16.2323 19.8433 16.0841C19.7621 15.9359 19.5469 15.8536 19.2176 15.7054Z" fill="#2C91C4"/>
<path d="M22.525 3.78648C14.0847 -4.37281 0.116357 1.54495 0.110869 13.0556C0.110869 15.3564 0.713512 17.6001 1.86172 19.5814L0 26.3455L6.954 24.5321C15.6314 29.2194 26.3407 22.9953 26.3451 13.0621C26.3451 9.57581 24.9839 6.29475 22.5086 3.82929L22.525 3.78648ZM24.1518 13.0259C24.1453 21.4047 14.9475 26.6375 7.673 22.3609L7.27783 22.1259L3.16141 23.1962L4.26461 19.1951L4.00225 18.7834C-0.524706 11.5769 4.67625 2.15857 13.2516 2.15857C16.1649 2.15857 18.8993 3.29471 20.9586 5.35291C23.0168 7.39356 24.1518 10.128 24.1518 13.0259Z" fill="#2C91C4"/>
</svg>
