<svg width="2067" height="3283" viewBox="0 0 2067 3283" fill="none" xmlns="http://www.w3.org/2000/svg">
<path d="M1719.58 48.3496H345.139C180.778 48.3496 47.5371 181.59 47.5371 345.951V2936.14C47.5371 3100.5 180.778 3233.74 345.139 3233.74H1719.58C1883.94 3233.74 2017.18 3100.5 2017.18 2936.14V345.951C2017.18 181.59 1883.94 48.3496 1719.58 48.3496Z" fill="#C0EAF9"/>
<path d="M2017.18 437.12H47.5371V2844.93H2017.18V437.12Z" fill="white"/>
<path d="M1720.4 0H345.951C254.237 0.102359 166.309 36.5783 101.453 101.426C36.5983 166.274 0.112614 254.199 0 345.912V2936.14C0.112614 3027.85 36.5983 3115.77 101.453 3180.62C166.309 3245.47 254.237 3281.95 345.951 3282.05H1720.4C1812.11 3281.95 1900.04 3245.47 1964.89 3180.62C2029.75 3115.77 2066.23 3027.85 2066.35 2936.14V345.912C2066.23 254.199 2029.75 166.274 1964.89 101.426C1900.04 36.5783 1812.11 0.102359 1720.4 0ZM1720.4 3185.39H345.951C279.874 3185.32 216.523 3159.04 169.796 3112.32C123.069 3065.6 96.7811 3002.25 96.6992 2936.18V485.469H1780.97C1793.79 485.469 1806.09 480.375 1815.16 471.307C1824.22 462.24 1829.32 449.942 1829.32 437.119C1829.32 424.296 1824.22 411.998 1815.16 402.931C1806.09 393.863 1793.79 388.77 1780.97 388.77H96.6992V345.912C96.7811 279.835 123.069 216.489 169.796 169.769C216.523 123.049 279.874 96.7709 345.951 96.6992H1720.4C1786.47 96.7709 1849.82 123.049 1896.55 169.769C1943.28 216.489 1969.57 279.835 1969.65 345.912V2796.58H446.518C433.695 2796.58 421.397 2801.67 412.33 2810.74C403.263 2819.81 398.169 2832.11 398.169 2844.93C398.169 2857.75 403.263 2870.05 412.33 2879.12C421.397 2888.18 433.695 2893.28 446.518 2893.28H1969.65V2936.14C1969.57 3002.21 1943.28 3065.56 1896.55 3112.28C1849.82 3159 1786.47 3185.28 1720.4 3185.35V3185.39Z" fill="#2F93C5"/>
<path d="M295.007 2796.58H278.916C266.093 2796.58 253.795 2801.68 244.728 2810.74C235.66 2819.81 230.566 2832.11 230.566 2844.93C230.566 2857.75 235.66 2870.05 244.728 2879.12C253.795 2888.19 266.093 2893.28 278.916 2893.28H295.007C307.83 2893.28 320.128 2888.19 329.195 2879.12C338.263 2870.05 343.356 2857.75 343.356 2844.93C343.356 2832.11 338.263 2819.81 329.195 2810.74C320.128 2801.68 307.83 2796.58 295.007 2796.58V2796.58Z" fill="#79D6E8"/>
<path d="M1033.17 2965.99C1018.19 2965.99 1003.55 2970.44 991.096 2978.76C978.642 2987.08 968.935 2998.91 963.202 3012.75C957.47 3026.59 955.971 3041.81 958.893 3056.5C961.815 3071.2 969.028 3084.69 979.62 3095.28C990.211 3105.87 1003.71 3113.09 1018.4 3116.01C1033.09 3118.93 1048.32 3117.43 1062.15 3111.7C1075.99 3105.97 1087.82 3096.26 1096.14 3083.8C1104.47 3071.35 1108.91 3056.71 1108.91 3041.73C1108.89 3021.65 1100.9 3002.4 1086.7 2988.2C1072.5 2974 1053.25 2966.01 1033.17 2965.99V2965.99Z" fill="#2F93C5"/>
<path d="M1318.43 185.702H747.908C735.085 185.702 722.787 190.796 713.72 199.863C704.653 208.931 699.559 221.229 699.559 234.052C699.559 246.875 704.653 259.173 713.72 268.24C722.787 277.307 735.085 282.401 747.908 282.401H1318.43C1331.26 282.401 1343.55 277.307 1352.62 268.24C1361.69 259.173 1366.78 246.875 1366.78 234.052C1366.78 221.229 1361.69 208.931 1352.62 199.863C1343.55 190.796 1331.26 185.702 1318.43 185.702Z" fill="#2F93C5"/>
<path d="M977.398 2300.44C983.233 2302.94 989.506 2304.28 995.857 2304.36C1002.21 2304.44 1008.51 2303.26 1014.41 2300.9C1020.31 2298.54 1025.68 2295.04 1030.22 2290.6C1034.76 2286.16 1038.38 2280.87 1040.87 2275.02L1427.28 1373.36C1432.33 1361.56 1432.48 1348.24 1427.71 1336.33C1422.94 1324.42 1413.63 1314.9 1401.83 1309.85C1390.03 1304.8 1376.71 1304.65 1364.8 1309.42C1352.89 1314.19 1343.37 1323.5 1338.32 1335.3L951.947 2236.96C949.449 2242.8 948.126 2249.07 948.054 2255.42C947.981 2261.77 949.161 2268.08 951.524 2273.97C953.888 2279.87 957.389 2285.24 961.828 2289.78C966.268 2294.32 971.558 2297.94 977.398 2300.44Z" fill="#2F93C5"/>
<path d="M1108.75 1301.92C1114.59 1304.43 1120.86 1305.77 1127.21 1305.85C1133.56 1305.94 1139.87 1304.77 1145.77 1302.41C1151.67 1300.05 1157.04 1296.56 1161.59 1292.12C1166.14 1287.68 1169.76 1282.39 1172.26 1276.55L1287.84 1006.91C1290.34 1001.07 1291.67 994.795 1291.74 988.441C1291.82 982.086 1290.64 975.78 1288.28 969.88C1285.92 963.981 1282.42 958.604 1277.98 954.058C1273.54 949.511 1268.25 945.883 1262.41 943.382C1256.56 940.88 1250.29 939.553 1243.93 939.478C1237.58 939.402 1231.27 940.578 1225.37 942.94C1219.47 945.301 1214.1 948.802 1209.55 953.241C1205 957.681 1201.38 962.972 1198.87 968.813L1083.45 1238.41C1078.39 1250.19 1078.21 1263.49 1082.95 1275.4C1087.7 1287.31 1096.97 1296.85 1108.75 1301.92Z" fill="#2F93C5"/>
<path d="M664.471 2338.65C670.306 2341.16 676.578 2342.5 682.93 2342.58C689.281 2342.66 695.585 2341.48 701.482 2339.12C707.378 2336.76 712.751 2333.26 717.292 2328.82C721.833 2324.38 725.453 2319.08 727.944 2313.24L1100.39 1444.19C1102.89 1438.34 1104.21 1432.07 1104.29 1425.71C1104.36 1419.36 1103.18 1413.06 1100.82 1407.16C1098.46 1401.26 1094.95 1395.89 1090.51 1391.34C1086.07 1386.8 1080.78 1383.17 1074.94 1380.67C1069.1 1378.17 1062.82 1376.85 1056.47 1376.78C1050.12 1376.7 1043.81 1377.88 1037.91 1380.25C1032.01 1382.61 1026.64 1386.11 1022.1 1390.55C1017.55 1394.99 1013.93 1400.28 1011.43 1406.12L639.058 2275.18C634.012 2286.97 633.854 2300.28 638.62 2312.18C643.386 2324.08 652.684 2333.61 664.471 2338.65V2338.65Z" fill="#2F93C5"/>
</svg>
