<svg width="1181" height="1555" viewBox="0 0 1181 1555" fill="none" xmlns="http://www.w3.org/2000/svg">
<path d="M671.402 26.518L974.702 202.818C903.202 161.218 804.202 167.118 695.102 230.118L391.702 53.918C501.002 -9.18204 599.902 -14.982 671.402 26.518Z" fill="#ACE7EE"/>
<path d="M492.402 1554.22L189.102 1377.92C190.602 1363.12 219.202 1081.62 83.9021 962.118C31.6021 915.618 0.302088 837.218 0.00208794 732.418C-0.697912 483.018 174.702 179.118 391.802 53.818L695.102 230.118C478.002 355.418 302.602 659.318 303.302 908.718C303.602 1013.52 334.902 1091.92 387.202 1138.42C522.502 1257.92 493.902 1539.52 492.402 1554.22Z" fill="#39B4D3"/>
<path d="M695.102 230.118C904.402 109.318 1075.9 198.518 1088.7 428.518C1097.4 479.518 1151.2 569.718 1177 612.018C1184.7 624.418 1179.2 648.718 1164.6 666.118C1141.3 694.118 1109.9 733.318 1101.8 750.018C1091.7 770.718 1062.8 940.718 1049.1 1024.32C1044.6 1051.22 1026 1079.42 1004.4 1091.82L892.702 1156.32C875.802 1166.02 862.202 1189.52 862.302 1209.02L862.702 1340.52L492.402 1554.22C493.902 1539.42 522.502 1257.92 387.202 1138.42C334.902 1091.92 303.602 1013.52 303.302 908.718C302.602 659.318 478.002 355.418 695.102 230.118Z" fill="#E0E0E0"/>
<path d="M733.502 837.218C733.602 859.618 715.602 888.218 693.402 901.018L693.602 977.118L627.202 1015.42C627.102 990.018 611.302 978.318 591.902 989.518C572.402 1000.82 556.802 1030.62 556.802 1056.12L490.402 1094.42L490.202 1018.32C467.902 1031.12 449.902 1023.42 449.802 1000.92L733.502 837.218Z" fill="#2D88B6"/>
<path d="M935.902 486.718C936.002 508.918 918.002 537.518 895.802 550.318L896.002 626.618L829.602 664.918C829.602 639.418 813.702 627.818 794.302 639.018C774.802 650.318 759.002 680.118 759.102 705.618L692.902 743.818L692.702 667.618C670.502 680.418 652.402 672.718 652.402 650.418L935.902 486.718Z" fill="#008BD3"/>
<path d="M692.902 743.818L693.102 820.018C715.402 807.218 733.402 814.818 733.502 837.218L449.902 1000.92C449.802 978.518 467.802 950.118 490.002 937.318L489.802 861.118L556.202 822.818C556.302 848.418 572.002 860.018 591.502 848.718C610.902 837.518 626.602 807.718 626.502 782.218L692.902 743.818Z" fill="#32A0CF"/>
<path d="M590.602 522.718L591.502 848.718C572.002 860.018 556.302 848.318 556.202 822.818L489.902 861.118L489.702 784.818C511.902 772.018 529.902 743.418 529.802 721.218C529.702 698.818 511.702 691.018 489.402 703.918L489.202 627.618L555.602 589.318C555.502 563.718 571.102 534.018 590.602 522.718Z" fill="#0F9DE6"/>
<path d="M590.603 522.718C610.003 511.518 625.803 523.118 625.903 548.618L692.302 510.318L692.503 586.618C670.202 599.518 652.103 628.118 652.203 650.518C652.403 672.718 670.503 680.418 692.703 667.618L692.903 743.818L626.503 782.118C626.603 807.618 610.803 837.418 591.503 848.618L590.603 522.718Z" fill="#10B8FF"/>
<path d="M855.502 673.818C875.002 662.518 890.902 674.118 891.002 699.718L957.202 661.518L957.402 737.818C935.302 750.518 917.202 779.218 917.302 801.418C917.402 823.818 935.602 831.518 957.702 818.718L957.902 894.918L891.702 933.118C891.802 958.718 876.102 988.418 856.502 999.718L855.502 673.818Z" fill="#0EB7FF"/>
<path d="M895.302 393.118L895.502 469.418C917.802 456.618 935.802 464.318 935.902 486.718L652.402 650.418C652.202 628.118 670.302 599.518 692.502 586.618L692.302 510.318L758.502 472.118C758.602 497.718 774.502 509.218 794.002 498.018C813.402 486.818 829.102 457.018 829.002 431.518L895.302 393.118Z" fill="#00A6EC"/>
<path d="M855.502 673.818L856.402 999.818C875.902 988.518 891.702 958.718 891.602 933.218L957.802 895.018L891.602 933.218C891.702 958.818 876.002 988.518 856.402 999.818C837.002 1011.02 821.202 999.418 821.102 973.918L754.802 1012.22L754.602 935.918C776.902 923.018 794.802 894.518 794.702 872.118C794.702 849.818 776.602 842.018 754.402 854.918L754.202 778.718L820.602 740.418C820.402 714.818 836.102 685.018 855.502 673.818Z" fill="#0EABFB"/>
<path d="M1177 612.118C1184.7 624.518 1179.2 648.818 1164.6 666.218C1141.1 694.318 1109.7 733.418 1101.7 750.118C1091.7 770.718 1062.9 940.818 1049 1024.42C1044.7 1051.22 1026 1079.42 1004.5 1091.92L892.702 1156.42C875.902 1166.12 862.202 1189.62 862.302 1209.12L862.602 1340.62L492.502 1554.32C494.002 1539.52 522.502 1258.12 387.302 1138.52C335.002 1092.02 303.702 1013.62 303.402 908.818C302.602 659.318 478.002 355.418 695.102 230.118C904.402 109.318 1075.9 198.618 1088.5 428.618C1097.3 479.518 1151.1 569.718 1177 612.118ZM693.402 901.018C715.702 888.218 733.602 859.618 733.502 837.218C733.402 814.818 715.402 807.218 693.102 820.018L692.902 743.818L759.102 705.618C759.002 680.018 774.802 650.218 794.302 639.018C813.702 627.818 829.602 639.418 829.602 664.918L896.002 626.618L895.802 550.318C918.002 537.518 936.002 508.918 935.902 486.718C935.902 464.318 917.802 456.518 895.502 469.418L895.302 393.118L828.902 431.418C829.002 456.918 813.302 486.718 793.902 497.918C774.402 509.218 758.502 497.618 758.402 472.018L692.202 510.218L625.802 548.518C625.702 522.918 609.902 511.418 590.502 522.618C571.002 533.918 555.402 563.618 555.402 589.218L489.202 627.618L489.402 703.918C511.702 691.118 529.702 698.818 529.802 721.218C529.902 743.418 511.902 772.018 489.702 784.818L489.902 861.118L490.102 937.318C467.802 950.118 449.902 978.518 450.002 1000.92C450.102 1023.32 468.102 1031.12 490.402 1018.32L490.602 1094.42L557.002 1056.12C556.902 1030.72 572.502 1000.82 592.102 989.518C611.502 978.318 627.302 990.018 627.402 1015.42L693.802 977.118L693.402 901.018ZM957.402 737.718L957.202 661.418L891.002 699.618C890.902 674.018 875.102 662.518 855.502 673.718C836.102 684.918 820.402 714.718 820.502 740.318L754.102 778.618L754.302 854.818C776.602 841.918 794.602 849.718 794.602 872.018C794.702 894.418 776.702 922.918 754.502 935.818L754.702 1012.12L821.002 973.818C821.102 999.318 836.902 1010.92 856.302 999.718C875.802 988.418 891.602 958.618 891.502 933.118L957.702 894.918L957.502 818.718C935.402 831.518 917.202 823.818 917.102 801.418C917.202 779.118 935.302 750.518 957.402 737.718Z" fill="#7BD9EC"/>
</svg>
