<svg width="857" height="724" viewBox="0 0 857 724" fill="none" xmlns="http://www.w3.org/2000/svg">
<g clip-path="url(#clip0)">
<path d="M816.8 593.32C827.337 593.32 835.88 584.778 835.88 574.24C835.88 563.703 827.337 555.16 816.8 555.16C806.262 555.16 797.72 563.703 797.72 574.24C797.72 584.778 806.262 593.32 816.8 593.32Z" fill="#00ABF8"/>
<path d="M134.18 53.8602C144.717 53.8602 153.26 45.3178 153.26 34.7802C153.26 24.2426 144.717 15.7002 134.18 15.7002C123.642 15.7002 115.1 24.2426 115.1 34.7802C115.1 45.3178 123.642 53.8602 134.18 53.8602Z" fill="#00ABF8"/>
<path d="M699 144.88C699 130.365 693.233 116.444 682.969 106.18C672.706 95.9166 658.785 90.1504 644.27 90.1504H257.91C243.394 90.1504 229.473 95.9166 219.21 106.18C208.946 116.444 203.18 130.365 203.18 144.88V144.88C203.18 159.396 208.946 173.316 219.21 183.58C229.473 193.844 243.394 199.61 257.91 199.61H265.29C279.801 199.616 293.717 205.384 303.977 215.647C314.236 225.911 320 239.829 320 254.34V254.34C320.001 261.528 318.586 268.646 315.836 275.288C313.086 281.929 309.055 287.964 303.973 293.047C298.891 298.13 292.857 302.162 286.216 304.913C279.575 307.664 272.458 309.08 265.27 309.08H127C112.484 309.08 98.5634 314.847 88.2996 325.11C78.0357 335.374 72.2695 349.295 72.2695 363.81V363.81C72.2695 378.326 78.0357 392.246 88.2996 402.51C98.5634 412.774 112.484 418.54 127 418.54H217.08C224.267 418.54 231.384 419.956 238.024 422.706C244.664 425.457 250.697 429.488 255.779 434.57C260.862 439.653 264.893 445.686 267.643 452.326C270.394 458.966 271.81 466.083 271.81 473.27C271.81 480.459 270.393 487.578 267.642 494.219C264.89 500.861 260.857 506.895 255.772 511.977C250.688 517.06 244.652 521.091 238.01 523.84C231.367 526.589 224.248 528.003 217.06 528H157C142.484 528 128.563 533.767 118.3 544.03C108.036 554.294 102.27 568.215 102.27 582.73V582.73C102.268 589.918 103.683 597.036 106.433 603.678C109.183 610.319 113.214 616.354 118.296 621.437C123.378 626.52 129.412 630.552 136.053 633.303C142.694 636.054 149.811 637.47 157 637.47H609.909C617.098 637.472 624.216 636.057 630.857 633.307C637.498 630.557 643.533 626.526 648.616 621.444C653.699 616.362 657.731 610.328 660.482 603.687C663.234 597.046 664.65 589.928 664.65 582.74V582.74C664.651 575.551 663.236 568.433 660.485 561.791C657.735 555.149 653.703 549.114 648.619 544.03C643.536 538.947 637.501 534.915 630.859 532.165C624.217 529.414 617.098 527.999 609.909 528H597.099C589.911 528 582.794 526.584 576.153 523.833C569.512 521.082 563.478 517.05 558.396 511.967C553.314 506.884 549.283 500.849 546.533 494.208C543.783 487.566 542.368 480.448 542.37 473.26V473.26C542.37 458.745 548.136 444.824 558.4 434.56C568.663 424.297 582.584 418.53 597.099 418.53H734.4C741.588 418.532 748.706 417.117 755.347 414.367C761.988 411.617 768.023 407.586 773.106 402.504C778.189 397.422 782.221 391.388 784.972 384.747C787.724 378.106 789.14 370.988 789.14 363.8V363.8C789.14 356.612 787.724 349.495 784.972 342.854C782.221 336.213 778.189 330.179 773.106 325.097C768.023 320.015 761.988 315.983 755.347 313.234C748.706 310.484 741.588 309.069 734.4 309.07H645.33C638.141 309.07 631.024 307.654 624.383 304.903C617.742 302.152 611.708 298.12 606.626 293.037C601.544 287.954 597.513 281.919 594.763 275.278C592.013 268.636 590.598 261.518 590.599 254.33V253.26C590.599 239.029 596.253 225.38 606.316 215.317C616.379 205.254 630.028 199.6 644.26 199.6V199.6C651.447 199.602 658.564 198.187 665.205 195.438C671.845 192.689 677.879 188.659 682.962 183.577C688.045 178.496 692.078 172.464 694.83 165.824C697.581 159.184 698.998 152.068 699 144.88V144.88Z" fill="#E5F5FF"/>
<path d="M440.35 55.8C455.759 55.8 468.25 43.3087 468.25 27.9C468.25 12.4913 455.759 0 440.35 0C424.941 0 412.45 12.4913 412.45 27.9C412.45 43.3087 424.941 55.8 440.35 55.8Z" fill="#E5F5FF"/>
<path d="M651.77 0H529.42C514.011 0 501.52 12.4913 501.52 27.9V27.91C501.52 43.3187 514.011 55.81 529.42 55.81H651.77C667.178 55.81 679.67 43.3187 679.67 27.91V27.9C679.67 12.4913 667.178 0 651.77 0Z" fill="#E5F5FF"/>
<path d="M769.83 668.03H481.2C465.791 668.03 453.3 680.521 453.3 695.93V695.94C453.3 711.349 465.791 723.84 481.2 723.84H769.83C785.239 723.84 797.73 711.349 797.73 695.94V695.93C797.73 680.521 785.239 668.03 769.83 668.03Z" fill="#E5F5FF"/>
<path d="M402.79 668.03H274.07C258.661 668.03 246.17 680.521 246.17 695.93V695.94C246.17 711.349 258.661 723.84 274.07 723.84H402.79C418.199 723.84 430.69 711.349 430.69 695.94V695.93C430.69 680.521 418.199 668.03 402.79 668.03Z" fill="#E5F5FF"/>
<path d="M325.37 62.4703C319.891 62.4703 314.535 60.8455 309.98 57.8013C305.424 54.7572 301.874 50.4304 299.778 45.3683C297.681 40.3062 297.133 34.7362 298.203 29.3626C299.273 23.9891 301.912 19.0534 305.787 15.1799C309.662 11.3064 314.598 8.66904 319.972 7.60135C325.346 6.53367 330.916 7.08365 335.977 9.18173C341.039 11.2798 345.364 14.8317 348.406 19.3883C351.449 23.9449 353.072 29.3014 353.07 34.7803C353.062 42.1235 350.141 49.1634 344.947 54.3549C339.754 59.5463 332.713 62.465 325.37 62.4703ZM325.37 18.0203C322.055 18.0203 318.815 19.0033 316.059 20.8449C313.302 22.6865 311.154 25.3041 309.886 28.3666C308.617 31.429 308.285 34.7989 308.932 38.05C309.579 41.3012 311.175 44.2875 313.519 46.6314C315.863 48.9754 318.849 50.5716 322.1 51.2183C325.351 51.865 328.721 51.5331 331.784 50.2645C334.846 48.996 337.464 46.8479 339.305 44.0917C341.147 41.3355 342.13 38.0951 342.13 34.7803C342.131 32.5781 341.699 30.3971 340.857 28.362C340.016 26.3268 338.781 24.4774 337.225 22.9192C335.669 21.361 333.821 20.1247 331.787 19.2807C329.753 18.4367 327.572 18.0016 325.37 18.0003V18.0203Z" fill="#00ABF8"/>
<path d="M46.6299 444.16C40.1031 444.16 33.7229 442.225 28.2961 438.599C22.8693 434.973 18.6396 429.819 16.1419 423.789C13.6442 417.759 12.9907 411.124 14.264 404.722C15.5373 398.321 18.6802 392.441 23.2954 387.826C27.9105 383.211 33.7905 380.068 40.1919 378.794C46.5933 377.521 53.2285 378.174 59.2584 380.672C65.2884 383.17 70.4423 387.4 74.0684 392.826C77.6945 398.253 79.6299 404.633 79.6299 411.16C79.614 419.907 76.1322 428.292 69.9469 434.477C63.7616 440.662 55.3772 444.144 46.6299 444.16V444.16ZM46.6299 389.06C42.2629 389.06 37.9939 390.355 34.3629 392.781C30.7319 395.208 27.9018 398.656 26.2306 402.691C24.5595 406.725 24.1222 411.165 24.9742 415.448C25.8261 419.731 27.929 423.665 31.017 426.753C34.1049 429.841 38.0392 431.944 42.3223 432.796C46.6054 433.648 51.045 433.211 55.0795 431.539C59.1141 429.868 62.5626 427.038 64.9887 423.407C67.4149 419.776 68.7099 415.507 68.7099 411.14C68.7046 405.286 66.3766 399.673 62.237 395.533C58.0973 391.393 52.4843 389.065 46.6299 389.06V389.06Z" fill="#00ABF8"/>
<path d="M670.42 124.34C669.142 124.34 667.904 123.892 666.921 123.074C665.939 122.255 665.274 121.119 665.042 119.862C664.811 118.604 665.027 117.306 665.653 116.191C666.279 115.077 667.276 114.216 668.47 113.76L695.1 103.61L669.39 98.7103C668.236 98.4894 667.183 97.9023 666.388 97.0362C665.593 96.1701 665.099 95.071 664.977 93.9017C664.856 92.7324 665.115 91.5552 665.715 90.5445C666.316 89.5338 667.225 88.7433 668.31 88.2903L706.61 72.2903C707.95 71.732 709.456 71.7287 710.798 72.2809C712.139 72.8332 713.207 73.8959 713.765 75.2353C714.324 76.5746 714.327 78.0809 713.775 79.4227C713.222 80.7645 712.16 81.832 710.82 82.3903L689.36 91.3403L716.12 96.4303C717.321 96.6296 718.422 97.224 719.247 98.1192C720.072 99.0144 720.575 100.159 720.676 101.373C720.777 102.586 720.47 103.798 719.804 104.818C719.139 105.837 718.152 106.605 717 107L672.32 124C671.713 124.229 671.069 124.344 670.42 124.34V124.34Z" fill="#00ABF8"/>
<path d="M694.55 635.68H179.93C178.493 635.679 177.071 635.394 175.744 634.843C174.417 634.292 173.212 633.485 172.197 632.469C171.182 631.452 170.378 630.245 169.829 628.917C169.28 627.589 168.999 626.167 169 624.73V193.61C169 190.708 170.153 187.926 172.204 185.874C174.256 183.823 177.039 182.67 179.94 182.67H694.55C695.987 182.67 697.409 182.953 698.737 183.503C700.064 184.052 701.27 184.858 702.286 185.874C703.302 186.89 704.107 188.096 704.657 189.423C705.207 190.751 705.49 192.173 705.49 193.61V624.73C705.491 626.167 705.209 627.591 704.66 628.92C704.111 630.248 703.305 631.455 702.289 632.472C701.273 633.489 700.067 634.296 698.739 634.846C697.411 635.397 695.987 635.68 694.55 635.68V635.68ZM190.87 613.79H683.6V204.56H190.87V613.79Z" fill="#00ABF8"/>
<path d="M437.24 317.86C434.338 317.86 431.556 316.707 429.504 314.656C427.452 312.604 426.3 309.821 426.3 306.92V231.19C426.3 228.289 427.452 225.506 429.504 223.454C431.556 221.403 434.338 220.25 437.24 220.25C440.141 220.25 442.924 221.403 444.976 223.454C447.027 225.506 448.18 228.289 448.18 231.19V306.92C448.18 309.821 447.027 312.604 444.976 314.656C442.924 316.707 440.141 317.86 437.24 317.86Z" fill="#00ABF8"/>
<path d="M437.24 598.1C434.338 598.1 431.556 596.948 429.504 594.896C427.452 592.845 426.3 590.062 426.3 587.16V511.42C426.3 508.519 427.452 505.736 429.504 503.685C431.556 501.633 434.338 500.48 437.24 500.48C440.141 500.48 442.924 501.633 444.976 503.685C447.027 505.736 448.18 508.519 448.18 511.42V587.16C448.18 590.062 447.027 592.845 444.976 594.896C442.924 596.948 440.141 598.1 437.24 598.1V598.1Z" fill="#00ABF8"/>
<path d="M304.66 317.86C303.219 317.868 301.79 317.591 300.455 317.045C299.121 316.498 297.908 315.694 296.886 314.677C295.863 313.66 295.052 312.452 294.499 311.12C293.945 309.789 293.66 308.362 293.66 306.92V231.19C293.616 229.725 293.866 228.266 294.396 226.899C294.927 225.533 295.726 224.286 296.746 223.234C297.767 222.182 298.989 221.346 300.339 220.775C301.689 220.203 303.139 219.909 304.605 219.909C306.071 219.909 307.522 220.203 308.872 220.775C310.222 221.346 311.443 222.182 312.464 223.234C313.485 224.286 314.284 225.533 314.814 226.899C315.344 228.266 315.595 229.725 315.55 231.19V306.92C315.55 309.813 314.405 312.588 312.364 314.638C310.323 316.688 307.553 317.847 304.66 317.86Z" fill="#00ABF8"/>
<path d="M304.66 598.1C303.218 598.108 301.789 597.831 300.455 597.284C299.121 596.738 297.908 595.934 296.886 594.917C295.863 593.9 295.052 592.692 294.499 591.36C293.945 590.029 293.66 588.602 293.66 587.16V511.42C293.746 508.574 294.937 505.874 296.98 503.892C299.023 501.909 301.758 500.801 304.605 500.801C307.452 500.801 310.187 501.909 312.23 503.892C314.273 505.874 315.464 508.574 315.55 511.42V587.16C315.55 590.053 314.404 592.828 312.364 594.878C310.323 596.928 307.553 598.087 304.66 598.1Z" fill="#00ABF8"/>
<path d="M563 317.86C561.558 317.868 560.129 317.591 558.795 317.045C557.461 316.498 556.248 315.694 555.226 314.677C554.203 313.66 553.392 312.452 552.839 311.12C552.285 309.789 552 308.362 552 306.92V231.19C551.956 229.725 552.206 228.266 552.736 226.899C553.266 225.533 554.065 224.286 555.086 223.234C556.107 222.182 557.328 221.346 558.678 220.775C560.028 220.203 561.479 219.909 562.945 219.909C564.411 219.909 565.862 220.203 567.212 220.775C568.562 221.346 569.783 222.182 570.804 223.234C571.825 224.286 572.624 225.533 573.154 226.899C573.684 228.266 573.934 229.725 573.89 231.19V306.92C573.89 309.813 572.744 312.588 570.704 314.638C568.663 316.688 565.893 317.847 563 317.86V317.86Z" fill="#00ABF8"/>
<path d="M563 598.1C561.558 598.108 560.129 597.831 558.795 597.284C557.461 596.738 556.248 595.934 555.225 594.917C554.203 593.9 553.392 592.692 552.838 591.36C552.285 590.029 552 588.602 552 587.16V511.42C552.086 508.574 553.277 505.874 555.32 503.892C557.363 501.909 560.098 500.801 562.945 500.801C565.792 500.801 568.527 501.909 570.57 503.892C572.613 505.874 573.804 508.574 573.89 511.42V587.16C573.89 590.053 572.744 592.828 570.703 594.878C568.663 596.928 565.893 598.087 563 598.1Z" fill="#00ABF8"/>
<path d="M613.17 420.12H512.8C509.954 420.034 507.254 418.844 505.272 416.8C503.289 414.757 502.181 412.022 502.181 409.175C502.181 406.329 503.289 403.594 505.272 401.551C507.254 399.507 509.954 398.316 512.8 398.23H613.17C616.015 398.316 618.715 399.507 620.698 401.551C622.68 403.594 623.789 406.329 623.789 409.175C623.789 412.022 622.68 414.757 620.698 416.8C618.715 418.844 616.015 420.034 613.17 420.12Z" fill="#00ABF8"/>
<path d="M352.37 420.12H252C250.534 420.164 249.075 419.914 247.709 419.383C246.342 418.853 245.096 418.054 244.044 417.034C242.992 416.013 242.155 414.791 241.584 413.441C241.013 412.091 240.719 410.64 240.719 409.175C240.719 407.709 241.013 406.258 241.584 404.908C242.155 403.558 242.992 402.336 244.044 401.316C245.096 400.295 246.342 399.496 247.709 398.966C249.075 398.436 250.534 398.185 252 398.23H352.37C355.215 398.316 357.915 399.506 359.898 401.55C361.88 403.593 362.989 406.328 362.989 409.175C362.989 412.021 361.88 414.756 359.898 416.8C357.915 418.843 355.215 420.034 352.37 420.12Z" fill="#00ABF8"/>
<path d="M225.11 127.89C237.702 127.89 247.91 117.682 247.91 105.09C247.91 92.4979 237.702 82.29 225.11 82.29C212.517 82.29 202.31 92.4979 202.31 105.09C202.31 117.682 212.517 127.89 225.11 127.89Z" fill="#00ABF8"/>
<path d="M115.1 567.79C125.637 567.79 134.18 559.247 134.18 548.71C134.18 538.172 125.637 529.63 115.1 529.63C104.562 529.63 96.0195 538.172 96.0195 548.71C96.0195 559.247 104.562 567.79 115.1 567.79Z" fill="#00ABF8"/>
<path d="M19.08 687.11C29.6176 687.11 38.16 678.568 38.16 668.03C38.16 657.493 29.6176 648.95 19.08 648.95C8.54241 648.95 0 657.493 0 668.03C0 678.568 8.54241 687.11 19.08 687.11Z" fill="#00ABF8"/>
<path d="M837.21 248.29C847.747 248.29 856.29 239.747 856.29 229.21C856.29 218.672 847.747 210.13 837.21 210.13C826.672 210.13 818.13 218.672 818.13 229.21C818.13 239.747 826.672 248.29 837.21 248.29Z" fill="#00ABF8"/>
</g>
<defs>
<clipPath id="clip0">
<rect width="856.29" height="723.83" fill="white"/>
</clipPath>
</defs>
</svg>
