<svg width="1455" height="841" viewBox="0 0 1455 841" fill="none" xmlns="http://www.w3.org/2000/svg">
<path d="M1564 -392C1319 244.487 268.5 114.243 -32.9995 -16.0009C-32.9995 -16.0009 -18.9996 424.244 -18.9995 606.932C900.5 1107.87 1350.94 675.377 1525.5 500.261C1525.5 378.627 1564 -392 1564 -392Z" fill="#DCF1FF" fill-opacity="0.34"/>
</svg>
