<svg width="1455" height="751" viewBox="0 0 1455 751" fill="none" xmlns="http://www.w3.org/2000/svg">
<path d="M1564 -482C1320.38 154.487 275.8 24.2431 -24 -106.001C-24 -106.001 -10.079 334.244 -10.0789 516.932C904.239 1017.87 1352.14 585.377 1525.72 410.261C1525.72 288.627 1564 -482 1564 -482Z" fill="#DCF1FF" fill-opacity="0.34"/>
</svg>
