<svg width="114" height="84" viewBox="0 0 114 84" fill="none" xmlns="http://www.w3.org/2000/svg">
<g filter="url(#filter0_d)">
<path d="M86.2729 25.0942H57.0003L27.7259 25.094L14.217 18.3381L24.5579 51.9667C34.5997 55.6567 46.5971 57.5962 57.0003 57.5962C67.4042 57.5962 79.4016 55.6565 89.4427 51.9665L99.7836 18.3379L86.2729 25.0942Z" fill="#EBF8FF"/>
<path d="M99.7835 18.3381L86.2729 25.0944H57.0002V57.5962C67.4041 57.5962 79.4015 55.6565 89.4426 51.9665L99.7835 18.3381Z" fill="#CCE6FF"/>
<path d="M22.7 10.6776C17.6102 12.1606 14 14.2557 14 17.2837C14 17.6571 14.1129 17.992 14.217 18.3384C15.2178 21.661 20.814 23.7694 27.7258 25.0943L22.7 10.6776Z" fill="#CCE6FF"/>
<path d="M91.2596 10.6656L86.2727 25.0942C93.1852 23.7692 98.7826 21.6609 99.7834 18.3379C99.8877 17.9916 100 17.6566 100 17.2832C100.001 14.2475 96.3707 12.1489 91.2596 10.6656Z" fill="#B8C7E6"/>
<path d="M59.5198 39.9595V34.9204H57.0003H54.4807V39.9595H49.4417V44.9986H54.4807V50.0377H57.0003H59.5198V44.9986H64.5589V39.9595H59.5198Z" fill="#FF6C6C"/>
<path d="M59.5198 44.9986H64.5589V39.9595H59.5198V34.9204H57.0002V50.0377H59.5198V44.9986Z" fill="#E63950"/>
<path d="M75.9297 6.10801C74.6036 3.67698 72.0619 2.16626 69.2939 2.16626H57.0005H44.7072C41.9392 2.16626 39.3975 3.67698 38.0712 6.10801L27.7261 25.0941C38.6021 27.1788 52.7974 27.3617 57.0005 27.3617C61.2033 27.3617 75.3974 27.1788 86.2731 25.0943L75.9297 6.10801Z" fill="#CCE6FF"/>
<path d="M75.9294 6.10801C74.6033 3.67698 72.0616 2.16626 69.2936 2.16626H57.0002V27.3617C61.203 27.3617 75.3971 27.1788 86.2729 25.0943L75.9294 6.10801Z" fill="#B8C7E6"/>
</g>
<defs>
<filter id="filter0_d" x="0" y="0.16626" width="114" height="83.43" filterUnits="userSpaceOnUse" color-interpolation-filters="sRGB">
<feFlood flood-opacity="0" result="BackgroundImageFix"/>
<feColorMatrix in="SourceAlpha" type="matrix" values="0 0 0 0 0 0 0 0 0 0 0 0 0 0 0 0 0 0 127 0"/>
<feOffset dy="12"/>
<feGaussianBlur stdDeviation="7"/>
<feColorMatrix type="matrix" values="0 0 0 0 0 0 0 0 0 0 0 0 0 0 0 0 0 0 0.06 0"/>
<feBlend mode="normal" in2="BackgroundImageFix" result="effect1_dropShadow"/>
<feBlend mode="normal" in="SourceGraphic" in2="effect1_dropShadow" result="shape"/>
</filter>
</defs>
</svg>
