<?xml version="1.0" encoding="utf-8"?>
<!-- Generator: Adobe Illustrator 24.2.0, SVG Export Plug-In . SVG Version: 6.00 Build 0)  -->
<svg version="1.1" id="Capa_1" xmlns="http://www.w3.org/2000/svg" xmlns:xlink="http://www.w3.org/1999/xlink" x="0px" y="0px"
	 viewBox="0 0 1200 1200" style="enable-background:new 0 0 1200 1200;" xml:space="preserve">
<style type="text/css">
	.st0{fill:#E4F5FF;}
	.st1{fill:#0981D8;}
	.st2{fill:#03ABF2;}
</style>
<g>
	<path class="st0" d="M952.78,526.71c0,0-134.29-0.38-135.05-0.38c-37.93,0-68.67-30.74-68.67-68.67S779.8,389,817.73,389
		c2.1,0,4.17,0.1,6.22,0.28c5.24,0.48,10.54,0.11,15.66-1.1c32.07-7.55,55.95-36.34,55.95-70.72c0-40.14-32.54-72.68-72.68-72.68
		c-0.19,0-490.81,0-491,0c-40.14,0-72.68,32.54-72.68,72.68s32.54,72.68,72.68,72.68c0.19,0,29.19,0,29.19,0v0.01
		c37.35,0.31,67.53,30.67,67.53,68.08s-30.18,67.78-67.53,68.08v0.01H159.63v0.01c-39.87,0.31-72.1,32.72-72.1,72.66
		c0,39.95,32.23,72.35,72.1,72.66v0.01h112.16v0.03c36.13,0.61,65.24,30.07,65.24,66.35c0,36.28-29.11,65.74-65.24,66.35
		l-85.84,1.38c-37.73,2.75-67.53,35.41-67.53,75.33c0,39.92,29.79,72.58,67.53,75.33l595.15,0.16
		c39.34-0.95,70.96-34.37,70.96-75.49c0-41.12-31.62-74.54-70.96-75.49v-0.05c0,0-48.38,1.14-51.5,1.14
		c-37.29,0-67.53-30.23-67.53-67.53c0-37.29,30.23-67.53,67.53-67.53c0.38,0,0.76,0.02,1.14,0.03v-0.03l222.04-0.38
		c36.64-3.73,65.24-34.67,65.24-72.3S989.42,530.44,952.78,526.71z"/>
	<circle class="st0" cx="553.34" cy="165.81" r="35.48"/>
	<path class="st0" d="M832.61,130.33H679.24c-19.6,0-35.48,15.88-35.48,35.48s15.88,35.48,35.48,35.48h153.37
		c19.6,0,35.48-15.88,35.48-35.48S852.2,130.33,832.61,130.33z"/>
	<path class="st0" d="M509.24,999.03H343.36c-21.2,0-38.38,15.88-38.38,35.48c0,19.6,17.18,35.48,38.38,35.48h165.89
		c21.2,0,38.38-15.89,38.38-35.48C547.62,1014.91,530.44,999.03,509.24,999.03z"/>
	<path class="st0" d="M988.26,999.03H603.7v0.17c-17.98,1.73-32.05,16.88-32.05,35.31c0,18.44,14.06,33.58,32.05,35.31v0.17h384.56
		c19.6,0,35.48-15.89,35.48-35.48C1023.74,1014.91,1007.86,999.03,988.26,999.03z"/>
	<path class="st1" d="M700.07,342.46c-2.58,0-5.05-1.5-6.15-4.02c-1.48-3.39,0.06-7.35,3.46-8.83l34.13-14.93l-29.41-5.88
		c-2.82-0.56-4.97-2.87-5.34-5.73s1.13-5.63,3.73-6.88l55.33-26.83c3.34-1.62,7.34-0.22,8.96,3.11c1.62,3.33,0.22,7.34-3.11,8.96
		l-37.39,18.13l30.75,6.15c2.87,0.57,5.04,2.95,5.35,5.86c0.31,2.91-1.3,5.69-3.98,6.86l-53.66,23.48
		C701.88,342.28,700.96,342.46,700.07,342.46z"/>
	<circle class="st1" cx="338.17" cy="250.56" r="16.02"/>
	<circle class="st1" cx="118.64" cy="912.74" r="16.02"/>
	<circle class="st1" cx="956.21" cy="537.78" r="16.02"/>
	<circle class="st1" cx="868.21" cy="671.78" r="16.02"/>
	<circle class="st1" cx="841.68" cy="902.6" r="29.19"/>
	<circle class="st1" cx="956.41" cy="305.86" r="29.19"/>
	<g>
		<path class="st1" d="M485.95,246.81c-13.81,0-25.05-11.24-25.05-25.05c0-13.81,11.24-25.05,25.05-25.05
			c13.81,0,25.05,11.24,25.05,25.05C511,235.57,499.76,246.81,485.95,246.81z M485.95,203.45c-10.1,0-18.32,8.22-18.32,18.32
			s8.22,18.32,18.32,18.32c10.1,0,18.32-8.22,18.32-18.32S496.05,203.45,485.95,203.45z"/>
	</g>
	<g>
		<path class="st1" d="M216.28,719.86c-26.24,0-47.6-21.35-47.6-47.6s21.35-47.6,47.6-47.6s47.6,21.35,47.6,47.6
			S242.53,719.86,216.28,719.86z M216.28,637.46c-19.19,0-34.81,15.62-34.81,34.81s15.62,34.81,34.81,34.81s34.81-15.62,34.81-34.81
			S235.48,637.46,216.28,637.46z"/>
	</g>
	<circle class="st1" cx="216.85" cy="343.22" r="21.75"/>
	<g>
		<path class="st2" d="M887.54,793.12c-1.82-3.59-4.74-5.94-8.62-5.98c-3.6-0.04-4.67-1.58-4.71-4.69
			c-0.01-0.43-0.14-0.85-0.22-1.28c-3.85-21.31-12.62-40.09-28.45-55.21c-12.95-12.37-28.46-20.2-45.46-25.26
			c-1.95-0.58-2.69-1.32-2.78-3.46c-0.23-5.52-1.08-10.97-3.25-16.12c-3.16-7.49-8.7-11.03-17.05-10.98
			c-8.32,0.04-14.27,3.9-17.34,11.21c-2.14,5.09-2.68,10.45-2.56,15.88c0.04,1.7-0.38,2.47-2.1,2.93c-3.12,0.85-6.17,1.97-9.2,3.11
			c-23.8,8.97-42.79,23.63-54.9,46.45c-5.52,10.4-8.46,21.66-11.41,32.94c-0.38,1.45,0.12,4.31-2.14,3.99
			c-2.47-0.35-1.17-3.04-1.14-4.63c0.19-12.74,1.12-25.5-0.85-38.18c-3.06-19.69-11.45-36.54-26.51-49.87
			c-6.89-6.1-14.49-10.37-23.96-10.96c-5.49-0.34-10.91-1.54-16.39-2.05c-11.17-1.05-21.09-6.09-31.43-9.74
			c-3.33-1.18-6.35-1.47-9.74-0.71c-7.41,1.66-14.36,4.69-21.56,6.97c-3.79,1.2-4.78,0.52-4.84-3.34
			c-0.09-5.95-0.14-11.9-0.16-17.84c-0.02-7.04,4.4-11.47,11.42-11.47c32.56,0,65.12,0.04,97.68-0.01
			c19.83-0.03,35.32-15.66,35.32-35.47c0-32.23,0.01-64.47-0.01-96.7c0-5.3-0.18-10.58-0.6-15.87
			c-2.68-33.64-12.34-65.05-30.06-93.83c-26.17-42.5-63.41-69.14-112.81-78.15c-23.07-4.21-46.23-4.29-69.39-1.07
			c-18.29,2.55-35.87,7.68-52.57,15.67c-4.72,2.26-6.3,5.47-4.49,9.16c1.74,3.53,5.15,4.25,9.71,2.23
			c4.64-2.05,9.27-4.17,14.04-5.87c32.71-11.66,66.24-13.72,100.28-7.76c36.55,6.4,66.94,23.81,90.5,52.57
			c27.64,33.74,41.38,72.96,42.68,116.19c1.05,35.02,0.32,70.09,0.26,105.13c-0.02,10.09-8.63,19.35-18.88,20.88
			c-5.92,0.89-11.88,0.43-17.81,0.45c-19.9,0.07-39.81,0.03-59.71,0.01c-0.99,0-2.32,0.49-2.82-0.88c-0.32-0.88,0.61-1.27,1.15-1.75
			c14.76-13.11,27.55-27.73,35.5-46.1c1.46-3.37,3.33-6.56,4.68-9.97c1.33-3.39,3.01-5.56,7.13-4.45c1.41,0.38,3.01,0.1,4.53,0.05
			c11.9-0.4,21.94-4.49,27.68-15.5c9.48-18.18,11.45-37.33,4.71-56.76c-4.56-13.13-13.44-22.07-28.24-23.26
			c-3.23-0.26-6.49-0.49-9.71-0.3c-2.31,0.14-3.47-0.6-4.49-2.63c-3.88-7.72-7.61-15.51-12.18-22.88
			c-4.93-7.94-12.21-11.14-21.16-10.5c-11.2,0.81-22.37,2.14-33.56,3.14c-20.99,1.87-41.97,3.46-63.09,2.7
			c-21.08-0.76-42.05-2.56-62.94-5.34c-14.96-1.99-24.3,2.66-31.49,16.04c-2.92,5.43-5.22,11.16-7.33,16.93
			c-1.04,2.83-2.41,3.49-5.3,2.92c-18.25-3.59-32.33,8.64-37.09,21.07c-2.86,7.46-4.34,15.17-4.4,23.1
			c-0.11,13.31,2.32,26.09,9.82,37.36c7.4,11.13,18.43,17.49,32.49,13.71c2.95-0.79,4.42,0.19,5.46,3.19
			c8.01,23.13,21.21,42.65,40.68,57.74c0.69,0.53,2.05,0.95,1.51,2.14c-0.47,1.04-1.74,0.57-2.65,0.57
			c-10.71-0.02-21.41-0.08-32.12-0.13c-16.01-0.07-32.02-0.11-48.02-0.2c-10.03-0.05-16.19-6.24-16.19-16.19
			c0-32.34,0.02-64.69-0.01-97.03c-0.02-18.9,2.16-37.52,7.11-55.76c9.66-35.59,27.21-66.42,55.4-90.72
			c3.34-2.88,3.85-6.45,1.39-9.38c-2.37-2.83-6.11-2.95-9.47-0.11c-6.96,5.86-13.4,12.26-19.25,19.24
			c-30.3,36.15-45.56,78.3-47.24,124.97c-1.33,36.95-0.47,73.97-0.3,110.97c0.07,14.44,12.26,26.19,26.72,26.43
			c13.84,0.23,27.67,0.05,41.51,0.37c13.95,0.32,27.9,0.16,41.85,0.21c7.9,0.03,15.79,0.04,23.69,0.1c4.88,0.04,8.14,2.57,8.24,6.88
			c0.21,9.08,0.12,18.17,0.17,27.26c0.01,1.84-0.82,2.15-2.14,1.13c-1.87-1.45-3.87-2.85-5.39-4.64c-3.27-3.86-7.21-4.53-11.95-3.7
			c-18.72,3.26-37.48,6.31-56.21,9.51c-19.88,3.39-35.29,13.48-45.71,30.88c-9.05,15.11-12.13,31.73-12.15,49.07
			c-0.03,41.43-0.02,82.86,0.01,124.29c0,3.02,0.17,6.05,0.48,9.06c0.54,5.2,2.44,6.96,7.72,7.29c3.56,0.22,7.12,0.39,10.68,0.39
			c42.19,0.03,84.37,0.02,126.56,0.02c25.85,0,51.71,0,77.56,0c17.85,0,35.7,0.02,53.54-0.01c10.46-0.01,16.57-6.1,16.61-16.46
			c0.01-2.16,0.1-4.33-0.03-6.49c-0.13-2.22,0.67-3.05,2.96-3.05c20.43,0.06,40.86,0.04,61.29,0.04c37.43,0,74.85,0,112.28,0.01
			c1.68,0,3.19-0.34,4.55-1.39c5.11-3.97,8.5-9.14,8.99-15.56c0.75-9.68,0.95-19.41,0.51-29.1c2.07,0.07,3.93,0.04,4.84,0.03
			c16.97-0.27,33.95-0.01,50.93-0.3C885.17,830.27,896.82,811.46,887.54,793.12z M620.31,544.12c0.74-10.78,0.77-21.58,0.54-32.38
			c-0.1-4.71,0.54-9.25,2.58-13.54c1.86-3.91,4.77-6.33,9.2-6.64c4.74-0.33,8.07,1.85,10.29,5.91c3.46,6.31,4.73,13.24,4.83,20.27
			c0.14,10.28-1.67,20.21-7.53,28.99c-1.08,1.61-2.27,3.17-3.57,4.6c-3.27,3.6-8.77,4.63-13.07,2.51c-1.99-0.98-3.13-2.64-3.26-4.86
			C620.23,547.36,620.31,545.74,620.31,544.12z M377.74,553.59c-3.56,1.77-7.33,1.99-10.82-0.2c-4.28-2.68-6.91-6.91-8.85-11.32
			c-5.84-13.27-6.51-26.94-1.82-40.69c1.68-4.93,4.3-9.32,10.37-9.79c4.99-0.39,8.54,1.86,10.74,6.23c2.13,4.23,2.85,8.78,2.72,13.5
			c-0.09,3.56-0.02,7.13-0.02,10.69c0.18,0,0.37,0,0.55,0c0,7.98-0.03,15.96,0.02,23.94C380.65,548.9,380.92,552.01,377.74,553.59z
			 M558,689.67c2.4-0.45,3.35,0.93,3.23,3.21c-0.01,0.11,0,0.22,0,0.32c0,7.45,0,14.89,0,22.34c0,7.34,0.02,14.68-0.01,22.02
			c-0.02,3.85-1.27,4.67-4.79,3.21c-2.39-0.99-4.77-1.99-7.13-3.05c-11.21-5.02-12.43-12.71-12.46-21.63
			c-0.01-3.63,0.4-7.29,1.51-10.84C541.39,695.53,549.23,691.3,558,689.67z M474.14,657.09c-0.02-2.31,0.92-2.99,3.1-2.96
			c7.46,0.08,14.91,0.03,22.37,0.03c7.35,0,14.7,0.08,22.04-0.05c2.27-0.04,2.98,0.67,2.95,2.94c-0.12,8.43-0.1,16.86,0,25.28
			c0.02,2.05-0.6,2.74-2.69,2.93c-11.31,1.05-22.63,0.85-33.96,0.52c-3.78-0.11-7.56-0.19-11.34-0.13
			c-1.74,0.03-2.49-0.37-2.47-2.31C474.22,674.59,474.22,665.84,474.14,657.09z M478.78,706.24c-0.03-2.34,0.98-3.4,3.26-3.4
			c11.99,0,23.98,0.01,35.97-0.01c2.32-0.01,3.41,1.15,3.42,3.35c0.04,5.73,0.02,11.45,0.01,17.18c-0.01,2.43-1.24,3.41-3.68,3.38
			c-5.94-0.09-11.88-0.03-17.82-0.03c-5.83,0-11.67-0.08-17.5,0.03c-2.66,0.05-3.7-1.01-3.66-3.64
			C478.87,717.48,478.87,711.86,478.78,706.24z M478.61,745.5c7.38-1.08,14.82-1.71,22.07-1.43c13.31-0.41,26.05,1.66,38.58,5.29
			c4.56,1.32,4.97,2.15,2.78,6.36c-12.91,24.81-25.85,49.61-38.77,74.42c-0.66,1.26-1.29,2.65-2.92,2.71
			c-1.69,0.07-2.31-1.34-2.96-2.6c-13.13-25.31-26.28-50.6-39.38-75.92c-2.07-4.01-1.58-4.88,3.07-5.75
			C466.91,747.48,472.74,746.36,478.61,745.5z M432.23,615.28c-21.16-18.21-33.37-41.21-36.06-69.17
			c-1.23-12.81-2.33-25.63-1.72-38.5c0.81-16.99,3.84-33.44,12.39-48.49c2.96-5.21,6.23-6.83,12.28-6.04
			c18.75,2.44,37.57,4.17,56.47,4.95c14.59,0.6,29.18,0.7,43.77,0.24c20.74-0.65,41.4-2.42,61.97-5.19
			c5.78-0.78,9.51,0.85,12.49,5.94c6.04,10.32,9.36,21.52,10.85,33.34c1.13,8.95,0.46,17.93,0.68,26.89
			c0.05,11.78,0.3,23.55-1.85,35.23c-3.47,18.86-11.58,35.41-24.17,49.8C543.3,645.5,476.63,653.48,432.23,615.28z M439.37,736.13
			c0-13.83-0.01-27.65,0-41.48c0-4.63,0.9-5.33,5.39-4.38c13.4,2.85,19.53,11.21,19.58,26.74c0.04,10.93-3.62,16.47-13.67,20.74
			c-2.38,1.01-4.73,2.09-7.13,3.07c-2.39,0.99-3.74,0.04-4.1-2.43C439.33,737.65,439.37,736.88,439.37,736.13z M383.3,881.01
			c0,4.39-0.29,4.69-4.54,4.7c-11.13,0.01-22.27,0.01-33.4,0c-4.26,0-4.43-0.22-4.49-4.32c-0.58-38.04-0.75-76.08-0.2-114.12
			c0.14-9.89-0.69-19.97,1.83-29.67c5-19.22,16.64-32.61,35.72-39.03c4.03-1.36,5.08-0.48,5.08,3.76c0.01,29.83,0,59.67,0,89.5
			C383.3,821.56,383.3,851.29,383.3,881.01z M597.46,884.97c-32.23,0-64.47,0-96.7,0c-32.13,0-64.25,0-96.38,0
			c-4.36,0-4.76-0.4-4.76-4.86c0-61.01,0-122.01,0-183.02c0-4.32,0.49-4.79,4.86-4.79c5.08-0.01,10.17-0.02,15.25,0
			c3.74,0.01,4.35,0.6,4.35,4.31c0.01,17.63,0,35.26,0.01,52.89c0,3.35,0.02,6.7,0.74,10.01c1,4.61,2.93,5.98,7.63,5.07
			c2.54-0.49,5.05-1.17,7.53-1.9c4.47-1.31,4.48-1.36,6.67,2.87c9.8,18.89,19.57,37.79,29.38,56.67
			c4.88,9.39,9.79,18.77,14.73,28.13c1.56,2.97,3.22,5.89,5.63,8.29c2.93,2.91,4.8,2.91,7.76,0.1c3.04-2.88,4.97-6.53,6.87-10.16
			c14.49-27.77,28.93-55.56,43.38-83.35c2.16-4.16,2.4-4.3,6.73-2.78c2.55,0.89,5.12,1.69,7.8,2.1c3.92,0.61,6.02-0.61,7.03-4.38
			c0.9-3.36,1.13-6.82,1.14-10.28c0.03-17.41,0.01-34.83,0.02-52.24c0-4.84,0.21-5.04,5.18-5.05c5.08,0,10.17-0.02,15.25,0
			c4.12,0.02,4.47,0.36,4.47,4.4c0,61.11,0,122.23,0,183.34C602.03,884.75,601.82,884.97,597.46,884.97z M776,679.48
			c5.46-0.01,9.8,4.39,9.81,9.92c0,5.63-4.19,9.9-9.75,9.93c-5.47,0.03-9.84-4.35-9.85-9.88C766.19,683.95,770.57,679.49,776,679.48
			z M692.86,785.83c1.9-18.01,8.8-33.81,21.14-47.03c18.86-20.2,42.32-29.3,69.84-27.69c36.48,2.13,69.19,30.94,76.28,66.97
			c0.48,2.43,0.53,4.94,0.92,7.39c0.48,3.04-0.21,4.21-3.77,4.19c-26.82-0.18-53.64-0.1-80.47-0.1c-26.82,0-53.64-0.06-80.47,0.08
			C693.19,789.66,692.56,788.69,692.86,785.83z M744.34,859.45c0.06,2.77-0.54,3.65-3.51,3.63c-18.06-0.16-36.12-0.08-54.18-0.08
			c-21.19,0-42.39,0-63.58,0c-4.66,0-4.71,0-4.74-4.85c-0.05-7.79-0.01-15.57-0.01-23.36c0-18.17,0-36.34,0-54.51
			c0.02,0,0.04,0,0.05,0c0-25.74,0-51.48,0-77.22c0-5.08,1.02-6.01,5.73-4.34c19.7,6.99,31.56,21.01,35.63,41.33
			c1.95,9.75,1.33,19.81,1.44,29.74c0.17,15.35,0.11,30.71,0.2,46.06c0.01,1.8-0.27,3.29-1.64,4.68c-1.97,1.99-2.34,4.63-1.76,7.27
			c0.64,2.87,2.05,4.6,5.57,4.58c25.74-0.13,51.47-0.03,77.21-0.14c2.79-0.01,3.7,0.58,3.61,3.53
			C744.12,843.66,744.15,851.56,744.34,859.45z M793.49,855.3c-0.01,3.49-1.82,5.63-5.27,5.67c-9.18,0.09-18.37-0.07-27.55-0.1
			c-2.06-0.01-2.13-1.32-2.13-2.84c0.02-5.19,0.01-10.37,0.01-15.56c0-4.86-0.02-9.73,0.01-14.59c0.02-3.74,1.34-5.7,4.94-5.97
			c8.29-0.62,16.62-0.56,24.91-0.03c3.6,0.23,5.07,2.28,5.09,5.87C793.52,836.93,793.53,846.11,793.49,855.3z M866.24,818.11
			c-1.51,0.08-3.03,0.1-4.54,0.1c-16.55-0.02-33.1-0.03-49.65-0.13c-0.83,0-2.71-0.04-4.64,0.07c-2.81-8.81-11.24-14.86-20.89-14.87
			c-7.03,0-14.06,0.03-21.09-0.01c-7.65-0.05-13.6,3.19-17.8,9.43c-1.28,1.9-2.61,2.45-4.75,2.45c-17.63-0.07-35.26-0.04-52.9-0.04
			c-6.1,0-8.83-3.38-7.9-9.53c0.28-1.83,0.92-2.43,2.86-2.47c26.34-0.58,52.7,1.07,79.04-1.17c13.32-1.13,26.72,0.68,40.08,1
			c22.92,0.55,45.86,0.2,68.79,0.08c2.59-0.01,3.35,0.95,3.59,3.21C877.26,813.6,873.75,817.74,866.24,818.11z"/>
		<path class="st2" d="M755.93,725.32c-0.04,1.36-1.22,2.19-2.98,2.67c-3.33,0.92-6.59,2.06-9.73,3.55
			c-5.35,2.55-10.12,5.83-13.65,10.67c-1.31,1.79-2.88,2.34-4.72,1.11c-2-1.33-1.55-3.14-0.44-4.82c2.61-3.96,6.19-6.9,10.12-9.45
			c5.22-3.38,10.88-5.76,16.87-7.32C754.12,721.03,755.96,722.33,755.93,725.32z"/>
		<path class="st2" d="M723.89,748.92c-0.38,1.82-1.32,3.14-3.42,3.05c-1.92-0.08-2.92-1.24-2.96-3.12
			c-0.04-1.97,1.25-3.07,2.97-3.17C722.44,745.58,723.59,746.89,723.89,748.92z"/>
	</g>
</g>
</svg>
