<svg width="13" height="13" viewBox="0 0 13 13" fill="none" xmlns="http://www.w3.org/2000/svg">
<path d="M11.9036 1.25293H0.783123C0.351305 1.25293 0 1.60423 0 2.03605V12.2168C0 12.6486 0.351305 12.9999 0.783123 12.9999H11.9036C12.3354 12.9999 12.6867 12.6486 12.6867 12.2168V2.03608C12.6867 1.60426 12.3354 1.25293 11.9036 1.25293ZM11.747 12.0602H0.939758V2.19269H11.747V12.0602H11.747Z" fill="#46ABD2"/>
<path d="M12.2157 4.3855H0.46875V5.32526H12.2157V4.3855Z" fill="#46ABD2"/>
<path d="M3.29019 0C3.03067 0 2.82031 0.210361 2.82031 0.469879V2.97591C2.82031 3.23543 3.03067 3.44579 3.29019 3.44579C3.54971 3.44579 3.76007 3.23543 3.76007 2.97591V0.469879C3.76007 0.210361 3.54971 0 3.29019 0Z" fill="#46ABD2"/>
<path d="M9.55386 0C9.29435 0 9.08398 0.210361 9.08398 0.469879V2.97591C9.08398 3.23543 9.29435 3.44579 9.55386 3.44579C9.81338 3.44579 10.0237 3.23543 10.0237 2.97591V0.469879C10.0237 0.210361 9.81338 0 9.55386 0Z" fill="#46ABD2"/>
<path d="M8.14419 9.39771H4.69839C4.43888 9.39771 4.22852 9.60807 4.22852 9.86758C4.22852 10.1271 4.43888 10.3375 4.69839 10.3375H8.14419C8.4037 10.3375 8.61406 10.1271 8.61406 9.86758C8.61406 9.60807 8.4037 9.39771 8.14419 9.39771Z" fill="#46ABD2"/>
<path d="M8.14419 7.20483H4.69839C4.43888 7.20483 4.22852 7.4152 4.22852 7.67471C4.22852 7.93423 4.43888 8.14459 4.69839 8.14459H8.14419C8.4037 8.14459 8.61406 7.93426 8.61406 7.67471C8.61406 7.41517 8.4037 7.20483 8.14419 7.20483Z" fill="#46ABD2"/>
</svg>
