<svg width="2598" height="2188" viewBox="0 0 2598 2188" fill="none" xmlns="http://www.w3.org/2000/svg">
<path d="M2148.8 1683.16C2132.13 1683.15 2115.83 1678.2 2101.97 1668.92C2088.11 1659.65 2077.31 1646.48 2070.93 1631.07C2064.56 1615.66 2062.9 1598.7 2066.16 1582.35C2069.42 1565.99 2077.46 1550.97 2089.25 1539.18C2101.05 1527.39 2116.07 1519.37 2132.43 1516.12C2148.79 1512.87 2165.74 1514.54 2181.15 1520.93C2196.55 1527.31 2209.72 1538.12 2218.98 1551.99C2228.25 1565.86 2233.19 1582.16 2233.19 1598.83C2233.19 1609.91 2231.01 1620.88 2226.77 1631.12C2222.53 1641.35 2216.31 1650.65 2208.47 1658.49C2200.64 1666.32 2191.33 1672.53 2181.09 1676.76C2170.86 1681 2159.88 1683.17 2148.8 1683.16V1683.16ZM2148.8 1546.04C2138.36 1546.03 2128.15 1549.11 2119.46 1554.9C2110.77 1560.7 2104 1568.93 2099.99 1578.58C2095.98 1588.22 2094.93 1598.83 2096.95 1609.08C2098.98 1619.32 2104 1628.73 2111.37 1636.13C2118.75 1643.52 2128.15 1648.56 2138.39 1650.6C2148.63 1652.65 2159.25 1651.62 2168.9 1647.63C2178.55 1643.65 2186.8 1636.89 2192.61 1628.21C2198.42 1619.54 2201.53 1609.33 2201.54 1598.89C2201.55 1584.89 2196 1571.45 2186.11 1561.54C2176.23 1551.62 2162.81 1546.04 2148.8 1546.01V1546.04Z" fill="#0E7DC9"/>
<path d="M570.029 385.69C600.379 385.69 624.983 361.085 624.983 330.735C624.983 300.384 600.379 275.78 570.029 275.78C539.678 275.78 515.074 300.384 515.074 330.735C515.074 361.085 539.678 385.69 570.029 385.69Z" fill="#0E7DC9"/>
<path d="M2202.89 520.774C2202.89 478.977 2186.28 438.895 2156.72 409.343C2127.16 379.791 2087.08 363.189 2045.28 363.189H932.584C890.79 363.197 850.709 379.801 821.154 409.352C791.598 438.902 774.987 478.98 774.971 520.774C774.979 562.571 791.588 602.653 821.145 632.205C850.702 661.757 890.788 678.359 932.584 678.359H953.846C995.651 678.366 1035.74 694.978 1065.3 724.541C1094.85 754.104 1111.46 794.196 1111.46 836.001V836.001C1111.44 877.798 1094.83 917.878 1065.28 947.433C1035.72 976.988 995.643 993.599 953.846 993.614H555.672C534.976 993.606 514.482 997.676 495.36 1005.59C476.238 1013.51 458.863 1025.11 444.226 1039.74C429.59 1054.37 417.979 1071.74 410.058 1090.86C402.136 1109.98 398.059 1130.47 398.059 1151.17V1151.17C398.059 1192.97 414.665 1233.06 444.223 1262.62C473.781 1292.18 513.87 1308.78 555.672 1308.78H815.079C856.881 1308.78 896.97 1325.39 926.528 1354.95C956.086 1384.51 972.692 1424.59 972.692 1466.4V1466.4C972.677 1508.19 956.066 1548.27 926.512 1577.83C896.957 1607.38 856.876 1623.99 815.079 1624.01H642.189C600.397 1624.01 560.317 1640.61 530.76 1670.15C501.204 1699.7 484.592 1739.77 484.576 1781.57V1781.57C484.569 1802.27 488.64 1822.77 496.557 1841.9C504.475 1861.03 516.083 1878.41 530.72 1893.05C545.356 1907.69 562.734 1919.31 581.86 1927.23C600.986 1935.16 621.486 1939.24 642.189 1939.24H1946.39C1988.19 1939.23 2028.28 1922.62 2057.83 1893.06C2087.39 1863.51 2104 1823.42 2104 1781.62C2104 1739.82 2087.39 1699.74 2057.83 1670.18C2028.28 1640.63 1988.19 1624.02 1946.39 1624.01H1909.48C1867.68 1624 1827.59 1607.39 1798.04 1577.84C1768.48 1548.28 1751.87 1508.2 1751.86 1466.4V1466.4C1751.86 1445.7 1755.94 1425.2 1763.85 1406.08C1771.77 1386.95 1783.38 1369.57 1798.02 1354.94C1812.66 1340.3 1830.03 1328.69 1849.16 1320.77C1868.28 1312.85 1888.78 1308.78 1909.48 1308.78H2305.01C2346.8 1308.77 2386.88 1292.16 2416.44 1262.6C2445.99 1233.05 2462.6 1192.97 2462.62 1151.17V1151.17C2462.61 1130.48 2458.53 1109.98 2450.61 1090.87C2442.69 1071.75 2431.08 1054.38 2416.44 1039.75C2401.81 1025.12 2384.43 1013.51 2365.31 1005.6C2346.19 997.682 2325.7 993.61 2305.01 993.614H2048.36C2027.66 993.618 2007.16 989.544 1988.03 981.625C1968.9 973.706 1951.52 962.098 1936.88 947.462C1922.24 932.826 1910.63 915.45 1902.7 896.325C1894.77 877.201 1890.69 856.702 1890.69 836.001V832.893C1890.69 812.599 1894.69 792.504 1902.45 773.755C1910.22 755.006 1921.6 737.971 1935.95 723.621C1950.3 709.271 1967.34 697.888 1986.09 690.122C2004.83 682.356 2024.93 678.359 2045.22 678.359C2087.03 678.366 2127.12 661.769 2156.69 632.217C2186.26 602.665 2202.88 562.578 2202.89 520.774V520.774Z" fill="#E5F5FF"/>
<path d="M1458.07 264.243C1502.46 264.243 1538.44 228.264 1538.44 183.882C1538.44 139.501 1502.46 103.522 1458.07 103.522C1413.69 103.522 1377.71 139.501 1377.71 183.882C1377.71 228.264 1413.69 264.243 1458.07 264.243Z" fill="#E5F5FF"/>
<path d="M2066.92 103.551H1714.61C1670.22 103.551 1634.25 139.53 1634.25 183.912C1634.25 228.293 1670.22 264.272 1714.61 264.272H2066.92C2111.3 264.272 2147.28 228.293 2147.28 183.912C2147.28 139.53 2111.3 103.551 2066.92 103.551Z" fill="#E5F5FF"/>
<path d="M1575.72 2027.28H2406.86C2428.17 2027.28 2448.61 2035.75 2463.68 2050.82C2478.75 2065.89 2487.22 2086.33 2487.22 2107.64V2107.64C2487.21 2128.95 2478.74 2149.39 2463.67 2164.45C2448.6 2179.52 2428.17 2187.99 2406.86 2188H1575.72C1554.41 2188 1533.97 2179.53 1518.9 2164.46C1503.83 2149.39 1495.36 2128.95 1495.36 2107.64V2107.64C1495.36 2097.09 1497.44 2086.63 1501.47 2076.88C1505.51 2067.13 1511.43 2058.27 1518.89 2050.81C1526.36 2043.35 1535.22 2037.43 1544.97 2033.39C1554.72 2029.35 1565.17 2027.28 1575.72 2027.28V2027.28Z" fill="#E5F5FF"/>
<path d="M979.253 2027.28H1349.89C1371.21 2027.28 1391.65 2035.75 1406.72 2050.82C1421.79 2065.89 1430.25 2086.33 1430.25 2107.64V2107.64C1430.25 2128.95 1421.78 2149.39 1406.71 2164.45C1391.64 2179.52 1371.2 2187.99 1349.89 2188H979.253C957.94 2188 937.5 2179.53 922.429 2164.46C907.359 2149.39 898.893 2128.95 898.893 2107.64C898.889 2097.09 900.965 2086.63 905.002 2076.88C909.039 2067.13 914.958 2058.27 922.421 2050.81C929.884 2043.35 938.744 2037.43 948.496 2033.39C958.247 2029.35 968.698 2027.28 979.253 2027.28Z" fill="#E5F5FF"/>
<path d="M1057.22 214.524C1036.01 214.524 1015.27 208.234 997.633 196.448C979.994 184.661 966.246 167.909 958.128 148.31C950.009 128.71 947.885 107.143 952.024 86.3365C956.163 65.5296 966.378 46.4173 981.379 31.4164C996.38 16.4155 1015.49 6.1998 1036.3 2.06106C1057.11 -2.07767 1078.67 0.0464744 1098.27 8.1649C1117.87 16.2833 1134.62 30.0314 1146.41 47.6706C1158.2 65.3098 1164.49 86.0478 1164.49 107.262V107.262C1164.46 135.701 1153.15 162.965 1133.04 183.074C1112.93 203.183 1085.66 214.494 1057.22 214.524V214.524ZM1057.22 31.5055C1042.24 31.4998 1027.59 35.9373 1015.13 44.2568C1002.67 52.5763 992.956 64.4042 987.217 78.2448C981.478 92.0854 979.972 107.317 982.889 122.013C985.807 136.71 993.017 150.211 1003.61 160.81C1014.2 171.409 1027.69 178.629 1042.39 181.558C1057.08 184.487 1072.32 182.992 1086.16 177.263C1100 171.535 1111.84 161.829 1120.17 149.374C1128.5 136.919 1132.95 122.274 1132.95 107.291V107.291C1132.9 87.231 1124.9 68.0091 1110.71 53.8326C1096.52 39.6561 1077.28 31.6797 1057.22 31.6493V31.5055Z" fill="#0E7DC9"/>
<path d="M114.196 991.6C91.6113 991.6 69.5338 984.903 50.755 972.356C31.9763 959.809 17.3395 941.976 8.69544 921.111C0.0513865 900.246 -2.21175 877.286 2.19219 855.135C6.59613 832.984 17.4694 812.636 33.4371 796.665C49.4047 780.693 69.7498 769.814 91.8997 765.405C114.05 760.995 137.01 763.253 157.877 771.891C178.744 780.53 196.581 795.163 209.132 813.938C221.684 832.714 228.386 854.79 228.392 877.375C228.395 892.373 225.444 907.226 219.707 921.084C213.97 934.943 205.559 947.535 194.955 958.142C184.35 968.749 171.76 977.164 157.903 982.904C144.047 988.645 129.195 991.6 114.196 991.6V991.6ZM114.196 794.712C97.8473 794.712 81.8657 799.559 68.2704 808.638C54.6752 817.718 44.0765 830.624 37.8136 845.726C31.5508 860.827 29.9048 877.446 33.0838 893.483C36.2628 909.519 44.124 924.254 55.6741 935.824C67.2242 947.394 81.9448 955.281 97.9757 958.488C114.007 961.695 130.628 960.078 145.741 953.841C160.853 947.604 173.777 937.028 182.881 923.449C191.984 909.869 196.858 893.896 196.886 877.547V877.547C196.848 855.631 188.123 834.623 172.623 819.128C157.123 803.633 136.112 794.915 114.196 794.885V794.712Z" fill="#0E7DC9"/>
<path d="M2248.96 406.118C2245.27 406.115 2241.71 404.822 2238.87 402.463C2236.04 400.104 2234.13 396.828 2233.46 393.203C2232.79 389.579 2233.42 385.836 2235.22 382.623C2237.03 379.411 2239.9 376.933 2243.35 375.619L2320.02 346.473L2245.99 332.375C2242.67 331.738 2239.63 330.046 2237.34 327.548C2235.05 325.051 2233.62 321.882 2233.27 318.511C2232.93 315.14 2233.67 311.746 2235.4 308.833C2237.14 305.92 2239.76 303.642 2242.89 302.337L2353.17 256.302C2356.99 254.884 2361.21 255.001 2364.95 256.627C2368.68 258.252 2371.64 261.261 2373.21 265.023C2374.78 268.784 2374.83 273.006 2373.35 276.803C2371.87 280.6 2368.98 283.677 2365.28 285.39L2303.48 311.285L2380.56 325.959C2383.93 326.603 2386.99 328.328 2389.29 330.871C2391.59 333.415 2393 336.638 2393.3 340.054C2393.61 343.469 2392.79 346.89 2390.97 349.799C2389.15 352.707 2386.44 354.943 2383.24 356.169L2254.57 405.082C2252.78 405.771 2250.88 406.122 2248.96 406.118Z" fill="#0E7DC9"/>
<path d="M763.233 1584.13C793.583 1584.13 818.187 1559.53 818.187 1529.18C818.187 1498.83 793.583 1474.22 763.233 1474.22C732.882 1474.22 708.278 1498.83 708.278 1529.18C708.278 1559.53 732.882 1584.13 763.233 1584.13Z" fill="#0E7DC9"/>
<path d="M486.735 1927.73C517.086 1927.73 541.69 1903.12 541.69 1872.77C541.69 1842.42 517.086 1817.82 486.735 1817.82C456.385 1817.82 431.781 1842.42 431.781 1872.77C431.781 1903.12 456.385 1927.73 486.735 1927.73Z" fill="#0E7DC9"/>
<path d="M2398.46 1997.36C2428.81 1997.36 2453.41 1972.75 2453.41 1942.4C2453.41 1912.05 2428.81 1887.45 2398.46 1887.45C2368.11 1887.45 2343.5 1912.05 2343.5 1942.4C2343.5 1972.75 2368.11 1997.36 2398.46 1997.36Z" fill="#0E7DC9"/>
<path d="M2542.17 905.773C2572.52 905.773 2597.13 881.169 2597.13 850.818C2597.13 820.467 2572.52 795.863 2542.17 795.863C2511.82 795.863 2487.22 820.467 2487.22 850.818C2487.22 881.169 2511.82 905.773 2542.17 905.773Z" fill="#0E7DC9"/>
<path d="M1392.59 448C1350.62 448 1308.91 453.571 1268.62 464.562C1252.96 468.831 1243.73 484.985 1248 500.639C1252.27 516.297 1268.44 525.528 1284.07 521.253C1319.33 511.637 1355.84 506.763 1392.59 506.763C1619.4 506.763 1803.92 691.289 1803.92 918.1C1803.92 1128.85 1719.88 1211.16 1645.74 1283.78C1597.46 1331.07 1551.56 1376.07 1541.54 1446.97H1243.63C1233.61 1376.07 1187.72 1331.07 1139.43 1283.78C1065.29 1211.16 981.248 1128.85 981.248 918.1C981.248 820.957 1015.76 726.672 1078.43 652.611C1088.91 640.224 1087.36 621.684 1074.97 611.204C1062.59 600.721 1044.05 602.266 1033.57 614.653C961.936 699.31 922.485 807.077 922.485 918.1C922.485 1153.55 1019.98 1249.04 1098.31 1325.77C1142.91 1369.45 1176.76 1402.64 1184.98 1452.27C1147.67 1465.26 1120.81 1500.77 1120.81 1542.46C1120.81 1584.86 1148.6 1620.88 1186.92 1633.3V1696.71H1179.57C1163.35 1696.71 1150.19 1709.87 1150.19 1726.09C1150.19 1742.32 1163.35 1755.48 1179.57 1755.48H1186.92V1784.86C1186.92 1833.46 1226.46 1873 1275.06 1873H1510.11C1558.71 1873 1598.25 1833.46 1598.25 1784.86V1755.48H1605.6C1621.82 1755.48 1634.98 1742.32 1634.98 1726.09C1634.98 1709.87 1621.82 1696.71 1605.6 1696.71H1598.25V1633.3C1636.57 1620.88 1664.36 1584.86 1664.36 1542.46C1664.36 1500.77 1637.5 1465.26 1600.19 1452.27C1608.41 1402.64 1642.26 1369.45 1686.86 1325.77C1765.2 1249.04 1862.69 1153.55 1862.69 918.1C1862.69 658.887 1651.8 448 1392.59 448V448ZM1539.49 1784.85C1539.49 1801.05 1526.31 1814.23 1510.11 1814.23H1275.06C1258.86 1814.23 1245.68 1801.05 1245.68 1784.85V1755.47H1539.49V1784.85ZM1245.68 1696.71V1637.95H1539.49V1696.71H1245.68ZM1568.87 1579.18H1216.3C1196.05 1579.18 1179.57 1562.71 1179.57 1542.46C1179.57 1522.2 1196.05 1505.73 1216.3 1505.73H1568.87C1589.13 1505.73 1605.6 1522.21 1605.6 1542.46C1605.6 1562.71 1589.13 1579.18 1568.87 1579.18Z" fill="#00ABF8"/>
<path d="M804.955 947.481C821.18 947.481 834.336 934.327 834.336 918.1C834.336 901.873 821.18 888.719 804.955 888.719H737.381C721.157 888.719 708 901.873 708 918.1C708 934.327 721.157 947.481 737.381 947.481H804.955Z" fill="#00ABF8"/>
<path d="M868.991 1186.47L751.948 1254.05C737.895 1262.16 733.079 1280.13 741.194 1294.18C746.639 1303.61 756.511 1308.88 766.668 1308.88C771.651 1308.88 776.704 1307.61 781.329 1304.94L898.372 1237.36C912.425 1229.25 917.241 1211.28 909.126 1197.23C901.014 1183.18 883.047 1178.36 868.991 1186.47V1186.47Z" fill="#00ABF8"/>
<path d="M2033.22 1254.05L1916.18 1186.47C1902.12 1178.35 1884.15 1183.17 1876.05 1197.22C1867.93 1211.28 1872.75 1229.25 1886.8 1237.36L2003.84 1304.93C2008.47 1307.61 2013.52 1308.88 2018.5 1308.88C2028.66 1308.88 2038.54 1303.61 2043.98 1294.18C2052.09 1280.13 2047.28 1262.16 2033.22 1254.05V1254.05Z" fill="#00ABF8"/>
<path d="M2047.79 888.719H1980.22C1963.99 888.719 1950.84 901.873 1950.84 918.1C1950.84 934.327 1963.99 947.481 1980.22 947.481H2047.79C2064.02 947.481 2077.17 934.327 2077.17 918.1C2077.17 901.873 2064.02 888.719 2047.79 888.719Z" fill="#00ABF8"/>
<path d="M1901.52 653.674C1906.5 653.674 1911.56 652.401 1916.18 649.731L2033.22 582.154C2047.28 574.042 2052.09 556.072 2043.98 542.019C2035.86 527.969 2017.9 523.153 2003.84 531.265L1886.8 598.842C1872.75 606.955 1867.93 624.924 1876.05 638.977C1881.49 648.406 1891.36 653.674 1901.52 653.674Z" fill="#00ABF8"/>
<path d="M898.372 598.842L781.329 531.265C767.27 523.147 749.306 527.965 741.194 542.018C733.079 556.071 737.895 574.041 751.948 582.153L868.991 649.73C873.618 652.401 878.669 653.673 883.652 653.673C893.806 653.673 903.684 648.402 909.126 638.977C917.241 624.923 912.425 606.954 898.372 598.842Z" fill="#00ABF8"/>
<path d="M1488.76 1086.55C1501.28 1067.74 1525.65 1042.52 1547.84 1020.33C1568.45 999.719 1584.63 975.547 1595.94 948.484C1607.22 921.468 1612.94 893.03 1612.94 863.963C1612.94 805.109 1590.02 749.773 1548.4 708.148C1506.77 666.524 1451.44 643.604 1392.58 643.604C1333.73 643.604 1278.4 666.527 1236.77 708.148C1195.15 749.773 1172.22 805.109 1172.22 863.963C1172.22 912.565 1211.77 952.107 1260.37 952.107C1308.97 952.107 1348.51 912.565 1348.51 863.963C1348.51 852.184 1353.1 841.116 1361.42 832.795C1369.74 824.475 1380.81 819.891 1392.58 819.891C1404.36 819.891 1415.43 824.475 1423.75 832.795C1432.07 841.116 1436.66 852.184 1436.66 863.963C1436.66 869.945 1435.55 875.624 1433.37 880.843C1431.15 886.158 1427.72 891.152 1423.19 895.689C1383.13 935.75 1359.62 962.863 1342.06 989.268C1316.4 1027.83 1304.44 1064.43 1304.44 1104.43C1304.44 1126.99 1312.97 1147.59 1326.96 1163.19C1312.97 1178.8 1304.44 1199.41 1304.44 1221.98C1304.44 1270.58 1343.98 1310.12 1392.58 1310.12C1441.19 1310.12 1480.73 1270.58 1480.73 1221.98V1221.96C1480.73 1199.4 1472.2 1178.8 1458.21 1163.19C1472.2 1147.59 1480.73 1126.99 1480.73 1104.43C1480.73 1101.78 1482.13 1096.53 1488.76 1086.55V1086.55ZM1390.98 1021.82C1406.25 998.87 1427.62 974.369 1464.75 937.24C1474.72 927.262 1482.41 915.909 1487.59 903.495C1492.79 891.067 1495.42 877.766 1495.42 863.966C1495.42 836.491 1484.72 810.665 1465.3 791.247C1445.88 771.826 1420.06 761.131 1392.58 761.131C1365.11 761.131 1339.28 771.826 1319.87 791.247C1300.45 810.665 1289.75 836.491 1289.75 863.966C1289.75 880.167 1276.57 893.347 1260.37 893.347C1244.17 893.347 1230.99 880.167 1230.99 863.966C1230.99 820.808 1247.8 780.229 1278.32 749.705C1308.85 719.181 1349.43 702.369 1392.58 702.369C1435.74 702.369 1476.32 719.181 1506.84 749.705C1537.37 780.229 1554.18 820.808 1554.18 863.966C1554.18 885.217 1549.98 906.034 1541.71 925.837C1533.38 945.799 1521.45 963.612 1506.29 978.785C1471.48 1013.59 1452.23 1035.38 1439.83 1054C1427.64 1072.33 1421.96 1088.35 1421.96 1104.43C1421.96 1120.63 1408.78 1133.81 1392.58 1133.81C1376.38 1133.81 1363.2 1120.63 1363.2 1104.43C1363.21 1076.17 1371.77 1050.69 1390.98 1021.82V1021.82ZM1421.97 1221.98C1421.97 1238.18 1408.79 1251.36 1392.59 1251.36C1376.39 1251.36 1363.21 1238.18 1363.21 1221.96C1363.21 1205.76 1376.39 1192.58 1392.59 1192.58C1408.79 1192.58 1421.97 1205.76 1421.97 1221.96V1221.98Z" fill="#00ABF8"/>
<path d="M1155.48 575.92C1171.7 575.92 1184.86 562.766 1184.86 546.538C1184.86 530.311 1171.7 517.157 1155.48 517.157H1155.46C1139.23 517.157 1126.09 530.311 1126.09 546.538C1126.09 562.766 1139.25 575.92 1155.48 575.92V575.92Z" fill="#00ABF8"/>
</svg>
