<svg width="26" height="28" viewBox="0 0 26 28" fill="none" xmlns="http://www.w3.org/2000/svg">
<path d="M20.7949 17.7023C19.2147 17.7023 17.8106 18.4703 16.9357 19.6523L9.40314 15.8029C9.52951 15.3735 9.59766 14.9195 9.59766 14.4498C9.59766 13.8136 9.47294 13.2062 9.24713 12.6501L17.1417 7.90682C18.0226 8.9407 19.3334 9.59766 20.7949 9.59766C23.441 9.59766 25.5938 7.4449 25.5938 4.79883C25.5938 2.15275 23.441 0 20.7949 0C18.1488 0 15.9961 2.15275 15.9961 4.79883C15.9961 5.41041 16.1113 5.9955 16.3208 6.53387L8.40648 11.289C7.52627 10.2856 6.23533 9.65098 4.79883 9.65098C2.15275 9.65098 0 11.8037 0 14.4498C0 17.0959 2.15275 19.2486 4.79883 19.2486C6.40494 19.2486 7.82913 18.4554 8.70065 17.2403L16.2113 21.0785C16.0715 21.5282 15.9961 22.006 15.9961 22.5012C15.9961 25.1472 18.1488 27.3 20.7949 27.3C23.441 27.3 25.5938 25.1472 25.5938 22.5012C25.5938 19.8551 23.441 17.7023 20.7949 17.7023ZM20.7949 1.59961C22.559 1.59961 23.9941 3.03478 23.9941 4.79883C23.9941 6.56288 22.559 7.99805 20.7949 7.99805C19.0309 7.99805 17.5957 6.56288 17.5957 4.79883C17.5957 3.03478 19.0309 1.59961 20.7949 1.59961ZM4.79883 17.649C3.03478 17.649 1.59961 16.2139 1.59961 14.4498C1.59961 12.6858 3.03478 11.2506 4.79883 11.2506C6.56288 11.2506 7.99805 12.6858 7.99805 14.4498C7.99805 16.2139 6.56288 17.649 4.79883 17.649ZM20.7949 25.7004C19.0309 25.7004 17.5957 24.2652 17.5957 22.5012C17.5957 20.7371 19.0309 19.302 20.7949 19.302C22.559 19.302 23.9941 20.7371 23.9941 22.5012C23.9941 24.2652 22.559 25.7004 20.7949 25.7004Z" fill="white"/>
</svg>
