<svg width="12" height="12" viewBox="0 0 12 12" fill="none" xmlns="http://www.w3.org/2000/svg">
<path d="M11.0048 0.696589L11.0049 0.696589C11.1665 0.704145 11.2959 0.833513 11.3034 0.995153L11.4996 5.18934L11.999 5.16598L11.4996 5.18935C11.5037 5.27745 11.4705 5.3633 11.408 5.42573L5.42565 11.4081C5.42562 11.4081 5.42559 11.4082 5.42556 11.4082C5.36417 11.4695 5.28475 11.5 5.20381 11.5C5.12268 11.5 5.04334 11.4695 4.98214 11.4082L4.98209 11.4082L0.591757 7.01791C0.532949 6.9591 0.499912 6.87935 0.499912 6.79615C0.499912 6.71306 0.532916 6.63332 0.591758 6.57444C0.591774 6.57442 0.591789 6.57441 0.591804 6.57439L6.57427 0.591894L6.57431 0.591851C6.63703 0.529115 6.72285 0.49615 6.80985 0.500361L6.81066 0.500399L11.0048 0.696589ZM8.55134 3.44862C9.12365 4.02093 10.0516 4.02093 10.6239 3.44862C11.1962 2.87626 11.1962 1.94837 10.6239 1.37608C10.0516 0.803776 9.12365 0.803776 8.55134 1.37608C7.97903 1.94839 7.97903 2.87632 8.55134 3.44862Z" stroke="#46ABD2"/>
</svg>
