<svg width="34" height="37" viewBox="0 0 34 37" fill="none" xmlns="http://www.w3.org/2000/svg">
<path d="M17.5577 4.94109C17.5794 4.94109 17.6011 4.94109 17.6228 4.94109C20.7848 4.94109 23.7477 6.24988 25.9714 8.63103C28.2138 11.0322 29.44 14.2314 29.4242 17.6416C29.4213 18.4089 29.9988 19.0338 30.7154 19.038C30.7174 19.038 30.7194 19.038 30.7214 19.038C31.435 19.038 32.0155 18.4206 32.0185 17.6553C32.0372 13.4978 30.541 9.59573 27.8058 6.66679C25.0913 3.76002 21.4778 2.16309 17.6218 2.16309C17.5982 2.16309 17.5745 2.16309 17.5508 2.16309C16.8342 2.16625 16.2557 2.79215 16.2597 3.55948C16.2636 4.32258 16.8441 4.94109 17.5577 4.94109Z" fill="url(#paint0_linear)"/>
<path d="M33.3847 29.3575C33.3383 27.9811 32.8032 26.6977 31.8776 25.7425C30.066 23.8711 28.547 22.7914 27.1001 22.3428C25.1051 21.7253 23.258 22.2868 21.609 24.0115C21.606 24.0136 21.604 24.0168 21.601 24.0189L19.8455 25.885C18.7544 25.2285 16.6342 23.7846 14.3159 21.3021L14.1455 21.1195C11.8419 18.6528 10.4846 16.3699 9.86756 15.1972L11.6093 13.3185C11.6123 13.3164 11.6142 13.3132 11.6162 13.31C13.2268 11.5442 13.7512 9.56627 13.1746 7.42999C12.7567 5.87949 11.7473 4.25406 9.99967 2.3141C9.10764 1.32301 7.90815 0.749884 6.62382 0.700277C5.3395 0.65067 4.10435 1.12985 3.14727 2.04917L3.10985 2.08506C3.09211 2.10195 3.07533 2.11883 3.05956 2.13678C1.15524 4.17596 0.156825 7.03207 0.17161 10.3948C0.198223 16.107 3.12954 22.6394 8.01353 27.8693C8.01748 27.8735 8.0215 27.8777 8.02544 27.8819C8.94409 28.8635 9.98586 29.8356 11.1243 30.7697C11.693 31.2362 12.5073 31.1212 12.9439 30.5122C13.3796 29.9032 13.2721 29.0313 12.7034 28.5638C11.6497 27.6993 10.6897 26.8043 9.84891 25.9029C9.84497 25.8987 9.84094 25.8945 9.837 25.8902C5.43302 21.1691 2.79047 15.3714 2.76681 10.38C2.75499 7.7899 3.48242 5.62935 4.87123 4.12635L4.88109 4.11685C5.82438 3.2102 7.25259 3.26508 8.13181 4.24245C11.491 7.9725 11.2475 9.73409 9.76408 11.3637L7.35911 13.9592C6.98159 14.3666 6.87705 14.9798 7.09488 15.5033C7.15599 15.65 8.6336 19.1458 12.3121 23.0848L12.4826 23.2674C16.1611 27.2064 19.4247 28.7886 19.5627 28.854C20.0516 29.0873 20.6242 28.9743 21.0047 28.5711L23.4275 25.9958C24.9504 24.4062 26.5944 24.1455 30.0787 27.7426C30.9915 28.6851 31.0427 30.2135 30.196 31.2235L30.1873 31.2341C28.7955 32.7086 26.7984 33.4875 24.4062 33.4875C24.3865 33.4875 24.3668 33.4875 24.3471 33.4875C22.4349 33.477 20.2211 32.9165 17.9442 31.8642C17.2868 31.5602 16.5229 31.8853 16.239 32.5893C15.9552 33.2944 16.2586 34.1113 16.9161 34.4153C19.5478 35.6312 22.0436 36.2529 24.3333 36.2656C24.3579 36.2656 24.3815 36.2656 24.4062 36.2656C27.515 36.2656 30.1546 35.1974 32.0451 33.173C32.0619 33.1551 32.0777 33.1371 32.0935 33.1192L32.1269 33.0791C32.9835 32.0553 33.431 30.7338 33.3847 29.3575Z" fill="url(#paint1_linear)"/>
<path d="M24.1401 10.5995C22.7483 9.10915 21.4126 8.71335 20.77 8.52336C20.079 8.3186 19.3644 8.7524 19.1732 9.49229C18.982 10.2322 19.3871 10.9974 20.078 11.2022C20.6034 11.3573 21.3959 11.5927 22.3047 12.5648C23.179 13.501 23.4106 14.3453 23.5643 14.9047L23.5831 14.9723C23.7497 15.576 24.2671 15.9676 24.827 15.9676C24.9492 15.9676 25.0734 15.9486 25.1956 15.9096C25.8826 15.6921 26.275 14.9185 26.0719 14.1828L26.0541 14.1195C25.854 13.3923 25.4816 12.037 24.1401 10.5995Z" fill="url(#paint2_linear)"/>
<defs>
<linearGradient id="paint0_linear" x1="22.2777" y1="-4.91988" x2="26.5263" y2="24.9412" gradientUnits="userSpaceOnUse">
<stop stop-color="#43ADD4"/>
<stop offset="0.2116" stop-color="#3EA7D1"/>
<stop offset="0.4813" stop-color="#2F98C8"/>
<stop offset="0.7812" stop-color="#167EBA"/>
<stop offset="1" stop-color="#0066AD"/>
</linearGradient>
<linearGradient id="paint1_linear" x1="13.7995" y1="-3.71361" x2="18.048" y2="26.1475" gradientUnits="userSpaceOnUse">
<stop stop-color="#43ADD4"/>
<stop offset="0.2116" stop-color="#3EA7D1"/>
<stop offset="0.4813" stop-color="#2F98C8"/>
<stop offset="0.7812" stop-color="#167EBA"/>
<stop offset="1" stop-color="#0066AD"/>
</linearGradient>
<linearGradient id="paint2_linear" x1="20.5302" y1="-4.6713" x2="24.7788" y2="25.1897" gradientUnits="userSpaceOnUse">
<stop stop-color="#43ADD4"/>
<stop offset="0.2116" stop-color="#3EA7D1"/>
<stop offset="0.4813" stop-color="#2F98C8"/>
<stop offset="0.7812" stop-color="#167EBA"/>
<stop offset="1" stop-color="#0066AD"/>
</linearGradient>
</defs>
</svg>
