<svg width="726" height="724" viewBox="0 0 726 724" fill="none" xmlns="http://www.w3.org/2000/svg">
<g clip-path="url(#clip0)">
<path d="M616.35 496.89C610.556 496.892 604.893 495.175 600.074 491.958C595.256 488.741 591.501 484.167 589.282 478.815C587.064 473.463 586.482 467.574 587.611 461.892C588.74 456.209 591.529 450.989 595.625 446.892C599.721 442.795 604.94 440.004 610.622 438.873C616.304 437.742 622.194 438.322 627.546 440.538C632.899 442.755 637.474 446.509 640.693 451.326C643.912 456.143 645.63 461.806 645.63 467.6C645.622 475.364 642.535 482.808 637.046 488.298C631.557 493.789 624.114 496.879 616.35 496.89V496.89ZM616.35 449.27C612.722 449.268 609.174 450.342 606.157 452.356C603.139 454.371 600.787 457.235 599.398 460.587C598.008 463.938 597.644 467.627 598.352 471.185C599.059 474.744 600.806 478.012 603.371 480.578C605.937 483.143 609.206 484.89 612.764 485.598C616.323 486.305 620.011 485.941 623.363 484.552C626.714 483.162 629.579 480.81 631.593 477.792C633.608 474.775 634.682 471.228 634.68 467.6C634.672 462.741 632.738 458.083 629.302 454.647C625.866 451.211 621.209 449.278 616.35 449.27V449.27Z" fill="#00ABF8"/>
<path d="M626.74 144.88C626.74 137.692 625.324 130.575 622.573 123.934C619.822 117.293 615.79 111.259 610.706 106.177C605.623 101.095 599.589 97.0634 592.947 94.3136C586.306 91.5637 579.188 90.1491 572 90.1504H185.66C171.145 90.1504 157.224 95.9166 146.96 106.18C136.696 116.444 130.93 130.365 130.93 144.88V144.88C130.93 159.396 136.696 173.316 146.96 183.58C157.224 193.844 171.145 199.61 185.66 199.61H193C207.515 199.61 221.436 205.377 231.7 215.64C241.964 225.904 247.73 239.825 247.73 254.34V254.34C247.731 261.528 246.317 268.646 243.567 275.288C240.817 281.929 236.786 287.964 231.703 293.047C226.621 298.13 220.587 302.162 213.947 304.913C207.306 307.664 200.188 309.08 193 309.08H54.73C40.2147 309.08 26.2939 314.847 16.03 325.11C5.76618 335.374 0 349.295 0 363.81H0C0 378.326 5.76618 392.246 16.03 402.51C26.2939 412.774 40.2147 418.54 54.73 418.54H144.81C159.325 418.54 173.246 424.307 183.51 434.57C193.774 444.834 199.54 458.755 199.54 473.27V473.27C199.54 487.786 193.774 501.706 183.51 511.97C173.246 522.234 159.325 528 144.81 528H84.81C70.2947 528 56.3739 533.767 46.11 544.03C35.8462 554.294 30.08 568.215 30.08 582.73V582.73C30.08 597.246 35.8462 611.166 46.11 621.43C56.3739 631.694 70.2947 637.46 84.81 637.46H537.66C544.848 637.462 551.966 636.047 558.607 633.297C565.249 630.547 571.283 626.516 576.366 621.434C581.45 616.352 585.482 610.318 588.233 603.677C590.984 597.036 592.4 589.918 592.4 582.73V582.73C592.4 575.542 590.984 568.425 588.233 561.784C585.482 555.143 581.45 549.109 576.366 544.027C571.283 538.945 565.249 534.913 558.607 532.164C551.966 529.414 544.848 527.999 537.66 528H524.85C517.662 528 510.544 526.584 503.903 523.833C497.263 521.082 491.229 517.05 486.147 511.967C481.064 506.884 477.033 500.849 474.283 494.208C471.533 487.566 470.119 480.448 470.12 473.26V473.26C470.12 458.745 475.886 444.824 486.15 434.56C496.414 424.297 510.335 418.53 524.85 418.53H662.15C669.338 418.532 676.456 417.117 683.097 414.367C689.739 411.617 695.773 407.586 700.856 402.504C705.94 397.422 709.972 391.388 712.723 384.747C715.474 378.106 716.89 370.988 716.89 363.8C716.89 356.612 715.474 349.495 712.723 342.854C709.972 336.213 705.94 330.179 700.856 325.097C695.773 320.015 689.739 315.983 683.097 313.234C676.456 310.484 669.338 309.069 662.15 309.07H573.08C565.892 309.07 558.774 307.654 552.133 304.903C545.493 302.152 539.459 298.12 534.377 293.037C529.294 287.954 525.263 281.919 522.513 275.278C519.763 268.636 518.349 261.518 518.35 254.33V253.26C518.353 239.032 524.006 225.388 534.067 215.327C544.127 205.266 557.772 199.613 572 199.61V199.61C579.188 199.612 586.306 198.197 592.947 195.447C599.589 192.697 605.623 188.666 610.706 183.584C615.79 178.502 619.822 172.468 622.573 165.827C625.324 159.186 626.74 152.068 626.74 144.88V144.88Z" fill="#E5F5FF"/>
<path d="M368.1 55.8C383.509 55.8 396 43.3087 396 27.9C396 12.4913 383.509 0 368.1 0C352.691 0 340.2 12.4913 340.2 27.9C340.2 43.3087 352.691 55.8 368.1 55.8Z" fill="#E5F5FF"/>
<path d="M579.52 0H457.17C441.761 0 429.27 12.4913 429.27 27.9V27.91C429.27 43.3187 441.761 55.81 457.17 55.81H579.52C594.928 55.81 607.42 43.3187 607.42 27.91V27.9C607.42 12.4913 594.928 0 579.52 0Z" fill="#E5F5FF"/>
<path d="M697.58 668.03H408.95C393.541 668.03 381.05 680.521 381.05 695.93V695.94C381.05 711.349 393.541 723.84 408.95 723.84H697.58C712.989 723.84 725.48 711.349 725.48 695.94V695.93C725.48 680.521 712.989 668.03 697.58 668.03Z" fill="#E5F5FF"/>
<path d="M330.54 668.03H201.82C186.411 668.03 173.92 680.521 173.92 695.93V695.94C173.92 711.349 186.411 723.84 201.82 723.84H330.54C345.949 723.84 358.44 711.349 358.44 695.94V695.93C358.44 680.521 345.949 668.03 330.54 668.03Z" fill="#E5F5FF"/>
<path d="M34.73 283.65C27.8611 283.65 21.1464 281.614 15.4351 277.797C9.72374 273.981 5.27231 268.557 2.64368 262.211C0.015048 255.865 -0.672722 248.882 0.667343 242.145C2.00741 235.408 5.31512 229.22 10.1722 224.363C15.0293 219.506 21.2176 216.198 27.9545 214.858C34.6915 213.518 41.6745 214.205 48.0206 216.834C54.3667 219.463 59.7908 223.914 63.607 229.625C67.4231 235.337 69.46 242.051 69.46 248.92C69.4494 258.128 65.787 266.956 59.2761 273.467C52.7653 279.977 43.9377 283.64 34.73 283.65V283.65ZM34.73 225.13C30.0248 225.13 25.4252 226.526 21.513 229.14C17.6008 231.754 14.5515 235.469 12.7509 239.816C10.9503 244.163 10.4792 248.947 11.3971 253.562C12.3151 258.176 14.5809 262.415 17.9079 265.743C21.235 269.07 25.474 271.335 30.0888 272.253C34.7036 273.171 39.487 272.7 43.8341 270.9C48.1811 269.099 51.8966 266.05 54.5107 262.137C57.1248 258.225 58.52 253.626 58.52 248.92C58.5121 242.613 56.0031 236.567 51.5433 232.107C47.0835 227.647 41.0371 225.138 34.73 225.13V225.13Z" fill="#00ABF8"/>
<path d="M55.0899 523.53C62.0874 523.53 67.7599 517.858 67.7599 510.86C67.7599 503.863 62.0874 498.19 55.0899 498.19C48.0925 498.19 42.4199 503.863 42.4199 510.86C42.4199 517.858 48.0925 523.53 55.0899 523.53Z" fill="#00ABF8"/>
<path d="M654.33 598.69C662.416 598.69 668.97 592.136 668.97 584.05C668.97 575.965 662.416 569.41 654.33 569.41C646.245 569.41 639.69 575.965 639.69 584.05C639.69 592.136 646.245 598.69 654.33 598.69Z" fill="#00ABF8"/>
<path d="M282.8 99.9403C277.048 99.9403 271.426 98.2348 266.644 95.0394C261.862 91.8441 258.134 87.3024 255.933 81.9887C253.732 76.675 253.156 70.828 254.279 65.1871C255.401 59.5461 258.17 54.3645 262.237 50.2976C266.304 46.2307 271.486 43.4611 277.127 42.3391C282.767 41.217 288.615 41.7929 293.928 43.9939C299.242 46.1949 303.784 49.9221 306.979 54.7043C310.174 59.4865 311.88 65.1088 311.88 70.8603C311.872 78.5703 308.805 85.9623 303.354 91.4142C297.902 96.866 290.51 99.9323 282.8 99.9403V99.9403ZM282.8 52.7203C279.212 52.7183 275.703 53.7805 272.719 55.7726C269.735 57.7646 267.408 60.597 266.033 63.9115C264.659 67.226 264.298 70.8736 264.997 74.3931C265.696 77.9126 267.423 81.1457 269.959 83.6837C272.496 86.2216 275.728 87.9503 279.247 88.651C282.766 89.3517 286.414 88.9931 289.729 87.6204C293.045 86.2477 295.878 83.9227 297.872 80.9394C299.866 77.956 300.93 74.4485 300.93 70.8603C300.924 66.0526 299.013 61.4432 295.614 58.0427C292.216 54.6423 287.607 52.7282 282.8 52.7203Z" fill="#00ABF8"/>
<path d="M195.12 126.5C202.725 126.5 208.89 120.335 208.89 112.73C208.89 105.125 202.725 98.96 195.12 98.96C187.515 98.96 181.35 105.125 181.35 112.73C181.35 120.335 187.515 126.5 195.12 126.5Z" fill="#00ABF8"/>
<path d="M93.6902 134.8C99.7819 134.8 104.72 129.862 104.72 123.77C104.72 117.679 99.7819 112.74 93.6902 112.74C87.5985 112.74 82.6602 117.679 82.6602 123.77C82.6602 129.862 87.5985 134.8 93.6902 134.8Z" fill="#00ABF8"/>
<path d="M682.59 272.38C689.069 272.38 694.32 267.128 694.32 260.65C694.32 254.172 689.069 248.92 682.59 248.92C676.112 248.92 670.86 254.172 670.86 260.65C670.86 267.128 676.112 272.38 682.59 272.38Z" fill="#00ABF8"/>
<path d="M526.26 116.36C524.983 116.358 523.746 115.908 522.766 115.089C521.785 114.27 521.122 113.134 520.891 111.877C520.661 110.62 520.878 109.323 521.504 108.209C522.13 107.096 523.127 106.236 524.32 105.78L551 95.6304L525.29 90.7404C524.132 90.5225 523.075 89.9364 522.277 89.0692C521.479 88.2021 520.982 87.1004 520.861 85.9282C520.739 84.7559 521 83.5758 521.603 82.5636C522.207 81.5513 523.121 80.7611 524.21 80.3104L562.51 64.3104C563.174 64.0347 563.886 63.8924 564.604 63.8916C565.323 63.8909 566.035 64.0317 566.7 64.3061C567.364 64.5805 567.968 64.9831 568.477 65.4908C568.986 65.9986 569.389 66.6016 569.665 67.2654C569.941 67.9293 570.083 68.6409 570.084 69.3598C570.085 70.0786 569.944 70.7905 569.67 71.4549C569.395 72.1194 568.993 72.7232 568.485 73.232C567.977 73.7408 567.374 74.1447 566.71 74.4204L545.2 83.4005L572 88.5005C573.174 88.7231 574.242 89.3238 575.042 90.2108C575.842 91.0978 576.33 92.2223 576.431 93.4126C576.532 94.6029 576.24 95.7934 575.601 96.8025C574.962 97.8115 574.01 98.5834 572.89 99.0005L528.21 116C527.588 116.241 526.927 116.363 526.26 116.36V116.36Z" fill="#00ABF8"/>
<path d="M616.35 172.37C623.801 172.37 629.84 166.33 629.84 158.88C629.84 151.429 623.801 145.39 616.35 145.39C608.9 145.39 602.86 151.429 602.86 158.88C602.86 166.33 608.9 172.37 616.35 172.37Z" fill="#00ABF8"/>
<path d="M362.24 508.74C249.04 508.74 156.94 416.64 156.94 303.43V272.38H567.55V303.43C567.55 416.64 475.45 508.74 362.24 508.74ZM178.82 294.27V303.43C178.82 404.57 261.11 486.85 362.24 486.85C463.37 486.85 545.66 404.57 545.66 303.43V294.27H178.82Z" fill="#00ABF8"/>
<path d="M569.2 427.58C566.54 427.58 538.59 427.49 520.56 423.77C519.153 423.478 517.817 422.912 516.629 422.105C515.441 421.297 514.423 420.263 513.634 419.062C512.845 417.861 512.301 416.516 512.032 415.104C511.762 413.693 511.774 412.242 512.065 410.835C512.357 409.428 512.923 408.092 513.731 406.903C514.538 405.715 515.572 404.697 516.774 403.908C517.975 403.12 519.319 402.575 520.731 402.306C522.143 402.037 523.593 402.048 525 402.34C541.34 405.7 569.14 405.69 569.36 405.69C584.136 405.69 598.306 399.82 608.753 389.373C619.201 378.925 625.07 364.755 625.07 349.98C625.07 335.205 619.201 321.035 608.753 310.587C598.306 300.139 584.136 294.27 569.36 294.27C566.515 294.184 563.815 292.993 561.832 290.95C559.85 288.907 558.741 286.172 558.741 283.325C558.741 280.478 559.85 277.743 561.832 275.7C563.815 273.657 566.515 272.466 569.36 272.38C589.941 272.38 609.679 280.556 624.232 295.108C638.785 309.661 646.96 329.399 646.96 349.98C646.96 370.561 638.785 390.299 624.232 404.851C609.679 419.404 589.941 427.58 569.36 427.58H569.2Z" fill="#00ABF8"/>
<path d="M151.47 427.58H151.3C130.719 427.58 110.982 419.404 96.4287 404.851C81.8759 390.299 73.7002 370.561 73.7002 349.98C73.7002 329.399 81.8759 309.661 96.4287 295.108C110.982 280.556 130.719 272.38 151.3 272.38C154.146 272.466 156.846 273.657 158.828 275.7C160.811 277.743 161.919 280.478 161.919 283.325C161.919 286.172 160.811 288.907 158.828 290.95C156.846 292.993 154.146 294.184 151.3 294.27C136.525 294.27 122.355 300.139 111.907 310.587C101.46 321.035 95.5902 335.205 95.5902 349.98C95.5902 364.755 101.46 378.925 111.907 389.373C122.355 399.82 136.525 405.69 151.3 405.69C151.58 405.69 179.37 405.69 195.68 402.34C197.087 402.05 198.538 402.039 199.949 402.31C201.36 402.58 202.704 403.126 203.904 403.916C205.104 404.705 206.137 405.724 206.944 406.913C207.75 408.102 208.315 409.438 208.605 410.845C208.895 412.252 208.906 413.702 208.635 415.114C208.365 416.525 207.819 417.869 207.03 419.069C206.24 420.269 205.221 421.302 204.032 422.109C202.843 422.915 201.507 423.48 200.1 423.77C182.11 427.49 154.16 427.58 151.47 427.58Z" fill="#00ABF8"/>
<path d="M472.3 401.5H248.38C245.479 401.5 242.696 400.348 240.645 398.296C238.593 396.244 237.44 393.462 237.44 390.56C237.44 387.659 238.593 384.876 240.645 382.824C242.696 380.773 245.479 379.62 248.38 379.62H472.3C475.202 379.62 477.985 380.773 480.036 382.824C482.088 384.876 483.24 387.659 483.24 390.56C483.24 393.462 482.088 396.244 480.036 398.296C477.985 400.348 475.202 401.5 472.3 401.5V401.5Z" fill="#00ABF8"/>
<path d="M425.35 443.9H295.35C292.504 443.814 289.804 442.623 287.822 440.58C285.839 438.537 284.73 435.802 284.73 432.955C284.73 430.108 285.839 427.373 287.822 425.33C289.804 423.287 292.504 422.096 295.35 422.01H425.35C426.815 421.966 428.274 422.216 429.641 422.746C431.007 423.276 432.253 424.075 433.305 425.096C434.357 426.117 435.194 427.338 435.765 428.688C436.336 430.038 436.63 431.489 436.63 432.955C436.63 434.421 436.336 435.872 435.765 437.222C435.194 438.572 434.357 439.793 433.305 440.814C432.253 441.835 431.007 442.634 429.641 443.164C428.274 443.694 426.815 443.944 425.35 443.9V443.9Z" fill="#00ABF8"/>
<path d="M425.35 359.11H295.35C292.504 359.024 289.804 357.833 287.822 355.79C285.839 353.747 284.73 351.012 284.73 348.165C284.73 345.318 285.839 342.583 287.822 340.54C289.804 338.497 292.504 337.306 295.35 337.22H425.35C426.815 337.176 428.274 337.426 429.641 337.956C431.007 338.486 432.253 339.285 433.305 340.306C434.357 341.327 435.194 342.548 435.765 343.898C436.336 345.248 436.63 346.699 436.63 348.165C436.63 349.631 436.336 351.082 435.765 352.432C435.194 353.782 434.357 355.003 433.305 356.024C432.253 357.044 431.007 357.844 429.641 358.374C428.274 358.904 426.815 359.154 425.35 359.11V359.11Z" fill="#00ABF8"/>
</g>
<defs>
<clipPath id="clip0">
<rect width="725.47" height="723.83" fill="white"/>
</clipPath>
</defs>
</svg>
