<svg width="764" height="724" viewBox="0 0 764 724" fill="none" xmlns="http://www.w3.org/2000/svg">
<g clip-path="url(#clip0)">
<path d="M18.04 573.08C28.0032 573.08 36.08 565.003 36.08 555.04C36.08 545.077 28.0032 537 18.04 537C8.07678 537 0 545.077 0 555.04C0 565.003 8.07678 573.08 18.04 573.08Z" fill="#0E7DC9"/>
<path d="M716.03 536.53C725.993 536.53 734.07 528.453 734.07 518.49C734.07 508.527 725.993 500.45 716.03 500.45C706.067 500.45 697.99 508.527 697.99 518.49C697.99 528.453 706.067 536.53 716.03 536.53Z" fill="#0E7DC9"/>
<path d="M664.4 144.88C664.4 130.365 658.634 116.444 648.37 106.18C638.106 95.9166 624.185 90.1504 609.67 90.1504H223.33C216.142 90.1491 209.024 91.5637 202.383 94.3136C195.741 97.0634 189.707 101.095 184.624 106.177C179.54 111.259 175.508 117.293 172.757 123.934C170.006 130.575 168.59 137.692 168.59 144.88C168.59 152.068 170.006 159.186 172.757 165.827C175.508 172.468 179.54 178.502 184.624 183.584C189.707 188.666 195.741 192.697 202.383 195.447C209.024 198.197 216.142 199.612 223.33 199.61H230.7C245.216 199.61 259.138 205.376 269.403 215.64C279.669 225.903 285.437 239.824 285.44 254.34V254.34C285.44 268.858 279.673 282.782 269.407 293.047C259.141 303.313 245.218 309.08 230.7 309.08H92.3999C85.2127 309.08 78.0958 310.496 71.4557 313.246C64.8155 315.997 58.7821 320.028 53.7 325.11C48.6178 330.193 44.5864 336.226 41.836 342.866C39.0856 349.506 37.6699 356.623 37.6699 363.81C37.6699 378.326 43.4361 392.246 53.7 402.51C63.9638 412.774 77.8846 418.54 92.3999 418.54H182.48C196.994 418.543 210.914 424.31 221.177 434.573C231.44 444.837 237.207 458.756 237.21 473.27V473.27C237.207 487.785 231.44 501.704 221.177 511.967C210.914 522.231 196.994 527.998 182.48 528H122.48C107.965 528 94.0438 533.767 83.78 544.03C73.5161 554.294 67.7499 568.215 67.7499 582.73V582.73C67.7499 597.246 73.5161 611.166 83.78 621.43C94.0438 631.694 107.965 637.46 122.48 637.46H575.33C589.845 637.46 603.766 631.694 614.03 621.43C624.294 611.166 630.06 597.246 630.06 582.73C630.06 568.215 624.294 554.294 614.03 544.03C603.766 533.767 589.845 528 575.33 528H562.52C555.332 528 548.214 526.584 541.573 523.833C534.933 521.082 528.899 517.05 523.816 511.967C518.734 506.884 514.703 500.849 511.953 494.208C509.203 487.566 507.789 480.448 507.79 473.26V473.26C507.79 466.073 509.206 458.956 511.956 452.316C514.706 445.676 518.738 439.643 523.82 434.56C528.902 429.478 534.936 425.447 541.576 422.696C548.216 419.946 555.333 418.53 562.52 418.53H699.82C714.335 418.53 728.256 412.764 738.52 402.5C748.784 392.236 754.55 378.316 754.55 363.8C754.55 349.285 748.784 335.364 738.52 325.1C728.256 314.837 714.335 309.07 699.82 309.07H610.75C603.561 309.072 596.443 307.657 589.801 304.907C583.159 302.158 577.124 298.127 572.04 293.044C566.956 287.962 562.923 281.929 560.171 275.288C557.418 268.647 556.001 261.529 556 254.34V253.27C556.003 239.04 561.657 225.393 571.72 215.33C581.782 205.267 595.429 199.613 609.66 199.61V199.61C616.848 199.612 623.966 198.197 630.607 195.447C637.249 192.697 643.283 188.666 648.366 183.584C653.45 178.502 657.482 172.468 660.233 165.827C662.984 159.186 664.4 152.068 664.4 144.88V144.88Z" fill="#E5F5FF"/>
<path d="M405.77 55.8C421.179 55.8 433.67 43.3087 433.67 27.9C433.67 12.4913 421.179 0 405.77 0C390.361 0 377.87 12.4913 377.87 27.9C377.87 43.3087 390.361 55.8 405.77 55.8Z" fill="#E5F5FF"/>
<path d="M617.19 0H494.84C479.432 0 466.94 12.4913 466.94 27.9V27.91C466.94 43.3187 479.432 55.81 494.84 55.81H617.19C632.599 55.81 645.09 43.3187 645.09 27.91V27.9C645.09 12.4913 632.599 0 617.19 0Z" fill="#E5F5FF"/>
<path d="M735.24 668.03H446.61C431.201 668.03 418.71 680.521 418.71 695.93V695.94C418.71 711.349 431.201 723.84 446.61 723.84H735.24C750.649 723.84 763.14 711.349 763.14 695.94V695.93C763.14 680.521 750.649 668.03 735.24 668.03Z" fill="#E5F5FF"/>
<path d="M368.21 668.03H239.49C224.081 668.03 211.59 680.521 211.59 695.93V695.94C211.59 711.349 224.081 723.84 239.49 723.84H368.21C383.619 723.84 396.11 711.349 396.11 695.94V695.93C396.11 680.521 383.619 668.03 368.21 668.03Z" fill="#E5F5FF"/>
<path d="M355.7 93.4C350.221 93.4 344.865 91.7752 340.31 88.731C335.754 85.6869 332.204 81.3601 330.108 76.298C328.011 71.2359 327.463 65.6659 328.533 60.2923C329.603 54.9188 332.242 49.9831 336.117 46.1096C339.992 42.2361 344.928 39.5987 350.302 38.531C355.676 37.4634 361.246 38.0133 366.307 40.1114C371.369 42.2095 375.694 45.7614 378.737 50.318C381.779 54.8746 383.402 60.231 383.4 65.71C383.392 73.0532 380.471 80.0931 375.277 85.2846C370.084 90.476 363.043 93.3947 355.7 93.4V93.4ZM355.7 48.95C352.385 48.95 349.145 49.933 346.389 51.7746C343.632 53.6162 341.484 56.2338 340.216 59.2962C338.947 62.3587 338.615 65.7286 339.262 68.9797C339.909 72.2309 341.505 75.2172 343.849 77.5611C346.193 79.905 349.179 81.5013 352.43 82.148C355.681 82.7947 359.051 82.4628 362.114 81.1942C365.176 79.9257 367.794 77.7775 369.635 75.0214C371.477 72.2652 372.46 69.0248 372.46 65.71C372.457 61.2658 370.691 57.0044 367.548 53.8618C364.406 50.7193 360.144 48.9527 355.7 48.95V48.95Z" fill="#0E7DC9"/>
<path d="M36.0801 378.85C29.5533 378.85 23.1731 376.914 17.7463 373.288C12.3195 369.662 8.08976 364.508 5.59207 358.478C3.09438 352.448 2.44087 345.813 3.71418 339.412C4.98749 333.01 8.13044 327.13 12.7456 322.515C17.3607 317.9 23.2407 314.757 29.6421 313.484C36.0435 312.21 42.6787 312.864 48.7086 315.362C54.7386 317.859 59.8925 322.089 63.5186 327.516C67.1447 332.943 69.0801 339.323 69.0801 345.85C69.0669 354.598 65.5858 362.984 59.4 369.17C53.2142 375.355 44.8282 378.836 36.0801 378.85V378.85ZM36.0801 323.76C31.7122 323.758 27.4419 325.051 23.8093 327.477C20.1768 329.902 17.3452 333.35 15.6727 337.385C14.0003 341.42 13.5622 345.861 14.4139 350.145C15.2655 354.429 17.3686 358.364 20.4572 361.453C23.5457 364.541 27.4809 366.644 31.765 367.496C36.049 368.347 40.4894 367.909 44.5244 366.237C48.5594 364.565 52.0077 361.733 54.4331 358.1C56.8585 354.468 58.1521 350.197 58.1501 345.83C58.1448 339.978 55.8179 334.367 51.6801 330.23C47.5423 326.092 41.9318 323.765 36.0801 323.76V323.76Z" fill="#0E7DC9"/>
<path d="M247.77 120.54C255.375 120.54 261.54 114.375 261.54 106.77C261.54 99.165 255.375 93 247.77 93C240.165 93 234 99.165 234 106.77C234 114.375 240.165 120.54 247.77 120.54Z" fill="#0E7DC9"/>
<path d="M716.03 316.62C724.115 316.62 730.67 310.065 730.67 301.98C730.67 293.894 724.115 287.34 716.03 287.34C707.944 287.34 701.39 293.894 701.39 301.98C701.39 310.065 707.944 316.62 716.03 316.62Z" fill="#0E7DC9"/>
<path d="M662.58 459.61C670.666 459.61 677.22 453.056 677.22 444.97C677.22 436.885 670.666 430.33 662.58 430.33C654.495 430.33 647.94 436.885 647.94 444.97C647.94 453.056 654.495 459.61 662.58 459.61Z" fill="#0E7DC9"/>
<path d="M135.03 143.06C141.122 143.06 146.06 138.122 146.06 132.03C146.06 125.938 141.122 121 135.03 121C128.938 121 124 125.938 124 132.03C124 138.122 128.938 143.06 135.03 143.06Z" fill="#0E7DC9"/>
<path d="M542.478 90.4812C541.202 90.4743 539.968 90.0223 538.99 89.2031C538.011 88.3838 537.349 87.2487 537.118 85.9936C536.887 84.7385 537.101 83.4421 537.724 82.328C538.347 81.2139 539.338 80.3521 540.528 79.8911L567.158 69.7511L541.458 64.8511C540.3 64.6332 539.243 64.047 538.445 63.1799C537.647 62.3128 537.15 61.2111 537.029 60.0389C536.908 58.8666 537.168 57.6865 537.772 56.6743C538.375 55.662 539.29 54.8718 540.378 54.4211L578.668 38.4211C579.332 38.1447 580.043 38.0016 580.761 38C581.48 37.9984 582.191 38.1383 582.856 38.4118C583.52 38.6853 584.124 39.0869 584.633 39.5938C585.143 40.1007 585.547 40.703 585.823 41.3661C586.1 42.0293 586.243 42.7405 586.245 43.4589C586.246 44.1774 586.106 44.8892 585.833 45.5536C585.559 46.218 585.158 46.822 584.651 47.3312C584.144 47.8404 583.542 48.2447 582.878 48.5211L561.418 57.4611L588.178 62.5611C589.35 62.7815 590.418 63.3787 591.219 64.262C592.021 65.1452 592.511 66.2661 592.616 67.4539C592.722 68.6417 592.436 69.8314 591.803 70.8418C591.169 71.8523 590.223 72.6281 589.108 73.0511L544.428 90.0511C543.81 90.3112 543.149 90.4569 542.478 90.4812V90.4812Z" fill="#0E7DC9"/>
<path d="M332 315.173C332 327.045 322.598 336.671 311.002 336.671C299.402 336.671 290 327.045 290 315.173C290 303.296 299.402 293.671 311.002 293.671C322.598 293.671 332 303.296 332 315.173Z" fill="#E8EDFC"/>
<path d="M474 315.173C474 327.045 464.598 336.671 452.998 336.671C441.402 336.671 432 327.045 432 315.173C432 303.296 441.402 293.671 452.998 293.671C464.598 293.671 474 303.296 474 315.173Z" fill="#E8EDFC"/>
<path d="M332 442.669C332 454.269 322.598 463.671 311.002 463.671C299.402 463.671 290 454.269 290 442.669C290 431.073 299.402 421.671 311.002 421.671C322.598 421.671 332 431.073 332 442.669V442.669Z" fill="#E8EDFC"/>
<path d="M474 442.669C474 454.269 464.598 463.671 452.998 463.671C441.402 463.671 432 454.269 432 442.669C432 431.073 441.402 421.671 452.998 421.671C464.598 421.671 474 431.073 474 442.669V442.669Z" fill="#E8EDFC"/>
<path d="M393 548.555C351.082 548.148 309.317 543.496 268.367 534.671L262 537.802C301.678 545.063 341.957 548.703 382.317 548.671C385.942 548.671 389.469 548.613 393 548.555Z" fill="#FFFDFD"/>
<path d="M529.057 541.152L539.967 546.895C542.003 547.97 544.414 547.926 546.415 546.777C548.419 545.627 549.757 543.518 550 541.132L537.729 534.671C537.729 534.671 532.45 536.053 523 537.964L529.057 541.152Z" fill="#FFFDFD"/>
<path d="M182.075 484.628C179.775 484.992 177.714 486.26 176.35 488.148C174.99 490.04 174.442 492.397 174.826 494.693C176.786 506.383 178.907 517.821 181.707 529.675L198.662 525.439C196.105 514.609 193.949 503.123 192.065 491.829C191.249 487.108 186.808 483.911 182.075 484.628V484.628Z" fill="#00ABF8"/>
<path d="M198.661 197.565L181.706 193.328C173.672 229.81 168.427 266.853 166.015 304.131C163.407 341.278 163.331 378.56 165.787 415.719L166.423 424.524C166.591 426.849 167.683 429.005 169.456 430.517C171.228 432.03 173.528 432.766 175.849 432.566C180.618 432.13 184.17 427.969 183.85 423.188L183.226 414.562C180.826 378.196 180.902 341.706 183.454 305.348C185.802 269.089 190.887 233.059 198.661 197.565V197.565Z" fill="#00ABF8"/>
<path d="M169.852 459.688C170.172 461.997 171.344 464.105 173.14 465.59L174.573 466.474C175.097 466.742 175.657 466.942 176.233 467.058C176.757 467.246 177.305 467.354 177.861 467.374C178.445 467.398 179.03 467.382 179.614 467.322C181.902 466.99 183.987 465.81 185.455 464.021C188.291 460.204 187.651 454.835 183.995 451.795C183.078 451.111 182.038 450.602 180.934 450.298C179.842 449.97 178.693 449.854 177.553 449.966C175.253 450.25 173.148 451.395 171.66 453.175C170.244 455.031 169.596 457.364 169.852 459.688V459.688Z" fill="#00ABF8"/>
<path d="M382.458 579.992C327.012 580.244 271.703 574.551 217.473 563.013L191.329 576.083C184.612 579.528 176.438 578.199 171.153 572.81C165.764 567.526 164.436 559.352 167.877 552.635L182.367 523.65C184.528 519.329 189.777 517.581 194.093 519.741C198.414 521.898 200.162 527.151 198.002 531.467L183.511 560.452L212.496 545.954C214.361 545.014 216.501 544.778 218.526 545.294C272.379 556.996 327.348 562.773 382.458 562.513C437.567 562.785 492.541 557.012 546.394 545.294C548.419 544.782 550.559 545.018 552.419 545.958L581.404 560.448L566.914 531.463C565.978 529.599 565.746 527.463 566.254 525.438C577.956 471.585 583.729 416.611 583.469 361.502C583.741 306.392 577.968 251.419 566.254 197.569C565.742 195.545 565.978 193.405 566.91 191.536L581.4 162.551L552.419 177.046C550.551 177.978 548.415 178.21 546.39 177.706C492.537 166.004 437.567 160.231 382.458 160.487C327.348 160.215 272.371 165.988 218.522 177.706C216.497 178.21 214.357 177.974 212.492 177.046L183.511 162.555L198.002 191.536C199.398 194.333 199.202 197.657 197.478 200.262C195.758 202.87 192.781 204.359 189.661 204.171C186.544 203.987 183.763 202.15 182.367 199.358L167.877 170.365C164.432 163.648 165.76 155.47 171.153 150.189C176.434 144.796 184.612 143.468 191.329 146.917L217.473 159.987C271.703 148.445 327.012 142.756 382.458 143.008C437.904 142.756 493.213 148.449 547.443 159.991L573.587 146.921C580.316 143.556 588.442 144.872 593.763 150.189C599.079 155.51 600.404 163.636 597.039 170.365L583.965 196.509C595.507 250.743 601.204 306.056 600.948 361.502C601.204 416.943 595.507 472.257 583.965 526.486L597.039 552.635C600.404 559.368 599.083 567.494 593.763 572.814C588.442 578.135 580.316 579.452 573.587 576.087L547.443 563.017C493.213 574.555 437.904 580.248 382.458 579.992V579.992Z" fill="#00ABF8"/>
<path d="M295.06 309.062C280.578 309.062 268.84 297.324 268.84 282.846C268.84 268.363 280.578 256.625 295.06 256.625C309.539 256.625 321.277 268.363 321.277 282.846C321.261 297.32 309.531 309.05 295.06 309.062ZM295.06 274.104C290.232 274.104 286.319 278.017 286.319 282.846C286.319 287.67 290.232 291.583 295.06 291.583C299.885 291.583 303.798 287.67 303.798 282.846C303.794 278.021 299.885 274.108 295.06 274.104Z" fill="#00ABF8"/>
<path d="M330.018 326.544C327.698 326.544 325.474 325.624 323.837 323.98L301.201 301.348C297.865 297.919 297.897 292.446 301.281 289.066C304.662 285.681 310.135 285.649 313.559 288.985L336.195 311.621C338.696 314.122 339.444 317.883 338.092 321.147C336.739 324.412 333.551 326.544 330.018 326.544V326.544Z" fill="#00ABF8"/>
<path d="M282.734 279.26C280.418 279.264 278.193 278.343 276.557 276.699L253.921 254.063C250.608 250.635 250.656 245.186 254.029 241.813C257.398 238.441 262.851 238.397 266.279 241.709L288.915 264.341C291.412 266.841 292.16 270.602 290.807 273.867C289.455 277.131 286.271 279.26 282.734 279.26Z" fill="#00ABF8"/>
<path d="M260.099 326.544C256.566 326.54 253.382 324.412 252.029 321.147C250.677 317.882 251.421 314.122 253.922 311.625L276.558 288.989C279.982 285.649 285.455 285.685 288.84 289.065C292.22 292.45 292.256 297.923 288.916 301.348L266.28 323.984C264.644 325.624 262.419 326.544 260.099 326.544V326.544Z" fill="#00ABF8"/>
<path d="M307.382 279.259C303.846 279.259 300.661 277.13 299.309 273.866C297.957 270.601 298.705 266.841 301.201 264.34L323.837 241.704C327.266 238.392 332.719 238.44 336.087 241.812C339.46 245.185 339.508 250.634 336.195 254.062L313.559 276.698C311.923 278.339 309.699 279.263 307.382 279.259Z" fill="#00ABF8"/>
<path d="M469.851 309.062C455.373 309.062 443.635 297.324 443.635 282.846C443.635 268.363 455.373 256.625 469.851 256.625C484.334 256.625 496.072 268.363 496.072 282.846C496.056 297.32 484.326 309.05 469.851 309.062ZM469.851 274.104C465.026 274.104 461.114 278.017 461.114 282.846C461.114 287.67 465.026 291.583 469.851 291.583C474.68 291.583 478.593 287.67 478.593 282.846C478.589 278.021 474.676 274.108 469.851 274.104Z" fill="#00ABF8"/>
<path d="M504.81 326.544C502.494 326.544 500.269 325.624 498.633 323.98L475.997 301.348C472.657 297.919 472.693 292.446 476.073 289.066C479.458 285.681 484.931 285.649 488.355 288.985L510.991 311.621C513.492 314.122 514.24 317.883 512.888 321.147C511.535 324.412 508.347 326.544 504.81 326.544V326.544Z" fill="#00ABF8"/>
<path d="M457.529 279.26C455.213 279.264 452.989 278.343 451.352 276.699L428.716 254.063C425.404 250.635 425.452 245.186 428.82 241.813C432.193 238.441 437.642 238.397 441.075 241.709L463.711 264.341C466.207 266.841 466.955 270.602 465.603 273.867C464.251 277.131 461.062 279.26 457.529 279.26Z" fill="#00ABF8"/>
<path d="M434.894 326.544C431.361 326.54 428.173 324.412 426.82 321.147C425.468 317.882 426.216 314.122 428.717 311.625L451.353 288.989C454.777 285.649 460.25 285.685 463.631 289.065C467.015 292.45 467.047 297.923 463.711 301.348L441.075 323.984C439.438 325.624 437.214 326.544 434.894 326.544V326.544Z" fill="#00ABF8"/>
<path d="M482.174 279.259C478.641 279.259 475.457 277.13 474.101 273.866C472.748 270.601 473.496 266.841 475.997 264.34L498.633 241.704C502.061 238.392 507.51 238.44 510.883 241.812C514.256 245.185 514.304 250.634 510.991 254.062L488.355 276.698C486.719 278.339 484.494 279.263 482.174 279.259V279.259Z" fill="#00ABF8"/>
<path d="M295.06 466.378C280.578 466.378 268.84 454.639 268.84 440.157C268.84 425.678 280.578 413.94 295.06 413.94C309.539 413.94 321.277 425.678 321.277 440.157C321.261 454.631 309.531 466.362 295.06 466.378ZM295.06 431.419C290.232 431.419 286.319 435.332 286.319 440.157C286.319 444.986 290.232 448.898 295.06 448.898C299.885 448.898 303.798 444.986 303.798 440.157C303.794 435.332 299.885 431.423 295.06 431.419Z" fill="#00ABF8"/>
<path d="M330.018 483.854C327.698 483.858 325.474 482.933 323.837 481.293L301.201 458.657C297.865 455.233 297.897 449.76 301.281 446.375C304.662 442.994 310.135 442.958 313.559 446.299L336.195 468.935C338.696 471.435 339.444 475.192 338.092 478.461C336.739 481.725 333.551 483.854 330.018 483.854Z" fill="#00ABF8"/>
<path d="M282.734 436.574C280.418 436.578 278.193 435.654 276.557 434.014L253.921 411.378C250.608 407.949 250.656 402.496 254.029 399.128C257.398 395.755 262.851 395.707 266.279 399.02L288.915 421.656C291.412 424.156 292.16 427.913 290.807 431.177C289.455 434.442 286.271 436.574 282.734 436.574Z" fill="#00ABF8"/>
<path d="M260.099 483.855C256.566 483.855 253.382 481.727 252.029 478.462C250.677 475.194 251.421 471.437 253.922 468.937L276.558 446.301C279.982 442.964 285.455 442.996 288.84 446.381C292.22 449.762 292.256 455.234 288.916 458.659L266.28 481.295C264.644 482.939 262.419 483.859 260.099 483.855V483.855Z" fill="#00ABF8"/>
<path d="M307.382 436.574C303.846 436.574 300.661 434.446 299.309 431.177C297.957 427.913 298.705 424.156 301.201 421.656L323.837 399.02C327.266 395.707 332.719 395.755 336.087 399.128C339.46 402.496 339.508 407.949 336.195 411.378L313.559 434.014C311.923 435.654 309.699 436.574 307.382 436.574Z" fill="#00ABF8"/>
<path d="M469.851 466.378C455.373 466.378 443.635 454.639 443.635 440.157C443.635 425.678 455.373 413.94 469.851 413.94C484.334 413.94 496.072 425.678 496.072 440.157C496.056 454.631 484.326 466.362 469.851 466.378ZM469.851 431.419C465.026 431.419 461.114 435.332 461.114 440.157C461.114 444.986 465.026 448.898 469.851 448.898C474.68 448.898 478.593 444.986 478.593 440.157C478.589 435.332 474.676 431.423 469.851 431.419Z" fill="#00ABF8"/>
<path d="M504.81 483.854C502.494 483.858 500.269 482.933 498.633 481.293L475.997 458.657C472.657 455.233 472.693 449.76 476.073 446.375C479.458 442.994 484.931 442.958 488.355 446.299L510.991 468.935C513.492 471.435 514.24 475.192 512.888 478.461C511.535 481.725 508.347 483.854 504.81 483.854V483.854Z" fill="#00ABF8"/>
<path d="M457.529 436.574C455.213 436.578 452.989 435.654 451.352 434.014L428.716 411.378C425.404 407.949 425.452 402.496 428.82 399.128C432.193 395.755 437.642 395.707 441.075 399.02L463.711 421.656C466.207 424.156 466.955 427.913 465.603 431.177C464.251 434.442 461.062 436.574 457.529 436.574Z" fill="#00ABF8"/>
<path d="M434.894 483.855C431.361 483.855 428.173 481.727 426.82 478.462C425.468 475.194 426.216 471.437 428.717 468.937L451.353 446.301C454.777 442.964 460.25 442.996 463.631 446.381C467.015 449.762 467.047 455.234 463.711 458.659L441.075 481.295C439.438 482.939 437.214 483.859 434.894 483.855V483.855Z" fill="#00ABF8"/>
<path d="M482.174 436.574C478.641 436.574 475.457 434.446 474.101 431.177C472.748 427.913 473.496 424.156 475.997 421.656L498.633 399.02C502.061 395.707 507.51 395.755 510.883 399.128C514.256 402.496 514.304 407.949 510.991 411.378L488.355 434.014C486.719 435.654 484.494 436.574 482.174 436.574V436.574Z" fill="#00ABF8"/>
</g>
<defs>
<clipPath id="clip0">
<rect width="763.14" height="723.83" fill="white"/>
</clipPath>
</defs>
</svg>
