<svg width="817" height="756" viewBox="0 0 817 756" fill="none" xmlns="http://www.w3.org/2000/svg">
<path d="M665.8 176.46C665.8 169.273 664.384 162.156 661.633 155.516C658.883 148.876 654.852 142.843 649.77 137.761C644.687 132.678 638.654 128.647 632.014 125.897C625.374 123.146 618.257 121.73 611.07 121.73H224.72C210.206 121.733 196.288 127.5 186.026 137.764C175.764 148.028 170 161.947 170 176.46C170 190.976 175.766 204.897 186.03 215.16C196.293 225.424 210.214 231.19 224.73 231.19H232.11C246.625 231.19 260.546 236.957 270.81 247.221C281.073 257.484 286.84 271.405 286.84 285.92V285.92C286.841 293.109 285.426 300.226 282.676 306.868C279.927 313.509 275.895 319.544 270.813 324.627C265.731 329.71 259.697 333.742 253.056 336.493C246.415 339.245 239.298 340.66 232.11 340.66H93.7896C79.2743 340.66 65.3535 346.427 55.0896 356.69C44.8257 366.954 39.0596 380.875 39.0596 395.39V395.39C39.0596 409.906 44.8257 423.827 55.0896 434.09C65.3535 444.354 79.2743 450.12 93.7896 450.12H183.87C198.385 450.12 212.306 455.887 222.57 466.151C232.833 476.414 238.6 490.335 238.6 504.85V504.85C238.601 512.039 237.186 519.157 234.436 525.798C231.687 532.439 227.655 538.474 222.573 543.557C217.491 548.64 211.457 552.672 204.816 555.423C198.175 558.174 191.058 559.59 183.87 559.59H123.87C109.354 559.59 95.4335 565.357 85.1696 575.621C74.9057 585.884 69.1396 599.805 69.1396 614.32V614.32C69.1396 628.836 74.9057 642.757 85.1696 653.02C95.4335 663.284 109.354 669.05 123.87 669.05H576.72C583.908 669.052 591.026 667.637 597.667 664.887C604.308 662.137 610.343 658.106 615.426 653.024C620.509 647.942 624.541 641.908 627.293 635.267C630.044 628.626 631.46 621.509 631.46 614.32V614.32C631.46 607.132 630.044 600.015 627.293 593.374C624.541 586.733 620.509 580.699 615.426 575.617C610.343 570.535 604.308 566.503 597.667 563.754C591.026 561.004 583.908 559.589 576.72 559.59H563.91C549.393 559.588 535.473 553.819 525.209 543.554C514.945 533.288 509.18 519.367 509.18 504.85V504.85C509.18 490.335 514.946 476.414 525.21 466.151C535.473 455.887 549.394 450.12 563.91 450.12H701.21C708.402 450.128 715.525 448.719 722.172 445.972C728.819 443.225 734.86 439.195 739.948 434.112C745.037 429.029 749.074 422.993 751.828 416.349C754.582 409.705 756 402.583 756 395.39V395.39C756 388.202 754.584 381.085 751.833 374.444C749.081 367.803 745.049 361.769 739.966 356.687C734.883 351.605 728.848 347.574 722.207 344.824C715.566 342.074 708.448 340.659 701.26 340.66H612.14C604.951 340.66 597.834 339.245 591.193 336.493C584.552 333.742 578.518 329.71 573.436 324.627C568.354 319.544 564.323 313.509 561.573 306.868C558.823 300.226 557.408 293.109 557.41 285.92V284.85C557.408 277.803 558.795 270.825 561.492 264.314C564.188 257.803 568.14 251.887 573.123 246.904C578.106 241.921 584.022 237.969 590.533 235.272C597.044 232.576 604.022 231.189 611.07 231.19V231.19C618.257 231.19 625.374 229.775 632.014 227.024C638.654 224.274 644.687 220.243 649.77 215.16C654.852 210.078 658.883 204.045 661.633 197.405C664.384 190.765 665.8 183.648 665.8 176.46Z" fill="#E5F5FF"/>
<path d="M407.16 87.3801C422.569 87.3801 435.06 74.8888 435.06 59.4801C435.06 44.0713 422.569 31.5801 407.16 31.5801C391.751 31.5801 379.26 44.0713 379.26 59.4801C379.26 74.8888 391.751 87.3801 407.16 87.3801Z" fill="#E5F5FF"/>
<path d="M618.58 31.5801H496.23C480.821 31.5801 468.33 44.0713 468.33 59.4801V59.4901C468.33 74.8988 480.821 87.3901 496.23 87.3901H618.58C633.989 87.3901 646.48 74.8988 646.48 59.4901V59.4801C646.48 44.0713 633.989 31.5801 618.58 31.5801Z" fill="#E5F5FF"/>
<path d="M736.64 699.61H448.01C432.602 699.61 420.11 712.102 420.11 727.51V727.52C420.11 742.929 432.602 755.42 448.01 755.42H736.64C752.049 755.42 764.54 742.929 764.54 727.52V727.51C764.54 712.102 752.049 699.61 736.64 699.61Z" fill="#E5F5FF"/>
<path d="M369.6 699.61H240.88C225.472 699.61 212.98 712.102 212.98 727.51V727.52C212.98 742.929 225.472 755.42 240.88 755.42H369.6C385.009 755.42 397.5 742.929 397.5 727.52V727.51C397.5 712.102 385.009 699.61 369.6 699.61Z" fill="#E5F5FF"/>
<path d="M234.83 60.46C228.851 60.46 223.006 58.6871 218.035 55.3653C213.063 52.0436 209.189 47.3223 206.901 41.7985C204.613 36.2747 204.014 30.1965 205.18 24.3324C206.347 18.4684 209.226 13.0819 213.454 8.85418C217.682 4.62643 223.068 1.74731 228.932 0.580875C234.796 -0.585557 240.874 0.0130982 246.398 2.30114C251.922 4.58917 256.643 8.46383 259.965 13.4351C263.287 18.4064 265.06 24.2511 265.06 30.23C265.052 38.2451 261.864 45.9296 256.197 51.5971C250.529 57.2646 242.845 60.4521 234.83 60.46V60.46ZM234.83 10.94C231.014 10.94 227.285 12.0714 224.113 14.191C220.94 16.3106 218.468 19.3233 217.008 22.848C215.548 26.3728 215.166 30.2514 215.91 33.9933C216.655 37.7352 218.492 41.1724 221.19 43.8701C223.887 46.5679 227.324 48.4051 231.066 49.1494C234.808 49.8937 238.687 49.5117 242.212 48.0517C245.736 46.5916 248.749 44.1192 250.869 40.947C252.988 37.7747 254.12 34.0452 254.12 30.23C254.114 25.1156 252.08 20.2122 248.464 16.5958C244.847 12.9793 239.944 10.9453 234.83 10.94V10.94Z" fill="#0E7DC9"/>
<path d="M36.16 306.32C29.0099 306.32 22.0203 304.2 16.0747 300.229C10.1291 296.257 5.49439 290.612 2.75635 284.007C0.0183179 277.402 -0.700103 270.133 0.6919 263.12C2.0839 256.107 5.52384 249.664 10.5769 244.605C15.63 239.547 22.0693 236.099 29.081 234.7C36.0928 233.3 43.3621 234.01 49.9701 236.741C56.5782 239.472 62.2284 244.1 66.2065 250.042C70.1846 255.983 72.3121 262.97 72.32 270.12C72.32 279.714 68.5116 288.915 61.7314 295.703C54.9512 302.491 45.7539 306.309 36.16 306.32ZM36.16 244.95C31.1722 244.95 26.2965 246.43 22.1499 249.201C18.0033 251.973 14.7721 255.913 12.8652 260.522C10.9583 265.131 10.4614 270.202 11.4374 275.093C12.4133 279.984 14.8183 284.476 18.348 288C21.8777 291.524 26.3734 293.922 31.2663 294.89C36.1592 295.859 41.2294 295.354 45.8352 293.44C50.441 291.525 54.3755 288.288 57.1408 284.137C59.9061 279.986 61.3779 275.108 61.37 270.12C61.3594 263.437 58.7 257.031 53.9745 252.306C49.249 247.58 42.8429 244.921 36.16 244.91V244.95Z" fill="#0E7DC9"/>
<path d="M726.16 142.02C737.366 142.02 746.45 132.936 746.45 121.73C746.45 110.525 737.366 101.44 726.16 101.44C714.954 101.44 705.87 110.525 705.87 121.73C705.87 132.936 714.954 142.02 726.16 142.02Z" fill="#0E7DC9"/>
<path d="M119.61 669.22C130.44 669.22 139.22 660.44 139.22 649.61C139.22 638.78 130.44 630 119.61 630C108.78 630 100 638.78 100 649.61C100 660.44 108.78 669.22 119.61 669.22Z" fill="#0E7DC9"/>
<path d="M91.04 609.08C101.003 609.08 109.08 601.003 109.08 591.04C109.08 581.077 101.003 573 91.04 573C81.0768 573 73 581.077 73 591.04C73 601.003 81.0768 609.08 91.04 609.08Z" fill="#0E7DC9"/>
<path d="M84.9296 172.3C95.6273 172.3 104.3 163.627 104.3 152.93C104.3 142.232 95.6273 133.56 84.9296 133.56C74.2318 133.56 65.5596 142.232 65.5596 152.93C65.5596 163.627 74.2318 172.3 84.9296 172.3Z" fill="#0E7DC9"/>
<path d="M721.26 665.52C732.449 665.52 741.52 656.449 741.52 645.26C741.52 634.071 732.449 625 721.26 625C710.071 625 701 634.071 701 645.26C701 656.449 710.071 665.52 721.26 665.52Z" fill="#0E7DC9"/>
<path d="M766.7 260.43C765.42 260.435 764.178 259.991 763.191 259.176C762.203 258.361 761.533 257.226 761.295 255.967C761.057 254.709 761.268 253.407 761.89 252.288C762.512 251.169 763.506 250.303 764.7 249.84L791.33 239.7L765.63 234.8C764.472 234.582 763.415 233.996 762.617 233.129C761.819 232.262 761.322 231.16 761.201 229.988C761.08 228.816 761.34 227.636 761.944 226.624C762.547 225.611 763.461 224.821 764.55 224.37L802.84 208.37C803.504 208.094 804.215 207.951 804.933 207.949C805.652 207.948 806.363 208.088 807.028 208.361C807.692 208.635 808.296 209.036 808.805 209.543C809.315 210.05 809.719 210.652 809.995 211.315C810.272 211.979 810.415 212.69 810.416 213.408C810.418 214.127 810.278 214.838 810.005 215.503C809.731 216.167 809.33 216.771 808.823 217.28C808.316 217.79 807.714 218.194 807.05 218.47L785.59 227.41L812.35 232.51C813.522 232.731 814.59 233.328 815.391 234.211C816.192 235.094 816.683 236.215 816.788 237.403C816.894 238.591 816.608 239.781 815.975 240.791C815.341 241.802 814.395 242.577 813.28 243L768.6 260C767.997 260.255 767.354 260.4 766.7 260.43V260.43Z" fill="#0E7DC9"/>
<path d="M656.13 417.08H175.76C172.86 417.066 170.082 415.909 168.032 413.858C165.981 411.807 164.823 409.03 164.81 406.13V201C164.27 197 163.64 185.86 171.62 176.77C178.78 168.61 190.19 165.03 205.49 166.15C208.387 166.36 211.083 167.714 212.982 169.912C214.882 172.11 215.831 174.972 215.62 177.87C215.409 180.767 214.056 183.462 211.858 185.362C209.66 187.262 206.797 188.21 203.9 188C196.21 187.44 190.47 188.59 188.13 191.16C186 193.49 186.42 197.45 186.5 198.06C186.658 198.751 186.726 199.461 186.7 200.17V395.17H645.18V200.17C645.18 195.07 638.18 189.39 628.18 189.39C626.715 189.434 625.256 189.184 623.889 188.653C622.522 188.123 621.276 187.324 620.224 186.304C619.172 185.283 618.336 184.061 617.765 182.711C617.193 181.361 616.899 179.91 616.899 178.445C616.899 176.979 617.193 175.528 617.765 174.178C618.336 172.828 619.172 171.606 620.224 170.586C621.276 169.565 622.522 168.766 623.889 168.236C625.256 167.706 626.715 167.455 628.18 167.5C649.65 167.5 667.12 182.16 667.12 200.17V406.17C667.116 407.608 666.829 409.031 666.274 410.359C665.719 411.686 664.908 412.89 663.887 413.904C662.867 414.917 661.656 415.719 660.325 416.264C658.994 416.809 657.568 417.086 656.13 417.08V417.08Z" fill="#0E7DC9"/>
<path d="M614.46 259.39C610.658 259.403 606.896 258.615 603.419 257.076C599.941 255.537 596.828 253.283 594.28 250.46C543.21 261.22 494.39 254.46 472.33 250.22C469.784 253.116 466.646 255.433 463.129 257.015C459.612 258.597 455.797 259.407 451.94 259.39C446.563 259.397 441.305 257.811 436.828 254.833C432.351 251.855 428.856 247.618 426.783 242.657C424.71 237.696 424.153 232.232 425.181 226.954C426.209 221.676 428.777 216.821 432.56 213C425.09 183.67 429.51 154.84 432.63 140.84C430.066 138.259 428.045 135.188 426.688 131.812C425.331 128.435 424.665 124.821 424.729 121.182C424.794 117.544 425.587 113.955 427.063 110.629C428.539 107.302 430.668 104.306 433.322 101.816C435.977 99.327 439.104 97.3955 442.518 96.136C445.932 94.8766 449.564 94.3148 453.2 94.4839C456.835 94.6531 460.399 95.5497 463.682 97.1207C466.964 98.6918 469.898 100.905 472.31 103.63C522.84 93.5404 572.31 99.5204 594.36 103.25C596.816 100.56 599.786 98.3891 603.094 96.8655C606.403 95.3419 609.983 94.4965 613.624 94.3794C617.264 94.2622 620.891 94.8755 624.291 96.1832C627.691 97.4909 630.794 99.4665 633.418 101.993C636.041 104.52 638.132 107.547 639.567 110.895C641.001 114.243 641.751 117.844 641.771 121.487C641.79 125.129 641.08 128.739 639.682 132.102C638.284 135.466 636.226 138.515 633.63 141.07C642.34 172.77 638.02 198.14 633.57 212.69C637.429 216.484 640.072 221.34 641.162 226.641C642.251 231.941 641.739 237.446 639.689 242.454C637.64 247.463 634.146 251.748 629.653 254.764C625.16 257.78 619.872 259.39 614.46 259.39ZM599.3 227.15C601.497 227.15 603.642 227.811 605.458 229.047C607.274 230.283 608.675 232.037 609.48 234.08C609.802 234.91 610.326 235.646 611.004 236.222C611.682 236.798 612.493 237.196 613.363 237.38C614.234 237.564 615.136 237.528 615.989 237.275C616.842 237.022 617.619 236.56 618.248 235.931C618.878 235.302 619.341 234.527 619.595 233.674C619.849 232.821 619.887 231.919 619.704 231.048C619.522 230.177 619.125 229.366 618.55 228.687C617.975 228.008 617.239 227.483 616.41 227.16C615.064 226.621 613.837 225.82 612.802 224.804C611.766 223.789 610.941 222.578 610.375 221.243C609.809 219.907 609.513 218.473 609.504 217.022C609.494 215.571 609.772 214.133 610.32 212.79C614.38 202.99 622.53 176.28 610.48 140.15C609.609 137.544 609.75 134.705 610.877 132.198C612.004 129.691 614.032 127.7 616.56 126.62C617.38 126.286 618.105 125.754 618.67 125.072C619.234 124.39 619.621 123.578 619.797 122.71C619.972 121.842 619.93 120.944 619.674 120.096C619.418 119.248 618.956 118.477 618.33 117.851C617.704 117.224 616.932 116.763 616.084 116.507C615.237 116.251 614.339 116.209 613.471 116.384C612.602 116.559 611.791 116.946 611.109 117.511C610.427 118.076 609.895 118.8 609.56 119.62C608.555 121.921 606.792 123.809 604.565 124.969C602.339 126.13 599.782 126.494 597.32 126C581.4 122.88 525.14 113.67 469.65 126.57C467.066 127.159 464.357 126.795 462.02 125.546C459.683 124.297 457.876 122.246 456.93 119.77C456.557 118.744 455.876 117.858 454.982 117.232C454.087 116.606 453.022 116.27 451.93 116.27C450.707 116.262 449.519 116.673 448.563 117.436C447.607 118.198 446.941 119.266 446.678 120.46C446.415 121.654 446.569 122.903 447.115 123.996C447.662 125.09 448.567 125.964 449.68 126.47C452.023 127.588 453.895 129.497 454.965 131.862C456.036 134.226 456.236 136.893 455.53 139.39C453.63 146.03 444.7 180.8 455.59 213.84C456.439 216.402 456.309 219.187 455.228 221.659C454.146 224.131 452.188 226.116 449.73 227.23C448.607 227.729 447.69 228.599 447.132 229.694C446.575 230.789 446.412 232.043 446.67 233.244C446.928 234.446 447.592 235.522 448.55 236.291C449.508 237.061 450.701 237.477 451.93 237.47C453.018 237.471 454.08 237.139 454.974 236.519C455.868 235.899 456.551 235.02 456.93 234C457.872 231.545 459.668 229.511 461.987 228.272C464.307 227.032 466.995 226.669 469.56 227.25C485.15 230.78 540.41 241.25 596.7 227.43C597.553 227.235 598.425 227.141 599.3 227.15V227.15Z" fill="#00ABF8"/>
<path d="M380.89 259.39C377.087 259.403 373.325 258.615 369.848 257.076C366.371 255.537 363.257 253.283 360.71 250.46C309.64 261.22 260.82 254.46 238.76 250.22C236.213 253.116 233.075 255.433 229.558 257.015C226.041 258.597 222.226 259.407 218.37 259.39C212.994 259.395 207.737 257.807 203.261 254.829C198.786 251.85 195.292 247.613 193.221 242.652C191.149 237.691 190.593 232.228 191.621 226.951C192.649 221.675 195.217 216.82 199 213C191.53 183.67 195.95 154.84 199.07 140.84C196.505 138.259 194.484 135.188 193.127 131.812C191.77 128.435 191.104 124.821 191.169 121.182C191.233 117.544 192.027 113.955 193.503 110.629C194.979 107.302 197.107 104.306 199.762 101.816C202.416 99.327 205.543 97.3955 208.957 96.136C212.372 94.8766 216.004 94.3148 219.639 94.4839C223.274 94.6531 226.839 95.5497 230.121 97.1207C233.404 98.6918 236.338 100.905 238.75 103.63C289.28 93.5404 338.75 99.5204 360.8 103.25C363.255 100.56 366.225 98.3891 369.534 96.8655C372.842 95.3419 376.422 94.4965 380.063 94.3794C383.704 94.2622 387.331 94.8755 390.731 96.1832C394.13 97.4909 397.233 99.4665 399.857 101.993C402.481 104.52 404.572 107.547 406.006 110.895C407.441 114.243 408.19 117.844 408.21 121.487C408.23 125.129 407.52 128.739 406.122 132.102C404.723 135.466 402.666 138.515 400.07 141.07C408.78 172.77 404.46 198.14 400.01 212.69C403.869 216.484 406.511 221.34 407.601 226.641C408.691 231.941 408.178 237.446 406.129 242.454C404.08 247.463 400.586 251.748 396.093 254.764C391.6 257.78 386.311 259.39 380.9 259.39H380.89ZM365.73 227.15C367.926 227.15 370.072 227.811 371.887 229.047C373.703 230.283 375.105 232.037 375.91 234.08C376.231 234.91 376.755 235.646 377.433 236.222C378.111 236.798 378.922 237.196 379.792 237.38C380.663 237.564 381.566 237.528 382.419 237.275C383.272 237.022 384.048 236.56 384.678 235.931C385.307 235.302 385.77 234.527 386.024 233.674C386.279 232.821 386.316 231.919 386.134 231.048C385.951 230.177 385.554 229.366 384.979 228.687C384.404 228.008 383.669 227.483 382.84 227.16C381.493 226.621 380.267 225.82 379.231 224.804C378.195 223.789 377.371 222.578 376.805 221.243C376.239 219.907 375.942 218.473 375.933 217.022C375.923 215.571 376.201 214.133 376.75 212.79C380.81 202.99 388.96 176.28 376.91 140.15C376.039 137.542 376.182 134.702 377.31 132.195C378.439 129.688 380.47 127.698 383 126.62C383.812 126.278 384.527 125.74 385.083 125.055C385.638 124.37 386.016 123.559 386.184 122.694C386.352 121.828 386.303 120.934 386.044 120.092C385.784 119.249 385.321 118.483 384.696 117.862C384.07 117.241 383.301 116.783 382.456 116.53C381.612 116.276 380.718 116.234 379.854 116.408C378.989 116.582 378.181 116.966 377.5 117.526C376.819 118.086 376.287 118.806 375.95 119.62C374.954 121.92 373.2 123.809 370.979 124.97C368.758 126.131 366.206 126.495 363.75 126C347.83 122.88 291.57 113.67 236.08 126.57C233.496 127.159 230.787 126.795 228.45 125.546C226.113 124.297 224.305 122.246 223.36 119.77C222.986 118.744 222.306 117.858 221.411 117.232C220.517 116.606 219.451 116.27 218.36 116.27C217.137 116.262 215.948 116.673 214.992 117.436C214.036 118.198 213.371 119.266 213.107 120.46C212.844 121.654 212.998 122.903 213.545 123.996C214.091 125.09 214.997 125.964 216.11 126.47C218.466 127.582 220.351 129.494 221.43 131.865C222.509 134.237 222.71 136.914 222 139.42C220.1 146.06 211.17 180.83 222.06 213.87C222.908 216.432 222.779 219.217 221.697 221.689C220.615 224.161 218.657 226.146 216.2 227.26C215.076 227.759 214.159 228.629 213.602 229.724C213.044 230.819 212.881 232.073 213.139 233.274C213.397 234.476 214.061 235.552 215.019 236.321C215.977 237.091 217.171 237.507 218.4 237.5C219.488 237.501 220.55 237.169 221.444 236.549C222.337 235.929 223.02 235.05 223.4 234.03C224.341 231.581 226.132 229.552 228.445 228.313C230.758 227.074 233.439 226.707 236 227.28C251.59 230.81 306.85 241.28 363.14 227.46C363.988 227.255 364.857 227.151 365.73 227.15V227.15Z" fill="#00ABF8"/>
<path d="M658.39 691.79H173.2C167.997 691.782 163.01 689.711 159.332 686.031C155.654 682.351 153.585 677.362 153.58 672.16V406.33C153.58 403.428 154.733 400.646 156.784 398.594C158.836 396.542 161.619 395.39 164.52 395.39H667.07C669.97 395.392 672.75 396.546 674.799 398.597C676.849 400.649 678 403.43 678 406.33V672.16C677.992 677.36 675.924 682.345 672.249 686.024C668.574 689.703 663.59 691.776 658.39 691.79V691.79ZM175.47 669.9H656.13V417.28H175.47V669.9Z" fill="#00ABF8"/>
<path d="M132.882 268.36C132.842 266.682 132.104 265.059 130.762 263.701C129.421 262.343 127.539 261.313 125.362 260.745C123.185 260.177 120.813 260.098 118.555 260.518C116.298 260.938 114.258 261.837 112.703 263.099C111.396 264.167 80.2933 289.721 61.3436 333.313C43.9167 373.425 33.994 437.056 85.7301 512.251C86.4028 513.229 87.3375 514.1 88.4809 514.813C89.6242 515.526 90.9539 516.068 92.3939 516.408C93.834 516.747 95.3561 516.878 96.8736 516.792C98.3911 516.706 99.8741 516.406 101.238 515.908C102.602 515.409 103.82 514.723 104.822 513.889C105.825 513.054 106.593 512.087 107.081 511.043C107.57 509.999 107.77 508.898 107.671 507.804C107.571 506.709 107.174 505.642 106.501 504.664C67.8853 448.516 60.0178 392.735 83.1699 338.866C100.474 298.512 129.685 274.359 129.976 274.116C131.914 272.522 132.952 270.466 132.882 268.36V268.36Z" fill="#00ABF8"/>
<path d="M128.092 468.793C127.992 466.433 127.057 464.169 125.43 462.352C123.804 460.535 121.578 459.265 119.096 458.739C116.613 458.213 114.014 458.461 111.698 459.443C109.383 460.426 107.481 462.088 106.287 464.174L90.0123 493.842L54.2615 486.369C52.77 486.022 51.2189 485.955 49.6992 486.172C48.1796 486.39 46.7222 486.887 45.4127 487.635C44.1033 488.383 42.9684 489.366 42.0746 490.526C41.1809 491.687 40.5463 493.002 40.2084 494.393C39.8705 495.785 39.8359 497.225 40.1068 498.629C40.3778 500.033 40.9487 501.373 41.7859 502.569C42.6232 503.766 43.7099 504.795 44.9822 505.596C46.2544 506.397 47.6866 506.954 49.1943 507.234L93.6712 516.541C96.1708 517.054 98.7831 516.784 101.1 515.774C103.417 514.764 105.307 513.071 106.477 510.958L126.83 473.853C127.699 472.291 128.133 470.551 128.092 468.793V468.793Z" fill="#00ABF8"/>
<path d="M697.761 267.359C697.8 265.682 698.52 264.058 699.826 262.699C701.132 261.34 702.963 260.31 705.082 259.741C707.201 259.172 709.51 259.092 711.707 259.511C713.904 259.93 715.888 260.828 717.4 262.089C718.672 263.156 748.928 288.697 767.347 332.279C784.287 372.383 793.912 436.007 743.528 511.223C742.872 512.202 741.962 513.073 740.849 513.787C739.736 514.501 738.442 515.043 737.041 515.383C735.639 515.723 734.158 515.855 732.681 515.77C731.204 515.684 729.761 515.385 728.434 514.887C727.107 514.389 725.922 513.704 724.947 512.87C723.972 512.036 723.225 511.069 722.75 510.025C722.275 508.981 722.08 507.881 722.178 506.786C722.275 505.692 722.662 504.624 723.318 503.646C760.925 447.482 768.608 391.699 746.104 337.842C729.284 297.496 700.869 273.357 700.586 273.114C698.701 271.521 697.691 269.465 697.761 267.359V267.359Z" fill="#00ABF8"/>
<path d="M697.761 267.359C697.8 265.682 698.52 264.058 699.826 262.699C701.132 261.34 702.963 260.31 705.082 259.741C707.201 259.172 709.51 259.092 711.707 259.511C713.904 259.93 715.888 260.828 717.4 262.089C718.672 263.156 748.928 288.697 767.347 332.279C784.287 372.383 793.912 436.007 743.528 511.223C742.872 512.202 741.962 513.073 740.849 513.787C739.736 514.501 738.442 515.043 737.041 515.383C735.639 515.723 734.158 515.855 732.681 515.77C731.204 515.684 729.761 515.385 728.434 514.887C727.107 514.389 725.922 513.704 724.947 512.87C723.972 512.036 723.225 511.069 722.75 510.025C722.275 508.981 722.08 507.881 722.178 506.786C722.275 505.692 722.662 504.624 723.318 503.646C760.925 447.482 768.608 391.699 746.104 337.842C729.284 297.496 700.869 273.357 700.586 273.114C698.701 271.521 697.691 269.465 697.761 267.359V267.359Z" fill="#00ABF8"/>
<path d="M702.3 467.789C702.398 465.429 703.308 463.166 704.891 461.348C706.473 459.531 708.64 458.261 711.056 457.735C713.471 457.209 716.001 457.457 718.254 458.439C720.507 459.422 722.358 461.084 723.52 463.17L739.358 492.838L774.148 485.365C775.6 485.018 777.109 484.951 778.588 485.169C780.067 485.386 781.485 485.883 782.759 486.631C784.034 487.379 785.138 488.362 786.008 489.522C786.878 490.683 787.495 491.998 787.824 493.389C788.153 494.781 788.186 496.221 787.923 497.625C787.659 499.029 787.104 500.369 786.289 501.565C785.474 502.762 784.417 503.791 783.178 504.592C781.94 505.393 780.547 505.95 779.079 506.23L735.797 515.538C733.365 516.05 730.823 515.78 728.568 514.77C726.314 513.76 724.474 512.067 723.336 509.954L703.529 472.849C702.683 471.287 702.261 469.547 702.3 467.789V467.789Z" fill="#00ABF8"/>
</svg>
