<svg width="405" height="91" viewBox="0 0 405 91" fill="none" xmlns="http://www.w3.org/2000/svg">
<path d="M160 74.7083C160 71.8058 162.216 69.689 165.204 69.689C166.718 69.689 168.037 70.2079 168.933 71.2179L168.021 72.1018C167.264 71.3015 166.339 70.9378 165.258 70.9378C163.042 70.9378 161.401 72.5371 161.401 74.7097C161.401 76.8836 163.042 78.4828 165.258 78.4828C166.339 78.4828 167.264 78.1045 168.021 77.3043L168.933 78.1882C168.036 79.1981 166.717 79.7303 165.189 79.7303C162.215 79.729 160 77.6122 160 74.7083Z" fill="#46ABD2"/>
<path d="M169.747 75.8999C169.747 73.6849 171.387 72.1135 173.618 72.1135C175.849 72.1135 177.475 73.6849 177.475 75.8999C177.475 78.1163 175.848 79.701 173.618 79.701C171.388 79.701 169.747 78.1163 169.747 75.8999ZM176.113 75.8999C176.113 74.3153 175.047 73.2921 173.617 73.2921C172.186 73.2921 171.107 74.3153 171.107 75.8999C171.107 77.4846 172.186 78.5238 173.617 78.5238C175.049 78.5238 176.113 77.4846 176.113 75.8999Z" fill="#46ABD2"/>
<path d="M186.392 75.3398V79.6172H185.046V75.4937C185.046 74.0352 184.316 73.3185 183.041 73.3185C181.61 73.3185 180.685 74.1745 180.685 75.787V79.6172H179.338V72.1851H180.628V73.3065C181.175 72.5487 182.129 72.1147 183.308 72.1147C185.117 72.1147 186.392 73.1513 186.392 75.3398Z" fill="#46ABD2"/>
<path d="M190.403 71.5389V72.1852H192.562V73.2921H190.431V79.6174H189.084V73.2921H187.821V72.1852H189.084V71.5256C189.084 70.0817 189.953 69.1274 191.537 69.1274C192.112 69.1274 192.674 69.2681 193.052 69.5627L192.646 70.586C192.366 70.375 192.002 70.2356 191.608 70.2356C190.81 70.2356 190.403 70.6829 190.403 71.5389Z" fill="#46ABD2"/>
<path d="M200.416 76.3497H194.386C194.554 77.6544 195.605 78.5236 197.078 78.5236C197.948 78.5236 198.678 78.229 199.224 77.6265L199.968 78.4958C199.294 79.2801 198.27 79.7008 197.036 79.7008C194.638 79.7008 193.039 78.1162 193.039 75.8998C193.039 73.6981 194.623 72.1147 196.769 72.1147C198.915 72.1147 200.444 73.6569 200.444 75.9423C200.445 76.0538 200.431 76.2223 200.416 76.3497ZM194.387 75.3809H199.155C199.015 74.132 198.075 73.2495 196.771 73.2495C195.481 73.2508 194.526 74.1188 194.387 75.3809Z" fill="#46ABD2"/>
<path d="M201.623 75.8999C201.623 73.6849 203.263 72.1135 205.55 72.1135C206.884 72.1135 207.991 72.6603 208.58 73.6982L207.557 74.3578C207.079 73.6278 206.35 73.2921 205.537 73.2921C204.078 73.2921 202.983 74.3153 202.983 75.8999C202.983 77.5124 204.078 78.5238 205.537 78.5238C206.35 78.5238 207.079 78.1867 207.557 77.458L208.58 78.1017C207.991 79.1409 206.884 79.701 205.55 79.701C203.263 79.701 201.623 78.1163 201.623 75.8999Z" fill="#46ABD2"/>
<path d="M209.518 75.8999C209.518 73.6849 211.158 72.1135 213.445 72.1135C214.778 72.1135 215.886 72.6603 216.475 73.6982L215.452 74.3578C214.974 73.6278 214.245 73.2921 213.432 73.2921C211.973 73.2921 210.878 74.3153 210.878 75.8999C210.878 77.5124 211.972 78.5238 213.432 78.5238C214.245 78.5238 214.974 78.1867 215.452 77.458L216.475 78.1017C215.886 79.1409 214.778 79.701 213.445 79.701C211.158 79.701 209.518 78.1163 209.518 75.8999Z" fill="#46ABD2"/>
<path d="M217.973 69.8839C217.973 69.3928 218.366 69 218.885 69C219.403 69 219.797 69.3782 219.797 69.856C219.797 70.3603 219.419 70.7532 218.885 70.7532C218.368 70.7532 217.973 70.3749 217.973 69.8839ZM218.212 72.1852H219.559V79.6174H218.212V72.1852Z" fill="#46ABD2"/>
<path d="M221.437 75.8999C221.437 73.6849 223.078 72.1135 225.309 72.1135C227.54 72.1135 229.165 73.6849 229.165 75.8999C229.165 78.1163 227.538 79.701 225.309 79.701C223.079 79.701 221.437 78.1163 221.437 75.8999ZM227.805 75.8999C227.805 74.3153 226.739 73.2921 225.309 73.2921C223.878 73.2921 222.799 74.3153 222.799 75.8999C222.799 77.4846 223.878 78.5238 225.309 78.5238C226.739 78.5238 227.805 77.4846 227.805 75.8999Z" fill="#46ABD2"/>
<path d="M238.084 75.3398V79.6172H236.737V75.4937C236.737 74.0352 236.008 73.3185 234.732 73.3185C233.301 73.3185 232.376 74.1745 232.376 75.787V79.6172H231.03V72.1851H232.32V73.3065C232.867 72.5487 233.821 72.1147 235 72.1147C236.807 72.1147 238.084 73.1513 238.084 75.3398Z" fill="#46ABD2"/>
<path d="M247.312 76.3497H241.281C241.45 77.6544 242.502 78.5236 243.974 78.5236C244.843 78.5236 245.573 78.229 246.12 77.6265L246.863 78.4958C246.19 79.2801 245.166 79.7008 243.931 79.7008C241.533 79.7008 239.935 78.1162 239.935 75.8998C239.935 73.6981 241.52 72.1147 243.666 72.1147C245.811 72.1147 247.34 73.6569 247.34 75.9423C247.34 76.0538 247.326 76.2223 247.312 76.3497ZM241.281 75.3809H246.05C245.909 74.132 244.969 73.2495 243.666 73.2495C242.375 73.2508 241.423 74.1188 241.281 75.3809Z" fill="#46ABD2"/>
<path d="M248.265 78.8317L248.826 77.7659C249.456 78.2159 250.466 78.537 251.435 78.537C252.683 78.537 253.202 78.1588 253.202 77.5271C253.202 75.8575 248.504 77.3028 248.504 74.3432C248.504 73.0107 249.694 72.1135 251.602 72.1135C252.57 72.1135 253.664 72.3657 254.309 72.7864L253.734 73.8521C253.061 73.4181 252.318 73.2642 251.588 73.2642C250.411 73.2642 249.835 73.6982 249.835 74.2874C249.835 76.0406 254.547 74.6099 254.547 77.4992C254.547 78.8463 253.315 79.701 251.336 79.701C250.103 79.701 248.882 79.3214 248.265 78.8317Z" fill="#46ABD2"/>
<path d="M267.015 69.2109V79.6173H265.725V78.4401C265.121 79.2815 264.168 79.7022 263.075 79.7022C260.901 79.7022 259.315 78.1733 259.315 75.9012C259.315 73.6291 260.899 72.1148 263.075 72.1148C264.126 72.1148 265.051 72.5076 265.668 73.3079V69.2123H267.015V69.2109ZM265.684 75.8999C265.684 74.3152 264.605 73.292 263.187 73.292C261.757 73.292 260.678 74.3152 260.678 75.8999C260.678 77.4845 261.757 78.5237 263.187 78.5237C264.603 78.5237 265.684 77.4845 265.684 75.8999Z" fill="#46ABD2"/>
<path d="M276.257 76.3497H270.227C270.395 77.6544 271.448 78.5236 272.92 78.5236C273.789 78.5236 274.519 78.229 275.066 77.6265L275.809 78.4958C275.136 79.2801 274.111 79.7008 272.877 79.7008C270.48 79.7008 268.88 78.1162 268.88 75.8998C268.88 73.6981 270.464 72.1147 272.61 72.1147C274.756 72.1147 276.285 73.6569 276.285 75.9423C276.285 76.0538 276.271 76.2223 276.257 76.3497ZM270.227 75.3809H274.995C274.855 74.132 273.915 73.2495 272.61 73.2495C271.32 73.2508 270.366 74.1188 270.227 75.3809Z" fill="#46ABD2"/>
<path d="M283.269 69.2109H281.923V79.6173H283.269V69.2109Z" fill="#46ABD2"/>
<path d="M291.724 75.1286V79.6171H290.449V78.635C290 79.3079 289.173 79.7007 288.01 79.7007C286.327 79.7007 285.261 78.8036 285.261 77.5122C285.261 76.3204 286.032 75.3383 288.247 75.3383H290.379V75.0729C290.379 73.9382 289.719 73.2786 288.388 73.2786C287.504 73.2786 286.607 73.5865 286.031 74.0789L285.471 73.0689C286.242 72.4531 287.35 72.116 288.542 72.116C290.575 72.1146 291.724 73.0954 291.724 75.1286ZM290.379 77.345V76.3072H288.303C286.97 76.3072 286.592 76.8274 286.592 77.4578C286.592 78.201 287.209 78.6642 288.232 78.6642C289.244 78.6629 290.043 78.1997 290.379 77.345Z" fill="#46ABD2"/>
<path d="M300.659 72.1838L297.405 79.6173H296.031L292.777 72.1838H294.178L296.732 78.1442L299.34 72.1838H300.659Z" fill="#46ABD2"/>
<path d="M307.572 75.1286V79.6171H306.295V78.635C305.847 79.3079 305.02 79.7007 303.856 79.7007C302.173 79.7007 301.107 78.8036 301.107 77.5122C301.107 76.3204 301.88 75.3383 304.095 75.3383H306.226V75.0729C306.226 73.9382 305.568 73.2786 304.235 73.2786C303.352 73.2786 302.454 73.5865 301.88 74.0789L301.318 73.0689C302.089 72.4531 303.198 72.116 304.389 72.116C306.421 72.1146 307.572 73.0954 307.572 75.1286ZM306.226 77.345V76.3072H304.151C302.818 76.3072 302.44 76.8274 302.44 77.4578C302.44 78.201 303.057 78.6642 304.08 78.6642C305.09 78.6629 305.889 78.1997 306.226 77.345Z" fill="#46ABD2"/>
<path d="M317.122 75.3398V79.6172H315.775V75.4937C315.775 74.0352 315.046 73.3185 313.77 73.3185C312.339 73.3185 311.414 74.1745 311.414 75.787V79.6172H310.068V72.1851H311.358V73.3065C311.905 72.5487 312.859 72.1147 314.038 72.1147C315.845 72.1147 317.122 73.1513 317.122 75.3398Z" fill="#46ABD2"/>
<path d="M326.672 69.2109V79.6173H325.382V78.4401C324.779 79.2815 323.826 79.7022 322.732 79.7022C320.558 79.7022 318.972 78.1733 318.972 75.9012C318.972 73.6291 320.557 72.1148 322.732 72.1148C323.783 72.1148 324.708 72.5076 325.325 73.3079V69.2123H326.672V69.2109ZM325.34 75.8999C325.34 74.3152 324.261 73.292 322.844 73.292C321.413 73.292 320.334 74.3152 320.334 75.8999C320.334 77.4845 321.413 78.5237 322.844 78.5237C324.261 78.5237 325.34 77.4845 325.34 75.8999Z" fill="#46ABD2"/>
<path d="M335.914 76.3497H329.883C330.051 77.6544 331.104 78.5236 332.576 78.5236C333.445 78.5236 334.175 78.229 334.722 77.6265L335.465 78.4958C334.791 79.2801 333.768 79.7008 332.533 79.7008C330.136 79.7008 328.536 78.1162 328.536 75.8998C328.536 73.6981 330.121 72.1147 332.267 72.1147C334.413 72.1147 335.941 73.6569 335.941 75.9423C335.943 76.0538 335.928 76.2223 335.914 76.3497ZM329.883 75.3809H334.651C334.511 74.132 333.571 73.2495 332.267 73.2495C330.978 73.2508 330.024 74.1188 329.883 75.3809Z" fill="#46ABD2"/>
<path d="M341.804 72.1135V73.4181C341.691 73.4035 341.593 73.4035 341.494 73.4035C340.049 73.4035 339.153 74.2874 339.153 75.9132V79.616H337.806V72.1839H339.096V73.4314C339.574 72.5634 340.5 72.1135 341.804 72.1135Z" fill="#46ABD2"/>
<path d="M344.987 69.28H346.698L344.342 71.1036H343.08L344.987 69.28ZM343.459 72.1852H344.806V79.6174H343.459V72.1852Z" fill="#46ABD2"/>
<path d="M353.261 75.1287V79.6172H351.984V78.6351C351.536 79.308 350.709 79.7008 349.545 79.7008C347.862 79.7008 346.796 78.8037 346.796 77.5123C346.796 76.3205 347.569 75.3384 349.784 75.3384H351.915V75.073C351.915 73.9383 351.257 73.2787 349.925 73.2787C349.041 73.2787 348.143 73.5866 347.569 74.079L347.006 73.0677C347.777 72.4519 348.885 72.1147 350.077 72.1147C352.11 72.1147 353.261 73.0955 353.261 75.1287ZM351.915 77.3451V76.3073H349.84C348.507 76.3073 348.129 76.8275 348.129 77.4579C348.129 78.2011 348.746 78.6643 349.769 78.6643C350.779 78.663 351.578 78.1998 351.915 77.3451Z" fill="#46ABD2"/>
<path d="M56.6993 61.8952C57.3191 61.4718 57.9097 61.0219 58.4658 60.5415C64.5283 55.6296 69.2012 49.0721 71.8118 41.5576C72.5709 44.2863 72.985 47.1583 72.985 50.1245C72.985 67.7706 58.629 82.1265 40.983 82.1265C28.8633 82.1265 18.2964 75.354 12.8656 65.3949C18.7118 68.3651 25.2136 69.9471 31.9476 69.9471C41.1887 69.9498 49.741 66.9544 56.6993 61.8952ZM39.5855 30.9363C41.0507 30.0338 42.6791 29.491 44.3872 29.3331C44.7508 29.3079 45.1131 29.2959 45.4768 29.2959C50.9089 29.2959 56.2109 31.9954 59.2594 36.9006C63.5316 43.7767 62.0359 52.6501 56.0981 57.7823C55.6349 58.1566 55.1611 58.5215 54.6794 58.8732C54.4896 59.0033 54.2998 59.132 54.102 59.2554C50.4284 61.5568 46.0448 62.2695 41.7607 61.2621C37.5138 60.2654 33.945 57.7119 31.714 54.0728C28.6974 49.1517 28.5793 43.2631 30.8779 38.4441C30.4652 41.6811 31.1089 45.0826 32.9496 48.0847C35.3677 52.0303 39.6386 54.5904 44.2943 54.9687C44.6898 55.0191 45.0906 55.0536 45.5007 55.0536C50.7682 55.0536 55.0536 50.7682 55.0536 45.5007C55.0536 40.2331 50.7669 35.9477 45.5007 35.9477C40.2331 35.9477 35.9477 40.2331 35.9477 45.5007C35.9477 45.6865 35.965 45.867 35.9756 46.0501C32.874 40.8343 34.4706 34.0844 39.5855 30.9363ZM10.4727 59.7837C9.50519 56.7351 8.98095 53.4902 8.98095 50.1259C8.98095 32.4798 23.3369 18.1238 40.983 18.1238C53.5194 18.1238 64.3876 25.3715 69.6352 35.8933C68.7699 39.904 67.2769 43.6811 65.2675 47.1238C65.6126 43.0069 64.6876 38.7494 62.3478 34.9828C58.6118 28.9681 52.1126 25.6621 45.4569 25.6674V25.6449H45.4343C44.9472 25.6449 44.4628 25.6781 43.9811 25.7258C40.8941 25.9554 37.8137 26.9004 35.0001 28.6323C25.7312 34.3352 22.8685 46.6009 28.6164 55.9747C31.3584 60.4472 35.7314 63.5833 40.9299 64.8043C41.2551 64.88 41.5802 64.945 41.9054 65.0034C38.7255 65.8541 35.389 66.3147 31.9463 66.3147C24.1943 66.3133 16.7768 64.0253 10.4727 59.7837ZM42.4761 85.7245C61.436 84.9375 76.6201 69.2742 76.6201 50.1245C76.6201 44.8835 75.4721 39.9066 73.4309 35.4182C73.8901 32.931 74.1423 30.3709 74.1423 27.7511C74.1423 23.5227 73.5 19.3276 72.267 15.3182C80.595 22.7092 85.8479 33.4885 85.8479 45.498C85.8479 67.7825 67.7825 85.8479 45.4993 85.8479C44.4814 85.8493 43.4754 85.7988 42.4761 85.7245ZM5.14942 45.4993C5.14942 23.2148 23.2148 5.15074 45.4993 5.15074C53.319 5.15074 60.6145 7.38172 66.7964 11.2318C69.2304 16.3653 70.5072 22.027 70.5072 27.7524C70.5072 28.5355 70.4767 29.3092 70.4302 30.0803C64.008 20.6746 53.2049 14.4874 40.9817 14.4874C21.5001 14.4874 5.62854 30.2011 5.35647 49.6189C5.21977 48.2652 5.14942 46.8915 5.14942 45.4993ZM0 45.4993C0 70.5881 20.4119 91 45.5007 91C70.5882 91 91 70.5895 91 45.4993C91 20.4119 70.5882 0 45.5007 0C20.4105 0 0 20.4119 0 45.4993Z" fill="url(#paint0_radial)"/>
<path d="M242.105 13.2315C239.95 15.2932 238.873 17.869 238.873 20.9586V27.2104H235.221V36.8339H238.873V59.6403H248.498V36.8354H254.61V27.2119H248.509V23.558C248.509 21.3471 250.302 19.5541 252.512 19.5541H258.758V10H249.832C246.835 10 244.26 11.0781 242.105 13.2315Z" fill="#0266AB"/>
<path d="M314.021 11.2642H304.467V59.6417H314.021V11.2642Z" fill="#46ABD2"/>
<path d="M185.549 53.7222C181.515 57.6685 176.725 59.6416 171.182 59.6416C165.684 59.6416 160.916 57.6685 156.881 53.7222C152.933 49.6888 150.962 44.9213 150.962 39.4213C150.962 33.88 152.935 29.0904 156.881 25.054C160.916 21.1077 165.682 19.1345 171.182 19.1345C176.725 19.1345 181.513 21.1077 185.549 25.054C189.496 29.0889 191.469 33.8785 191.469 39.4213C191.469 44.9213 189.496 49.6888 185.549 53.7222ZM179.03 31.5066C176.858 29.3355 174.241 28.2485 171.182 28.2485C168.122 28.2485 165.484 29.3355 163.267 31.5066C161.095 33.7249 160.008 36.3626 160.008 39.4213C160.008 42.4815 161.093 45.1192 163.267 47.336C165.484 49.51 168.123 50.5956 171.182 50.5956C174.242 50.5956 176.858 49.51 179.03 47.336C181.247 45.1192 182.356 42.4815 182.356 39.4213C182.356 36.3626 181.247 33.7249 179.03 31.5066Z" fill="#0266AB"/>
<path d="M221.206 59.6416V36.3995C221.206 34.2107 220.431 32.3661 218.882 30.8611C217.333 29.3118 215.486 28.5365 213.345 28.5365C211.158 28.5365 209.288 29.3118 207.74 30.8611C206.191 32.4104 205.415 34.2565 205.415 36.3995V59.643H196.118V19.2128H205.415V22.1784C208.059 20.1727 211.09 19.1699 214.507 19.1699C219.111 19.1699 222.985 20.9481 226.129 24.503C227.633 26.1897 228.749 28.0225 229.479 30.006C230.207 31.988 230.573 34.1206 230.573 36.3995V59.643H221.206V59.6416Z" fill="#0266AB"/>
<path d="M299.354 43.9716H269.339C270.091 45.6095 271.178 47.0037 272.592 48.1542C274.762 49.7921 277.085 50.6103 279.565 50.6103C283.018 50.6103 286.207 48.8838 289.126 45.4308L296.697 50.213C294.44 53.1786 291.817 55.4914 288.828 57.1515C285.842 58.8115 282.754 59.6415 279.566 59.6415C274.075 59.6415 269.317 57.6714 265.289 53.731C261.349 49.7035 259.38 44.9449 259.38 39.4552C259.38 33.9227 261.349 29.1405 265.289 25.113C269.318 21.1726 274.075 19.2024 279.566 19.2024C285.099 19.2024 289.88 21.1726 293.91 25.113C297.848 29.142 299.819 33.9227 299.819 39.4552C299.818 40.6515 299.663 42.1565 299.354 43.9716ZM270.668 32.6836C270.138 33.3925 269.692 34.1221 269.339 34.8753H289.792C289.082 33.2817 287.976 31.8861 286.472 30.6927C284.479 29.0991 282.179 28.3031 279.566 28.3031C277.042 28.3031 274.719 29.0991 272.594 30.6927C271.841 31.3115 271.198 31.9747 270.668 32.6836Z" fill="#0266AB"/>
<path d="M350.371 59.6033V54.9363C347.012 58.0732 342.924 59.6417 338.108 59.6417C332.671 59.6417 328.099 57.5873 324.386 53.4771C320.85 49.6327 319.082 44.9701 319.082 39.4908C319.082 34.0115 320.872 29.3061 324.452 25.3716C328.121 21.3057 332.671 19.2734 338.108 19.2734C342.88 19.2734 346.968 20.8641 350.371 24.0468V19.2129H359.452V59.6018H350.371V59.6033ZM347.056 31.6027C344.891 29.439 342.285 28.3549 339.236 28.3549C336.186 28.3549 333.556 29.4375 331.348 31.6027C329.181 33.8136 328.099 36.4425 328.099 39.4908C328.099 42.5406 329.181 45.1695 331.348 47.379C333.556 49.5456 336.186 50.6282 339.236 50.6282C342.285 50.6282 344.891 49.5456 347.056 47.379C349.266 45.1695 350.371 42.5406 350.371 39.4908C350.371 36.4425 349.266 33.8136 347.056 31.6027Z" fill="#46ABD2"/>
<path d="M388.587 59.6417H379.906L363.635 19.2129H373.687L384.214 45.49L394.882 19.2129H405L388.587 59.6417Z" fill="#46ABD2"/>
<path d="M144.864 49.3462L138.811 45.4354C137.002 47.5414 135.101 48.9962 133.112 49.8173C133.031 49.8498 132.949 49.8868 132.868 49.9178C131.672 50.3786 130.445 50.6149 129.185 50.6149C126.131 50.6149 123.497 49.5308 121.285 47.3612C119.115 45.1488 118.031 42.5155 118.031 39.4613C118.031 36.4085 119.115 33.7752 121.285 31.5613C123.497 29.3932 126.132 28.3092 129.185 28.3092C132.681 28.3092 135.89 30.0135 138.811 33.4207L146.313 28.6415C144.056 25.6758 141.433 23.363 138.445 21.703C135.457 20.0444 132.371 19.2129 129.183 19.2129C123.695 19.2129 118.937 21.1831 114.909 25.122C110.969 29.1495 109 33.9303 109 39.4627C109 44.9509 110.969 49.7095 114.909 53.737C118.937 57.676 123.695 59.6461 129.183 59.6461C130.414 59.6461 131.614 59.5398 132.789 59.3316V59.336C132.827 59.3286 132.864 59.3153 132.902 59.3079C134.729 58.9742 136.488 58.3923 138.179 57.5534C140.99 56.1592 143.347 54.2008 145.249 51.6782C145.249 51.6782 145.965 50.7286 146.311 50.2737L144.864 49.3462Z" fill="#0266AB"/>
<defs>
<radialGradient id="paint0_radial" cx="0" cy="0" r="1" gradientUnits="userSpaceOnUse" gradientTransform="translate(45.4992 45.4997) scale(45.4997)">
<stop stop-color="#46ABD2"/>
<stop offset="0.2976" stop-color="#46ABD2"/>
<stop offset="0.4411" stop-color="#3EA2CD"/>
<stop offset="0.6711" stop-color="#268BC0"/>
<stop offset="0.9512" stop-color="#0266AB"/>
<stop offset="1" stop-color="#0266AB"/>
</radialGradient>
</defs>
</svg>
